48,1.86
FLOOR:7|,FLOOR:7|,FLOOR:7|,FLOOR:7|,FLOOR:7|,FLOOR:7|,FLOOR:7|,FLOOR:7|,FLOOR:7|,FLOOR:7|,FLOOR:7|,FLOOR:7|,FLOOR:7|,FLOOR:7|,FLOOR:7|,FLOOR:7|,FLOOR:7|,FLOOR:7|,FLOOR:7|,FLOOR:7|,FLOOR:7|,FLOOR:7|,FLOOR:7|,FLOOR:7|,FLOOR:7|,FLOOR:7|,FLOOR:7|,FLOOR:7|,FLOOR:7|,FLOOR:7|,FLOOR:7|,FLOOR:7|,FLOOR:7|,FLOOR:7|,FLOOR:7|,FLOOR:7|,FLOOR:7|,FLOOR:7|,FLOOR:7|,FLOOR:7|,FLOOR:7|,FLOOR:7|,FLOOR:7|,FLOOR:7|,FLOOR:7|,FLOOR:7|,FLOOR:7|,FLOOR:7|,
FLOOR:7|,FLOOR:7|,FLOOR:7|,FLOOR:7|,FLOOR:7|,FLOOR:7|,FLOOR:7|,FLOOR:7|,FLOOR:7|,FLOOR:7|,FLOOR:7|,FLOOR:7|,FLOOR:7|,FLOOR:7|,FLOOR:7|,FLOOR:7|,FLOOR:7|,FLOOR:7|,FLOOR:7|,FLOOR:7|,FLOOR:7|,FLOOR:7|,FLOOR:7|,FLOOR:7|,FLOOR:7|,FLOOR:7|,FLOOR:7|,FLOOR:7|,FLOOR:7|,FLOOR:7|,FLOOR:7|,FLOOR:7|,FLOOR:7|,FLOOR:7|,FLOOR:7|,FLOOR:7|,FLOOR:7|,FLOOR:7|,FLOOR:7|,FLOOR:7|,FLOOR:7|,FLOOR:7|,FLOOR:7|,FLOOR:7|,FLOOR:7|,FLOOR:7|,FLOOR:7|,FLOOR:7|,
FLOOR:7|,FLOOR:7|,FLOOR:7|,FLOOR:7|,FLOOR:7|,FLOOR:7|,FLOOR:7|,FLOOR:7|,FLOOR:7|,FLOOR:7|,FLOOR:7|,FLOOR:7|,FLOOR:7|,WALL:17|,FLOOR:7|,FLOOR:7|,FLOOR:7|,FLOOR:7|,FLOOR:7|,FLOOR:7|,FLOOR:7|,FLOOR:7|,FLOOR:7|,FLOOR:7|,FLOOR:7|,FLOOR:7|,FLOOR:7|,FLOOR:7|,FLOOR:7|,FLOOR:7|,FLOOR:7|,FLOOR:7|,FLOOR:7|,FLOOR:7|,FLOOR:7|,FLOOR:7|,FLOOR:7|,FLOOR:7|,FLOOR:7|,FLOOR:7|,FLOOR:7|,FLOOR:7|,FLOOR:7|,FLOOR:7|,FLOOR:7|,FLOOR:7|,FLOOR:7|,FLOOR:7|,
FLOOR:7|,FLOOR:7|,FLOOR:7|,FLOOR:7|,FLOOR:7|,FLOOR:7|,FLOOR:7|,FLOOR:7|,WALL:17|,FLOOR:7|,FLOOR:7|,FLOOR:7|,FLOOR:7|,FLOOR:7|,FLOOR:7|,FLOOR:7|,FLOOR:7|,FLOOR:7|,FLOOR:7|,FLOOR:7|,FLOOR:7|,FLOOR:7|,FLOOR:7|,FLOOR:7|,FLOOR:7|,FLOOR:7|,FLOOR:7|,FLOOR:7|,FLOOR:7|,FLOOR:7|,FLOOR:7|,FLOOR:7|,FLOOR:7|,FLOOR:7|,FLOOR:7|,FLOOR:7|,FLOOR:7|,FLOOR:7|,FLOOR:7|,FLOOR:7|,FLOOR:7|,FLOOR:7|,FLOOR:7|,FLOOR:7|,FLOOR:7|,FLOOR:7|,FLOOR:7|,FLOOR:7|,
FLOOR:7|,FLOOR:7|,FLOOR:7|,FLOOR:7|,WALL:17|,FLOOR:7|,FLOOR:7|,FLOOR:7|,FLOOR:7|,FLOOR:7|,WALL:17|,FLOOR:7|,FLOOR:7|,FLOOR:7|,FLOOR:7|,FLOOR:7|,FLOOR:7|,FLOOR:7|,FLOOR:7|,FLOOR:7|,FLOOR:7|,FLOOR:7|,FLOOR:7|,FLOOR:7|,FLOOR:7|,FLOOR:7|,FLOOR:7|,FLOOR:7|,FLOOR:7|,FLOOR:7|,FLOOR:7|,FLOOR:7|,FLOOR:7|,FLOOR:7|,FLOOR:7|,FLOOR:7|,FLOOR:7|,FLOOR:7|,FLOOR:7|,FLOOR:7|,WALL:17|,WALL:17|,WALL:17|,WALL:17|,FLOOR:7|,FLOOR:7|,FLOOR:7|,FLOOR:7|,
FLOOR:7|,FLOOR:7|,FLOOR:7|,FLOOR:7|,FLOOR:7|,FLOOR:7|,WALL:17|,FLOOR:7|,FLOOR:7|,FLOOR:7|,FLOOR:7|,FLOOR:7|,FLOOR:7|,WALL:17|,FLOOR:7|,FLOOR:7|,FLOOR:7|,FLOOR:7|,FLOOR:7|,FLOOR:7|,FLOOR:7|,FLOOR:7|,FLOOR:7|,FLOOR:7|,FLOOR:7|,FLOOR:7|,FLOOR:7|,FLOOR:7|,FLOOR:7|,FLOOR:7|,FLOOR:7|,FLOOR:7|,FLOOR:7|,FLOOR:7|,FLOOR:7|,FLOOR:7|,FLOOR:7|,FLOOR:7|,FLOOR:9|,FLOOR:9|,FLOOR:10|DOOR:1|,FLOOR:10|,FLOOR:10|,WALL:17|,FLOOR:7|,FLOOR:7|,FLOOR:7|,FLOOR:7|,
FLOOR:7|,FLOOR:7|,FLOOR:7|,WALL:17|,FLOOR:7|,FLOOR:7|,FLOOR:7|,FLOOR:7|,FLOOR:7|,WALL:17|,FLOOR:7|,FLOOR:7|,FLOOR:7|,FLOOR:7|,FLOOR:7|,FLOOR:7|,FLOOR:7|,FLOOR:7|,FLOOR:7|,FLOOR:7|,FLOOR:7|,FLOOR:7|,FLOOR:7|,FLOOR:7|,FLOOR:7|,FLOOR:7|,FLOOR:7|,FLOOR:7|,FLOOR:7|,FLOOR:7|,FLOOR:7|,FLOOR:7|,FLOOR:7|,FLOOR:7|,FLOOR:7|,FLOOR:7|,FLOOR:7|,FLOOR:7|,FLOOR:9|,FLOOR:7|,WALL:17|,FLOOR:10|,FLOOR:10|,WALL:17|,FLOOR:7|,FLOOR:7|,FLOOR:7|,FLOOR:7|,
FLOOR:7|,FLOOR:7|,FLOOR:7|,FLOOR:7|,FLOOR:7|,FLOOR:7|,FLOOR:7|,WALL:17|,FLOOR:7|,FLOOR:7|,FLOOR:7|,FLOOR:7|,WALL:17|,FLOOR:7|,FLOOR:7|,FLOOR:7|,FLOOR:7|,FLOOR:7|,FLOOR:7|,FLOOR:7|,FLOOR:7|,FLOOR:7|,FLOOR:7|,FLOOR:7|,FLOOR:7|,FLOOR:7|,FLOOR:7|,FLOOR:7|,FLOOR:7|,FLOOR:7|,FLOOR:7|,FLOOR:7|,FLOOR:7|,FLOOR:7|,FLOOR:7|,FLOOR:7|,FLOOR:7|,FLOOR:7|,FLOOR:9|,FLOOR:7|,WALL:17|,WALL:17|,WALL:17|,WALL:17|,FLOOR:7|,FLOOR:7|,FLOOR:7|,FLOOR:7|,
FLOOR:7|,FLOOR:7|,FLOOR:7|,FLOOR:7|,FLOOR:7|,FLOOR:7|,FLOOR:7|,FLOOR:7|,FLOOR:7|,FLOOR:7|,FLOOR:7|,FLOOR:7|,FLOOR:7|,FLOOR:7|,FLOOR:7|,FLOOR:7|,FLOOR:7|,FLOOR:7|,FLOOR:7|,FLOOR:7|,FLOOR:7|,FLOOR:7|,FLOOR:7|,FLOOR:7|,FLOOR:7|,FLOOR:7|,FLOOR:7|,FLOOR:7|,FLOOR:7|,FLOOR:7|,FLOOR:7|,FLOOR:7|,FLOOR:7|,FLOOR:7|,FLOOR:7|,FLOOR:7|,FLOOR:7|,FLOOR:7|,FLOOR:9|,FLOOR:7|,FLOOR:7|,FLOOR:7|,FLOOR:7|,FLOOR:7|,FLOOR:7|,FLOOR:7|,FLOOR:7|,FLOOR:7|,
FLOOR:7|,FLOOR:7|,FLOOR:7|,FLOOR:7|,FLOOR:7|,FLOOR:7|,FLOOR:7|,FLOOR:7|,FLOOR:7|,FLOOR:7|,FLOOR:7|,FLOOR:7|,FLOOR:7|,FLOOR:7|,FLOOR:7|,FLOOR:7|,FLOOR:7|,FLOOR:7|,FLOOR:7|,FLOOR:7|,FLOOR:7|,FLOOR:7|,FLOOR:7|,FLOOR:7|,FLOOR:7|,FLOOR:7|,FLOOR:7|,FLOOR:7|,FLOOR:7|,FLOOR:7|,FLOOR:7|,FLOOR:7|,FLOOR:7|,FLOOR:7|,FLOOR:7|,FLOOR:7|,FLOOR:7|,FLOOR:7|,FLOOR:7|,FLOOR:7|,FLOOR:7|,FLOOR:7|,FLOOR:7|,FLOOR:7|,FLOOR:7|,FLOOR:7|,FLOOR:7|,FLOOR:7|,
FLOOR:7|,FLOOR:7|,FLOOR:7|,FLOOR:7|DEPLOY:1|,FLOOR:7|DEPLOY:1|,FLOOR:7|DEPLOY:1|,FLOOR:7|DEPLOY:1|,FLOOR:7|DEPLOY:1|,FLOOR:7|DEPLOY:1|,FLOOR:7|DEPLOY:1|,FLOOR:7|,FLOOR:7|,FLOOR:7|,FLOOR:7|,FLOOR:7|,FLOOR:7|,FLOOR:7|,FLOOR:7|,FLOOR:7|,FLOOR:7|,FLOOR:7|,FLOOR:7|,FLOOR:7|,FLOOR:7|,FLOOR:7|,FLOOR:7|,FLOOR:7|,FLOOR:7|,FLOOR:7|,FLOOR:7|,FLOOR:7|,FLOOR:7|,FLOOR:7|,FLOOR:7|,FLOOR:7|,FLOOR:7|,FLOOR:7|,FLOOR:7|,FLOOR:7|,FLOOR:7|,FLOOR:7|,FLOOR:7|,FLOOR:7|,FLOOR:7|,FLOOR:7|,FLOOR:7|,FLOOR:7|,FLOOR:7|,
FLOOR:7|,FLOOR:7|,FLOOR:7|,FLOOR:7|DEPLOY:1|,FLOOR:7|DEPLOY:1|,FLOOR:7|DEPLOY:1|,FLOOR:7|DEPLOY:1|,FLOOR:7|DEPLOY:1|,FLOOR:7|DEPLOY:1|,FLOOR:7|DEPLOY:1|,FLOOR:7|,FLOOR:7|,FLOOR:7|,FLOOR:7|,FLOOR:7|,FLOOR:7|,FLOOR:7|,FLOOR:7|,FLOOR:7|,FLOOR:7|,FLOOR:7|,FLOOR:7|,FLOOR:7|,FLOOR:7|,FLOOR:7|,FLOOR:7|,FLOOR:7|,FLOOR:7|,FLOOR:7|,FLOOR:7|,FLOOR:7|,FLOOR:7|,FLOOR:7|,FLOOR:7|,FLOOR:7|,FLOOR:7|,FLOOR:7|,FLOOR:7|,FLOOR:7|,FLOOR:7|,FLOOR:7|,FLOOR:7|,FLOOR:7|,FLOOR:7|,FLOOR:7|,FLOOR:7|,FLOOR:7|,FLOOR:7|,
FLOOR:7|,FLOOR:7|,FLOOR:7|,FLOOR:7|DEPLOY:1|,FLOOR:7|DEPLOY:1|,FLOOR:7|DEPLOY:1|,FLOOR:7|,FLOOR:7|,FLOOR:7|,FLOOR:7|,FLOOR:7|,WALL:17|,WALL:17|,WALL:17|,WALL:17|,WALL:17|,WALL:17|,FLOOR:7|,FLOOR:7|,FLOOR:7|,FLOOR:7|,FLOOR:7|,FLOOR:7|,FLOOR:7|,FLOOR:7|,FLOOR:7|,FLOOR:7|,FLOOR:7|,FLOOR:7|,FLOOR:7|,FLOOR:7|,FLOOR:7|,FLOOR:7|,FLOOR:7|,FLOOR:7|,FLOOR:7|,FLOOR:7|,FLOOR:7|,FLOOR:7|,FLOOR:7|,FLOOR:7|,FLOOR:7|,FLOOR:7|,FLOOR:7|,FLOOR:7|,FLOOR:7|,FLOOR:7|,FLOOR:7|,
FLOOR:7|,FLOOR:7|,FLOOR:7|,FLOOR:7|DEPLOY:1|,FLOOR:7|DEPLOY:1|,FLOOR:7|DEPLOY:1|,FLOOR:7|,FLOOR:7|,WALL:17|,WALL:17|,WALL:17|,WALL:17|,FLOOR:10|SCENERY:1:0|,FLOOR:10|DEPLOY:2|,FLOOR:10|DEPLOY:2|,FLOOR:10|SCENERY:1:0|,WALL:17|,WALL:17|,FLOOR:7|,FLOOR:7|,FLOOR:7|,FLOOR:7|,FLOOR:7|,FLOOR:7|,FLOOR:7|,FLOOR:7|,FLOOR:7|,FLOOR:7|,WALL:17|,WALL:17|,WALL:17|,WALL:17|,WALL:17|,WALL:17|,WALL:17|,WALL:17|,WALL:17|,FLOOR:7|,FLOOR:7|,FLOOR:7|,FLOOR:7|,FLOOR:7|,FLOOR:7|,FLOOR:7|,FLOOR:7|,FLOOR:7|,FLOOR:7|,FLOOR:7|,
FLOOR:7|,FLOOR:7|,FLOOR:7|,FLOOR:7|DEPLOY:1|,FLOOR:7|DEPLOY:1|,FLOOR:7|DEPLOY:1|,FLOOR:7|,FLOOR:7|,WALL:17|,FLOOR:10|DEPLOY:2|,WALL:17|,FLOOR:10|DEPLOY:2|,FLOOR:10|DEPLOY:2|,FLOOR:10|DEPLOY:2|,FLOOR:10|DEPLOY:2|,FLOOR:10|DEPLOY:2|,FLOOR:10|DEPLOY:2|,WALL:17|,WALL:17|,WALL:17|,WALL:17|,WALL:17|,WALL:17|,FLOOR:7|,FLOOR:7|,FLOOR:7|,FLOOR:7|,FLOOR:7|,WALL:17|,FLOOR:10|SCENERY:1:0|,FLOOR:10|DEPLOY:2|,FLOOR:10|DEPLOY:2|,FLOOR:10|DEPLOY:2|,FLOOR:10|DEPLOY:2|,FLOOR:10|DEPLOY:2|,FLOOR:10|DEPLOY:2|,WALL:17|,FLOOR:7|,FLOOR:7|,FLOOR:7|,FLOOR:7|,FLOOR:7|,FLOOR:7|,FLOOR:7|,FLOOR:7|,FLOOR:7|,FLOOR:7|,FLOOR:7|,
FLOOR:7|,FLOOR:7|,FLOOR:7|,FLOOR:7|DEPLOY:1|,FLOOR:7|DEPLOY:1|,FLOOR:7|DEPLOY:1|,FLOOR:7|,FLOOR:7|,WALL:17|,FLOOR:10|DOOR:2|,WALL:17|,FLOOR:10|DEPLOY:2|,FLOOR:10|DEPLOY:2|,FLOOR:10|DEPLOY:2|,FLOOR:10|DEPLOY:2|,FLOOR:10|DEPLOY:2|,FLOOR:10|DEPLOY:2|,FLOOR:10|DEPLOY:2|,FLOOR:10|DOOR:1|,FLOOR:10|DEPLOY:2|,FLOOR:10|DEPLOY:2|,FLOOR:10|DEPLOY:2|,WALL:17|,FLOOR:7|,FLOOR:7|,FLOOR:7|,FLOOR:7|,FLOOR:7|,WALL:17|,FLOOR:10|DEPLOY:2|,FLOOR:10|DEPLOY:2|,FLOOR:10|DEPLOY:2|,FLOOR:10|DEPLOY:2|,FLOOR:10|DEPLOY:2|,FLOOR:10|DEPLOY:2|,FLOOR:10|DEPLOY:2|,WALL:17|,FLOOR:7|,FLOOR:7|,FLOOR:7|,FLOOR:7|,FLOOR:9|,FLOOR:9|,FLOOR:9|,FLOOR:9|,FLOOR:9|,FLOOR:7|,FLOOR:7|,
FLOOR:7|,FLOOR:7|,FLOOR:7|,FLOOR:7|DEPLOY:1|,FLOOR:7|DEPLOY:1|,FLOOR:7|DEPLOY:1|,FLOOR:7|,FLOOR:7|,WALL:17|,FLOOR:10|DEPLOY:2|,FLOOR:10|DEPLOY:2|,FLOOR:10|DEPLOY:2|,FLOOR:10|DEPLOY:2|,FLOOR:10|DEPLOY:2|,FLOOR:10|DEPLOY:2|,FLOOR:10|DEPLOY:2|,FLOOR:10|DEPLOY:2|,FLOOR:10|DEPLOY:2|,WALL:17|,WALL:17|,WALL:17|,WALL:17|,WALL:17|,FLOOR:7|,FLOOR:7|,FLOOR:7|,FLOOR:7|,FLOOR:7|,WALL:17|,FLOOR:10|DEPLOY:2|,FLOOR:10|DEPLOY:2|,FLOOR:10|DEPLOY:2|,FLOOR:10|DEPLOY:2|,WALL:17|,WALL:17|,FLOOR:10|DOOR:2|,WALL:17|,WALL:17|,WALL:17|,WALL:17|,FLOOR:7|,FLOOR:9|,FLOOR:7|DEPLOY:3|,FLOOR:7|DEPLOY:3|,FLOOR:7|DEPLOY:3|,FLOOR:7|,FLOOR:7|,FLOOR:7|,
FLOOR:7|,FLOOR:7|,FLOOR:7|,FLOOR:7|DEPLOY:1|,FLOOR:7|DEPLOY:1|,FLOOR:7|DEPLOY:1|,FLOOR:6|,FLOOR:6|,WALL:17|,FLOOR:10|DEPLOY:2|,FLOOR:10|DEPLOY:2|,FLOOR:10|DEPLOY:2|,FLOOR:10|DEPLOY:2|,FLOOR:10|DEPLOY:2|,FLOOR:10|DEPLOY:2|,FLOOR:10|DEPLOY:2|,FLOOR:10|DEPLOY:2|,FLOOR:10|DEPLOY:2|,FLOOR:10|DOOR:1|,FLOOR:10|DEPLOY:2|,FLOOR:10|DEPLOY:2|,FLOOR:10|SCENERY:1:0|,WALL:17|,WALL:17|,WALL:17|,WALL:17|,WALL:17|,WALL:17|,WALL:17|,FLOOR:10|DEPLOY:2|,FLOOR:10|DEPLOY:2|,FLOOR:10|DEPLOY:2|,FLOOR:10|DEPLOY:2|,WALL:17|,FLOOR:10|DEPLOY:2|,FLOOR:10|DEPLOY:2|,FLOOR:10|DEPLOY:2|,FLOOR:10|DEPLOY:2|,FLOOR:10|DEPLOY:2|,WALL:17|,FLOOR:7|,FLOOR:9|,FLOOR:7|DEPLOY:3|,FLOOR:7|DEPLOY:3|,FLOOR:7|DEPLOY:3|,FLOOR:7|,FLOOR:7|,FLOOR:7|,
FLOOR:7|,FLOOR:7|,FLOOR:7|,FLOOR:7|DEPLOY:1|,FLOOR:7|DEPLOY:1|,FLOOR:7|DEPLOY:1|,FLOOR:6|,FLOOR:6|,WALL:17|,WALL:17|,WALL:17|,WALL:17|,FLOOR:10|SCENERY:1:0|,FLOOR:10|DEPLOY:2|,FLOOR:10|DEPLOY:2|,FLOOR:10|DEPLOY:2|,FLOOR:10|DEPLOY:2|,FLOOR:10|DEPLOY:2|,WALL:17|,FLOOR:10|DEPLOY:2|,FLOOR:10|DEPLOY:2|,FLOOR:10|DEPLOY:2|,FLOOR:10|DEPLOY:2|,FLOOR:10|DEPLOY:2|,FLOOR:10|DEPLOY:2|,FLOOR:10|DEPLOY:2|,FLOOR:10|DEPLOY:2|,FLOOR:10|DEPLOY:2|,FLOOR:10|DEPLOY:2|,FLOOR:10|DEPLOY:2|,FLOOR:10|DEPLOY:2|,FLOOR:10|DEPLOY:2|,FLOOR:10|DEPLOY:2|,WALL:17|,FLOOR:10|DEPLOY:2|,FLOOR:10|DEPLOY:2|,FLOOR:10|DEPLOY:2|,FLOOR:10|DEPLOY:2|,FLOOR:10|DEPLOY:2|,FLOOR:10|DOOR:1|,FLOOR:9|,FLOOR:9|,FLOOR:7|DEPLOY:3|,FLOOR:7|DEPLOY:3|,FLOOR:7|DEPLOY:3|,FLOOR:7|,FLOOR:7|,FLOOR:7|,
FLOOR:6|,FLOOR:6|,FLOOR:6|,FLOOR:6|DEPLOY:1|,FLOOR:6|DEPLOY:1|,FLOOR:6|DEPLOY:1|,FLOOR:6|,FLOOR:6|,FLOOR:6|,FLOOR:6|,FLOOR:6|,WALL:17|,WALL:17|,WALL:17|,WALL:17|,WALL:17|,WALL:17|,WALL:17|,WALL:17|,FLOOR:10|DEPLOY:2|,FLOOR:10|DEPLOY:2|,FLOOR:10|DEPLOY:2|,WALL:17|,WALL:17|,FLOOR:10|DOOR:2|,WALL:17|,WALL:17|,WALL:17|,WALL:17|,WALL:17|,WALL:17|,WALL:17|,WALL:17|,WALL:17|,FLOOR:10|DEPLOY:2|,FLOOR:10|DEPLOY:2|,FLOOR:10|DEPLOY:2|,FLOOR:10|DEPLOY:2|,FLOOR:10|DEPLOY:2|,WALL:17|,FLOOR:7|,FLOOR:9|,FLOOR:7|DEPLOY:3|,FLOOR:7|DEPLOY:3|,FLOOR:7|DEPLOY:3|,FLOOR:7|,FLOOR:7|,FLOOR:7|,
FLOOR:6|,FLOOR:6|,FLOOR:6|,FLOOR:6|DEPLOY:1|,FLOOR:6|DEPLOY:1|,FLOOR:6|DEPLOY:1|,FLOOR:6|,FLOOR:6|,FLOOR:6|,FLOOR:6|,FLOOR:6|,WALL:17|,FLOOR:10|DEPLOY:2|,FLOOR:10|DEPLOY:2|,FLOOR:10|DEPLOY:2|,FLOOR:10|DEPLOY:2|,FLOOR:10|DEPLOY:2|,FLOOR:10|DEPLOY:2|,WALL:17|,FLOOR:10|DEPLOY:2|,FLOOR:10|DEPLOY:2|,FLOOR:10|DEPLOY:2|,WALL:17|,FLOOR:10|DEPLOY:2|,FLOOR:10|DEPLOY:2|,FLOOR:10|DEPLOY:2|,FLOOR:10|DEPLOY:2|,FLOOR:10|DEPLOY:2|,FLOOR:10|DEPLOY:2|,FLOOR:10|DEPLOY:2|,FLOOR:10|DOOR:1|,FLOOR:10|DEPLOY:2|,FLOOR:10|DEPLOY:2|,WALL:17|,FLOOR:10|DEPLOY:2|,FLOOR:10|DEPLOY:2|,FLOOR:10|DEPLOY:2|,FLOOR:10|DEPLOY:2|,FLOOR:10|SCENERY:1:0|,WALL:17|,FLOOR:7|,FLOOR:9|,FLOOR:7|DEPLOY:3|,FLOOR:7|DEPLOY:3|,FLOOR:7|DEPLOY:3|,FLOOR:7|,FLOOR:7|,FLOOR:7|,
FLOOR:6|,FLOOR:6|,FLOOR:6|,FLOOR:6|DEPLOY:1|,FLOOR:6|DEPLOY:1|,FLOOR:6|DEPLOY:1|,FLOOR:6|,FLOOR:6|,FLOOR:6|,FLOOR:6|,FLOOR:6|,FLOOR:10|DOOR:1|,FLOOR:10|DEPLOY:2|,FLOOR:10|DEPLOY:2|,FLOOR:10|DEPLOY:2|,FLOOR:10|DEPLOY:2|,FLOOR:10|DEPLOY:2|,FLOOR:10|DEPLOY:2|,FLOOR:10|DOOR:1|,FLOOR:10|DEPLOY:2|,FLOOR:10|DEPLOY:2|,FLOOR:10|DEPLOY:2|,WALL:17|,FLOOR:10|DEPLOY:2|,FLOOR:10|DEPLOY:2|,FLOOR:10|DEPLOY:2|,WALL:17|,FLOOR:10|DEPLOY:2|,FLOOR:10|DEPLOY:2|,FLOOR:10|DEPLOY:2|,WALL:17|,WALL:17|,WALL:17|,WALL:17|,WALL:17|,FLOOR:10|DOOR:2|,WALL:17|,WALL:17|,WALL:17|,WALL:17|,FLOOR:7|,FLOOR:9|,FLOOR:7|DEPLOY:3|,FLOOR:7|DEPLOY:3|,FLOOR:7|DEPLOY:3|,FLOOR:7|,FLOOR:7|,FLOOR:7|,
FLOOR:6|,FLOOR:6|,FLOOR:6|,FLOOR:6|DEPLOY:1|,FLOOR:6|DEPLOY:1|,FLOOR:6|DEPLOY:1|,FLOOR:6|,FLOOR:6|,FLOOR:6|,FLOOR:6|,FLOOR:6|,WALL:17|,FLOOR:10|DEPLOY:2|,FLOOR:10|DEPLOY:2|,FLOOR:10|DEPLOY:2|,FLOOR:10|DEPLOY:2|,FLOOR:10|DEPLOY:2|,FLOOR:10|DEPLOY:2|,WALL:17|,WALL:17|,FLOOR:10|DOOR:2|,WALL:17|,WALL:17|,FLOOR:10|DEPLOY:2|,FLOOR:10|DEPLOY:2|,FLOOR:10|DEPLOY:2|,FLOOR:10|DEPLOY:2|,FLOOR:10|DEPLOY:2|,FLOOR:10|DEPLOY:2|,FLOOR:10|DEPLOY:2|,WALL:17|,FLOOR:10|SCENERY:1:0|,FLOOR:10|DEPLOY:2|,FLOOR:10|DEPLOY:2|,FLOOR:10|DEPLOY:2|,FLOOR:10|DEPLOY:2|,FLOOR:10|DEPLOY:2|,WALL:17|,FLOOR:7|,FLOOR:7|,FLOOR:7|,FLOOR:9|,FLOOR:7|DEPLOY:3|,FLOOR:7|DEPLOY:3|,FLOOR:7|DEPLOY:3|,FLOOR:7|,FLOOR:7|,FLOOR:7|,
FLOOR:6|,FLOOR:6|,FLOOR:6|,FLOOR:6|DEPLOY:1|,FLOOR:6|DEPLOY:1|,FLOOR:6|DEPLOY:1|,FLOOR:6|,FLOOR:6|,FLOOR:6|,FLOOR:6|,FLOOR:6|,WALL:17|,FLOOR:10|DEPLOY:2|,FLOOR:10|DEPLOY:2|,FLOOR:10|DEPLOY:2|,FLOOR:10|DEPLOY:2|,FLOOR:10|DEPLOY:2|,FLOOR:10|DEPLOY:2|,WALL:17|,FLOOR:10|DEPLOY:2|,FLOOR:10|DEPLOY:2|,FLOOR:10|DEPLOY:2|,WALL:17|,FLOOR:10|DEPLOY:2|,FLOOR:10|DEPLOY:2|,FLOOR:10|DEPLOY:2|,WALL:17|,FLOOR:10|DEPLOY:2|,FLOOR:10|DEPLOY:2|,FLOOR:10|SCENERY:1:0|,WALL:17|,FLOOR:10|DEPLOY:2|,FLOOR:10|DEPLOY:2|,FLOOR:10|DEPLOY:2|,FLOOR:10|DEPLOY:2|,FLOOR:10|DEPLOY:2|,FLOOR:10|DEPLOY:2|,WALL:17|,FLOOR:7|,FLOOR:7|,FLOOR:7|,FLOOR:9|,FLOOR:7|DEPLOY:3|,FLOOR:7|DEPLOY:3|,FLOOR:7|DEPLOY:3|,FLOOR:7|,FLOOR:7|,FLOOR:7|,
FLOOR:6|,FLOOR:6|,FLOOR:6|,FLOOR:6|DEPLOY:1|,FLOOR:6|DEPLOY:1|,FLOOR:6|DEPLOY:1|,FLOOR:6|,FLOOR:6|,FLOOR:6|,WALL:17|,WALL:17|,WALL:17|,FLOOR:10|DOOR:2|,WALL:17|,WALL:17|,WALL:17|,FLOOR:10|DOOR:2|,WALL:17|,WALL:17|,WALL:17|,WALL:17|,WALL:17|,WALL:17|,WALL:17|,WALL:17|,WALL:17|,WALL:17|,WALL:17|,WALL:17|,WALL:17|,WALL:17|,FLOOR:10|DEPLOY:2|,FLOOR:10|DEPLOY:2|,WALL:17|,WALL:17|,FLOOR:10|DOOR:2|,WALL:17|,WALL:17|,FLOOR:7|,FLOOR:7|,FLOOR:7|,FLOOR:9|,FLOOR:7|DEPLOY:3|,FLOOR:7|DEPLOY:3|,FLOOR:7|DEPLOY:3|,FLOOR:7|,FLOOR:7|,FLOOR:7|,
FLOOR:7|,FLOOR:7|,FLOOR:7|,FLOOR:7|DEPLOY:1|,FLOOR:7|DEPLOY:1|,FLOOR:7|DEPLOY:1|,FLOOR:6|,FLOOR:6|,FLOOR:6|,WALL:17|,FLOOR:10|DEPLOY:2|,FLOOR:10|DEPLOY:2|,FLOOR:10|DEPLOY:2|,WALL:17|,FLOOR:10|DEPLOY:2|,FLOOR:10|DEPLOY:2|,FLOOR:10|DEPLOY:2|,FLOOR:10|DEPLOY:2|,FLOOR:10|DEPLOY:2|,FLOOR:10|DEPLOY:2|,WALL:17|,FLOOR:10|DEPLOY:2|,FLOOR:10|DEPLOY:2|,FLOOR:10|DEPLOY:2|,FLOOR:10|DEPLOY:2|,FLOOR:10|DEPLOY:2|,FLOOR:10|DEPLOY:2|,FLOOR:10|DEPLOY:2|,FLOOR:10|DEPLOY:2|,FLOOR:10|DEPLOY:2|,FLOOR:10|DOOR:1|,FLOOR:10|DEPLOY:2|,FLOOR:10|DEPLOY:2|,FLOOR:10|DOOR:1|,FLOOR:10|DEPLOY:2|,FLOOR:10|DEPLOY:2|,FLOOR:10|DEPLOY:2|,WALL:17|,FLOOR:7|,FLOOR:7|,FLOOR:7|,FLOOR:9|,FLOOR:7|DEPLOY:3|,FLOOR:7|DEPLOY:3|,FLOOR:7|DEPLOY:3|,FLOOR:7|,FLOOR:7|,FLOOR:7|,
FLOOR:7|,FLOOR:7|,FLOOR:7|,FLOOR:7|DEPLOY:1|,FLOOR:7|DEPLOY:1|,FLOOR:7|DEPLOY:1|,FLOOR:7|,FLOOR:7|,FLOOR:7|,WALL:17|,FLOOR:10|SCENERY:1:0|,FLOOR:10|DEPLOY:2|,FLOOR:10|DEPLOY:2|,WALL:17|,FLOOR:10|DEPLOY:2|,FLOOR:10|DEPLOY:2|,FLOOR:10|DEPLOY:2|,FLOOR:10|DEPLOY:2|,FLOOR:10|DEPLOY:2|,FLOOR:10|DEPLOY:2|,WALL:17|,FLOOR:10|DEPLOY:2|,WALL:17|,WALL:17|,WALL:17|,WALL:17|,WALL:17|,WALL:17|,WALL:17|,WALL:17|,WALL:17|,FLOOR:10|DEPLOY:2|,FLOOR:10|DEPLOY:2|,WALL:17|,FLOOR:10|DEPLOY:2|,FLOOR:10|DEPLOY:2|,FLOOR:10|DEPLOY:2|,WALL:17|,FLOOR:7|,FLOOR:7|,FLOOR:7|,FLOOR:9|,FLOOR:7|DEPLOY:3|,FLOOR:7|DEPLOY:3|,FLOOR:7|DEPLOY:3|,FLOOR:7|,FLOOR:7|,FLOOR:7|,
FLOOR:7|,FLOOR:7|,FLOOR:7|,FLOOR:7|DEPLOY:1|,FLOOR:7|DEPLOY:1|,FLOOR:7|DEPLOY:1|,FLOOR:7|,FLOOR:7|,FLOOR:7|,WALL:17|,WALL:17|,WALL:17|,FLOOR:10|DEPLOY:2|,WALL:17|,FLOOR:10|DEPLOY:2|,FLOOR:10|DEPLOY:2|,FLOOR:10|DEPLOY:2|,FLOOR:10|DEPLOY:2|,FLOOR:10|DEPLOY:2|,FLOOR:10|DEPLOY:2|,WALL:17|,FLOOR:10|DEPLOY:2|,WALL:17|,FLOOR:7|,FLOOR:7|,FLOOR:7|,FLOOR:7|,FLOOR:7|,FLOOR:7|,FLOOR:7|,WALL:17|,WALL:17|,WALL:17|,WALL:17|,WALL:17|,WALL:17|,WALL:17|,WALL:17|,FLOOR:7|,FLOOR:7|,FLOOR:7|,FLOOR:9|,FLOOR:7|DEPLOY:3|,FLOOR:7|DEPLOY:3|,FLOOR:7|DEPLOY:3|,FLOOR:7|,FLOOR:7|,FLOOR:7|,
FLOOR:7|,FLOOR:7|,FLOOR:7|,FLOOR:7|DEPLOY:1|,FLOOR:7|DEPLOY:1|,FLOOR:7|DEPLOY:1|,FLOOR:7|,FLOOR:7|,FLOOR:7|,FLOOR:7|,FLOOR:7|,WALL:17|,FLOOR:10|DEPLOY:2|,WALL:17|,FLOOR:10|DEPLOY:2|,WALL:17|,FLOOR:10|DEPLOY:2|,WALL:17|,FLOOR:10|DEPLOY:2|,FLOOR:10|SCENERY:1:0|,WALL:17|,FLOOR:10|DEPLOY:2|,WALL:17|,FLOOR:7|,FLOOR:7|,FLOOR:7|,FLOOR:7|,FLOOR:7|,FLOOR:7|,FLOOR:7|,FLOOR:7|,FLOOR:7|,FLOOR:7|,FLOOR:7|,FLOOR:7|,FLOOR:7|,FLOOR:7|,FLOOR:7|,FLOOR:7|,FLOOR:7|,FLOOR:7|,FLOOR:9|,FLOOR:7|DEPLOY:3|,FLOOR:7|DEPLOY:3|,FLOOR:7|DEPLOY:3|,FLOOR:7|,FLOOR:7|,FLOOR:7|,
FLOOR:7|,FLOOR:7|,FLOOR:7|,FLOOR:7|,FLOOR:7|,FLOOR:7|,FLOOR:7|,FLOOR:7|,FLOOR:7|,FLOOR:7|,FLOOR:7|,WALL:17|,FLOOR:10|DEPLOY:2|,WALL:17|,FLOOR:10|DEPLOY:2|,FLOOR:10|DEPLOY:2|,FLOOR:10|DEPLOY:2|,FLOOR:10|DEPLOY:2|,FLOOR:10|DEPLOY:2|,WALL:17|,WALL:17|,FLOOR:10|DOOR:2|,WALL:17|,WALL:17|,WALL:17|,FLOOR:7|,FLOOR:7|,FLOOR:7|,FLOOR:7|,FLOOR:7|,FLOOR:7|,FLOOR:7|,FLOOR:7|,FLOOR:7|,FLOOR:7|,FLOOR:7|,FLOOR:7|,FLOOR:7|,FLOOR:7|,FLOOR:7|,FLOOR:7|,FLOOR:9|,FLOOR:7|DEPLOY:3|,FLOOR:7|DEPLOY:3|,FLOOR:7|DEPLOY:3|,FLOOR:7|,FLOOR:7|,FLOOR:7|,
FLOOR:7|,FLOOR:7|,FLOOR:7|,FLOOR:7|,FLOOR:7|,FLOOR:7|,FLOOR:7|,FLOOR:7|,FLOOR:7|,FLOOR:7|,FLOOR:7|,WALL:17|,FLOOR:10|DEPLOY:2|,WALL:17|,WALL:17|,WALL:17|,FLOOR:10|DOOR:2|,WALL:17|,WALL:17|,WALL:17|,FLOOR:10|DEPLOY:2|,FLOOR:10|DEPLOY:2|,FLOOR:10|DEPLOY:2|,FLOOR:10|DEPLOY:2|,WALL:17|,FLOOR:7|,FLOOR:7|,FLOOR:7|,FLOOR:7|,FLOOR:7|,FLOOR:7|,FLOOR:7|,FLOOR:7|,FLOOR:7|,FLOOR:7|,FLOOR:7|,FLOOR:7|,FLOOR:7|,FLOOR:7|,FLOOR:7|,FLOOR:7|,FLOOR:9|,FLOOR:7|DEPLOY:3|,FLOOR:7|DEPLOY:3|,FLOOR:7|DEPLOY:3|,FLOOR:7|,FLOOR:7|,FLOOR:7|,
FLOOR:7|,FLOOR:7|,FLOOR:7|,FLOOR:7|,FLOOR:7|,FLOOR:7|,FLOOR:7|,FLOOR:7|,FLOOR:7|,FLOOR:7|,WALL:17|,WALL:17|,FLOOR:10|DEPLOY:2|,FLOOR:10|DEPLOY:2|,FLOOR:10|DEPLOY:2|,FLOOR:10|DEPLOY:2|,FLOOR:10|DEPLOY:2|,FLOOR:10|DEPLOY:2|,FLOOR:10|DEPLOY:2|,FLOOR:10|DOOR:1|,FLOOR:10|DEPLOY:2|,FLOOR:10|DEPLOY:2|,WALL:17|,FLOOR:10|DEPLOY:2|,WALL:17|,FLOOR:7|,FLOOR:7|,FLOOR:7|,FLOOR:7|,FLOOR:7|,FLOOR:7|,FLOOR:7|,FLOOR:7|,FLOOR:7|,FLOOR:7|,FLOOR:7|,FLOOR:7|,FLOOR:7|,FLOOR:7|,FLOOR:7|,FLOOR:7|,FLOOR:9|,FLOOR:7|DEPLOY:3|,FLOOR:7|DEPLOY:3|,FLOOR:7|DEPLOY:3|,FLOOR:7|,FLOOR:7|,FLOOR:7|,
FLOOR:7|,FLOOR:7|,FLOOR:7|,FLOOR:7|,FLOOR:7|,FLOOR:7|,FLOOR:7|,FLOOR:7|,FLOOR:7|,FLOOR:7|,WALL:17|,FLOOR:10|DEPLOY:2|,FLOOR:10|DEPLOY:2|,WALL:17|,WALL:17|,WALL:17|,WALL:17|,WALL:17|,WALL:17|,WALL:17|,FLOOR:10|DEPLOY:2|,FLOOR:10|DEPLOY:2|,FLOOR:10|DEPLOY:2|,FLOOR:10|DEPLOY:2|,WALL:17|,FLOOR:7|,FLOOR:7|,FLOOR:7|,FLOOR:7|,FLOOR:7|,FLOOR:7|,FLOOR:7|,FLOOR:7|,FLOOR:7|,FLOOR:7|,FLOOR:7|,FLOOR:7|,FLOOR:7|,FLOOR:7|,FLOOR:7|,FLOOR:7|,FLOOR:9|,FLOOR:7|DEPLOY:3|,FLOOR:7|DEPLOY:3|,FLOOR:7|DEPLOY:3|,FLOOR:7|,FLOOR:7|,FLOOR:7|,
FLOOR:7|,FLOOR:7|,FLOOR:7|,FLOOR:7|,FLOOR:7|,FLOOR:7|,FLOOR:7|,FLOOR:7|,FLOOR:7|,FLOOR:7|,WALL:17|,FLOOR:10|SCENERY:1:0|,FLOOR:10|DEPLOY:2|,WALL:17|,FLOOR:7|,FLOOR:7|,FLOOR:7|,FLOOR:7|,FLOOR:7|,WALL:17|,WALL:17|,WALL:17|,WALL:17|,WALL:17|,WALL:17|,FLOOR:7|,FLOOR:7|,FLOOR:7|,FLOOR:7|,FLOOR:7|,FLOOR:7|,FLOOR:7|,FLOOR:7|,FLOOR:7|,FLOOR:7|,FLOOR:7|,FLOOR:7|,FLOOR:7|,FLOOR:7|,FLOOR:7|,FLOOR:7|,FLOOR:9|,FLOOR:7|DEPLOY:3|,FLOOR:7|DEPLOY:3|,FLOOR:7|DEPLOY:3|,FLOOR:7|,FLOOR:7|,FLOOR:7|,
FLOOR:7|,FLOOR:7|,FLOOR:7|,FLOOR:7|,FLOOR:7|,FLOOR:7|,FLOOR:7|,FLOOR:7|,FLOOR:7|,FLOOR:7|,WALL:17|,WALL:17|,WALL:17|,WALL:17|,FLOOR:7|,FLOOR:7|,FLOOR:7|,FLOOR:7|,FLOOR:7|,FLOOR:7|,FLOOR:7|,FLOOR:7|,FLOOR:7|,FLOOR:7|,FLOOR:7|,FLOOR:7|,FLOOR:7|,FLOOR:7|,FLOOR:7|,FLOOR:7|,FLOOR:7|,FLOOR:7|,FLOOR:7|,FLOOR:7|,FLOOR:7|,FLOOR:7|,FLOOR:7|,FLOOR:7|,FLOOR:7|,FLOOR:7|,FLOOR:7|,FLOOR:9|,FLOOR:7|DEPLOY:3|,FLOOR:7|DEPLOY:3|,FLOOR:7|DEPLOY:3|,FLOOR:7|,FLOOR:7|,FLOOR:7|,
FLOOR:7|,FLOOR:7|,FLOOR:7|,FLOOR:7|,FLOOR:7|,FLOOR:7|,FLOOR:7|,FLOOR:7|,FLOOR:7|,FLOOR:7|,FLOOR:7|,FLOOR:7|,FLOOR:7|,FLOOR:7|,FLOOR:7|,FLOOR:7|,FLOOR:7|,FLOOR:7|,FLOOR:7|,FLOOR:7|,FLOOR:7|,FLOOR:7|,FLOOR:7|,FLOOR:7|,FLOOR:7|,FLOOR:7|,FLOOR:7|,FLOOR:7|,FLOOR:7|,FLOOR:7|,FLOOR:7|,FLOOR:7|,FLOOR:7|,FLOOR:7|,FLOOR:7|,FLOOR:7|,FLOOR:7|,FLOOR:9|,FLOOR:9|,FLOOR:9|,FLOOR:9|,FLOOR:9|,FLOOR:7|DEPLOY:3|,FLOOR:7|DEPLOY:3|,FLOOR:7|DEPLOY:3|,FLOOR:7|,FLOOR:7|,FLOOR:7|,
FLOOR:7|,FLOOR:7|,FLOOR:7|,FLOOR:7|,FLOOR:7|,FLOOR:7|,FLOOR:7|,FLOOR:7|,FLOOR:7|,FLOOR:7|,FLOOR:7|,FLOOR:7|,FLOOR:7|,FLOOR:7|,FLOOR:7|,FLOOR:7|,FLOOR:7|,FLOOR:7|,FLOOR:7|,FLOOR:7|,FLOOR:7|,FLOOR:7|,FLOOR:7|,FLOOR:7|,FLOOR:7|,FLOOR:7|,FLOOR:7|,FLOOR:7|,FLOOR:7|DEPLOY:3|,FLOOR:7|DEPLOY:3|,FLOOR:7|DEPLOY:3|,FLOOR:7|DEPLOY:3|,FLOOR:7|DEPLOY:3|,FLOOR:7|DEPLOY:3|,FLOOR:7|DEPLOY:3|,FLOOR:7|DEPLOY:3|,FLOOR:7|DEPLOY:3|,FLOOR:7|DEPLOY:3|,FLOOR:7|DEPLOY:3|,FLOOR:7|DEPLOY:3|,FLOOR:7|DEPLOY:3|,FLOOR:7|DEPLOY:3|,FLOOR:7|DEPLOY:3|,FLOOR:7|DEPLOY:3|,FLOOR:7|DEPLOY:3|,FLOOR:7|,FLOOR:7|,FLOOR:7|,
FLOOR:7|,FLOOR:7|,FLOOR:7|,FLOOR:7|,FLOOR:7|,FLOOR:7|,FLOOR:7|,FLOOR:7|,FLOOR:7|,FLOOR:7|,FLOOR:7|,FLOOR:7|,FLOOR:7|,FLOOR:7|,FLOOR:7|,FLOOR:7|,FLOOR:7|,FLOOR:7|,FLOOR:7|,FLOOR:7|,FLOOR:7|,FLOOR:7|,FLOOR:7|,FLOOR:7|,FLOOR:7|,FLOOR:7|,FLOOR:7|,FLOOR:7|,FLOOR:7|DEPLOY:3|,FLOOR:7|DEPLOY:3|,FLOOR:7|DEPLOY:3|,FLOOR:7|DEPLOY:3|,FLOOR:7|DEPLOY:3|,FLOOR:7|DEPLOY:3|,FLOOR:7|DEPLOY:3|,FLOOR:7|DEPLOY:3|,FLOOR:7|DEPLOY:3|,FLOOR:7|DEPLOY:3|,FLOOR:7|DEPLOY:3|,FLOOR:7|DEPLOY:3|,FLOOR:7|DEPLOY:3|,FLOOR:7|DEPLOY:3|,FLOOR:7|DEPLOY:3|,FLOOR:7|DEPLOY:3|,FLOOR:7|DEPLOY:3|,FLOOR:7|,FLOOR:7|,FLOOR:7|,
FLOOR:7|,FLOOR:7|,FLOOR:7|,FLOOR:7|,FLOOR:7|,FLOOR:7|,FLOOR:7|,FLOOR:7|,FLOOR:7|,FLOOR:7|,FLOOR:7|,FLOOR:7|,FLOOR:7|,FLOOR:7|,FLOOR:7|,FLOOR:7|,FLOOR:7|,FLOOR:7|,FLOOR:7|,FLOOR:7|,FLOOR:7|,FLOOR:7|,FLOOR:7|,FLOOR:7|,FLOOR:7|,FLOOR:7|,FLOOR:7|,FLOOR:7|,FLOOR:7|,FLOOR:7|,FLOOR:7|,FLOOR:7|,FLOOR:7|,FLOOR:7|,FLOOR:7|,FLOOR:7|,FLOOR:7|,FLOOR:9|,FLOOR:7|,FLOOR:7|,FLOOR:7|,FLOOR:9|,FLOOR:7|,FLOOR:7|,FLOOR:7|,FLOOR:7|,FLOOR:7|,FLOOR:7|,
FLOOR:7|,FLOOR:7|,FLOOR:7|,FLOOR:7|,FLOOR:7|,FLOOR:7|,FLOOR:7|,FLOOR:7|,FLOOR:7|,FLOOR:7|,FLOOR:7|,FLOOR:7|,FLOOR:7|,FLOOR:7|,FLOOR:7|,FLOOR:7|,FLOOR:7|,FLOOR:7|,FLOOR:7|,FLOOR:7|,FLOOR:7|,FLOOR:7|,FLOOR:7|,FLOOR:7|,FLOOR:7|,FLOOR:7|,FLOOR:7|,FLOOR:7|,FLOOR:7|,FLOOR:7|,FLOOR:7|,FLOOR:7|,FLOOR:7|,FLOOR:7|,FLOOR:7|,FLOOR:7|,FLOOR:7|,FLOOR:9|,FLOOR:7|,FLOOR:7|,FLOOR:7|,FLOOR:9|,FLOOR:7|,FLOOR:7|,FLOOR:7|,FLOOR:7|,FLOOR:7|,FLOOR:7|,
FLOOR:7|,FLOOR:7|,FLOOR:7|,FLOOR:7|,FLOOR:7|,FLOOR:7|,FLOOR:7|,FLOOR:7|,FLOOR:7|,FLOOR:7|,FLOOR:7|,FLOOR:7|,WALL:17|,FLOOR:7|,FLOOR:7|,FLOOR:7|,FLOOR:7|,FLOOR:7|,FLOOR:7|,FLOOR:7|,WALL:17|,FLOOR:7|,FLOOR:7|,FLOOR:7|,FLOOR:7|,FLOOR:7|,FLOOR:7|,FLOOR:7|,FLOOR:7|,FLOOR:7|,FLOOR:7|,FLOOR:7|,FLOOR:7|,FLOOR:7|,FLOOR:7|,WALL:17|,WALL:17|,FLOOR:10|DOOR:2|,WALL:17|,WALL:17|,WALL:17|,FLOOR:10|DOOR:2|,WALL:17|,WALL:17|,FLOOR:7|,FLOOR:7|,FLOOR:7|,FLOOR:7|,
FLOOR:7|,FLOOR:7|,FLOOR:7|,FLOOR:7|,FLOOR:7|,FLOOR:7|,FLOOR:7|,FLOOR:7|,WALL:17|,FLOOR:7|,FLOOR:7|,FLOOR:7|,FLOOR:7|,FLOOR:7|,FLOOR:7|,FLOOR:7|,FLOOR:7|,FLOOR:7|,FLOOR:7|,FLOOR:7|,FLOOR:7|,FLOOR:7|,FLOOR:7|,FLOOR:7|,FLOOR:7|,FLOOR:7|,FLOOR:7|,FLOOR:7|,FLOOR:7|,FLOOR:7|,FLOOR:7|,FLOOR:7|,FLOOR:7|,FLOOR:7|,FLOOR:7|,WALL:17|,FLOOR:10|,FLOOR:10|,FLOOR:10|,WALL:17|,FLOOR:10|,FLOOR:10|,FLOOR:10|,WALL:17|,FLOOR:7|,FLOOR:7|,FLOOR:7|,FLOOR:7|,
FLOOR:7|,FLOOR:7|,FLOOR:7|,FLOOR:7|,WALL:17|,FLOOR:7|,FLOOR:7|,FLOOR:7|,FLOOR:7|,FLOOR:7|,FLOOR:7|,FLOOR:7|,FLOOR:7|,FLOOR:7|,WALL:17|,FLOOR:7|,FLOOR:7|,FLOOR:7|,WALL:17|,FLOOR:7|,FLOOR:7|,FLOOR:7|,FLOOR:7|,FLOOR:7|,FLOOR:7|,FLOOR:7|,FLOOR:7|,FLOOR:7|,FLOOR:7|,FLOOR:7|,FLOOR:7|,FLOOR:7|,FLOOR:7|,FLOOR:7|,FLOOR:7|,WALL:17|,FLOOR:10|,FLOOR:10|,FLOOR:10|,WALL:17|,FLOOR:10|,FLOOR:10|,FLOOR:10|,WALL:17|,FLOOR:7|,FLOOR:7|,FLOOR:7|,FLOOR:7|,
FLOOR:7|,FLOOR:7|,FLOOR:7|,FLOOR:7|,FLOOR:7|,FLOOR:7|,WALL:17|,FLOOR:7|,FLOOR:7|,FLOOR:7|,FLOOR:7|,FLOOR:7|,FLOOR:7|,FLOOR:7|,FLOOR:7|,FLOOR:7|,WALL:17|,FLOOR:7|,FLOOR:7|,FLOOR:7|,FLOOR:7|,FLOOR:7|,FLOOR:7|,FLOOR:7|,FLOOR:7|,FLOOR:7|,FLOOR:7|,FLOOR:7|,FLOOR:7|,FLOOR:7|,FLOOR:7|,FLOOR:7|,FLOOR:7|,FLOOR:7|,FLOOR:7|,WALL:17|,WALL:17|,WALL:17|,WALL:17|,WALL:17|,WALL:17|,WALL:17|,WALL:17|,WALL:17|,FLOOR:7|,FLOOR:7|,FLOOR:7|,FLOOR:7|,
FLOOR:7|,FLOOR:7|,FLOOR:7|,FLOOR:7|,FLOOR:7|,FLOOR:7|,FLOOR:7|,FLOOR:7|,FLOOR:7|,WALL:17|,FLOOR:7|,FLOOR:7|,FLOOR:7|,WALL:17|,FLOOR:7|,FLOOR:7|,FLOOR:7|,FLOOR:7|,FLOOR:7|,FLOOR:7|,FLOOR:7|,FLOOR:7|,FLOOR:7|,FLOOR:7|,FLOOR:7|,FLOOR:7|,FLOOR:7|,FLOOR:7|,FLOOR:7|,FLOOR:7|,FLOOR:7|,FLOOR:7|,FLOOR:7|,FLOOR:7|,FLOOR:7|,FLOOR:7|,FLOOR:7|,FLOOR:7|,FLOOR:7|,FLOOR:7|,FLOOR:7|,FLOOR:7|,FLOOR:7|,FLOOR:7|,FLOOR:7|,FLOOR:7|,FLOOR:7|,FLOOR:7|,
FLOOR:7|,FLOOR:7|,FLOOR:7|,FLOOR:7|,FLOOR:7|,FLOOR:7|,WALL:17|,FLOOR:7|,FLOOR:7|,FLOOR:7|,FLOOR:7|,FLOOR:7|,FLOOR:7|,FLOOR:7|,FLOOR:7|,WALL:17|,FLOOR:7|,FLOOR:7|,FLOOR:7|,FLOOR:7|,FLOOR:7|,FLOOR:7|,FLOOR:7|,FLOOR:7|,FLOOR:7|,FLOOR:7|,FLOOR:7|,FLOOR:7|,FLOOR:7|,FLOOR:7|,FLOOR:7|,FLOOR:7|,FLOOR:7|,FLOOR:7|,FLOOR:7|,FLOOR:7|,FLOOR:7|,FLOOR:7|,FLOOR:7|,FLOOR:7|,FLOOR:7|,FLOOR:7|,FLOOR:7|,FLOOR:7|,FLOOR:7|,FLOOR:7|,FLOOR:7|,FLOOR:7|,
FLOOR:7|,FLOOR:7|,FLOOR:7|,FLOOR:7|,FLOOR:7|,FLOOR:7|,FLOOR:7|,FLOOR:7|,FLOOR:7|,FLOOR:7|,FLOOR:7|,FLOOR:7|,FLOOR:7|,FLOOR:7|,FLOOR:7|,FLOOR:7|,FLOOR:7|,FLOOR:7|,FLOOR:7|,FLOOR:7|,FLOOR:7|,FLOOR:7|,FLOOR:7|,FLOOR:7|,FLOOR:7|,FLOOR:7|,FLOOR:7|,FLOOR:7|,FLOOR:7|,FLOOR:7|,FLOOR:7|,FLOOR:7|,FLOOR:7|,FLOOR:7|,FLOOR:7|,FLOOR:7|,FLOOR:7|,FLOOR:7|,FLOOR:7|,FLOOR:7|,FLOOR:7|,FLOOR:7|,FLOOR:7|,FLOOR:7|,FLOOR:7|,FLOOR:7|,FLOOR:7|,FLOOR:7|,
FLOOR:7|,FLOOR:7|,FLOOR:7|,FLOOR:7|,FLOOR:7|,FLOOR:7|,FLOOR:7|,FLOOR:7|,FLOOR:7|,FLOOR:7|,FLOOR:7|,FLOOR:7|,FLOOR:7|,FLOOR:7|,FLOOR:7|,FLOOR:7|,FLOOR:7|,FLOOR:7|,FLOOR:7|,FLOOR:7|,FLOOR:7|,FLOOR:7|,FLOOR:7|,FLOOR:7|,FLOOR:7|,FLOOR:7|,FLOOR:7|,FLOOR:7|,FLOOR:7|,FLOOR:7|,FLOOR:7|,FLOOR:7|,FLOOR:7|,FLOOR:7|,FLOOR:7|,FLOOR:7|,FLOOR:7|,FLOOR:7|,FLOOR:7|,FLOOR:7|,FLOOR:7|,FLOOR:7|,FLOOR:7|,FLOOR:7|,FLOOR:7|,FLOOR:7|,FLOOR:7|,FLOOR:7|,

