48,1.82
FLOOR:35|,FLOOR:35|DEPLOY:1|,FLOOR:35|,FLOOR:35|,FLOOR:35|,FLOOR:35|,FLOOR:36|,FLOOR:7|,FLOOR:7|,WALL:69|,FLOOR:13|,FLOOR:13|SCENERY:9:0|,FLOOR:11|,FLOOR:11|,FLOOR:11|,FLOOR:11|,FLOOR:11|,FLOOR:13|,WALL:69|,FLOOR:7|,FLOOR:7|,WALL:69|,FLOOR:13|,FLOOR:13|,FLOOR:11|,FLOOR:11|,FLOOR:11|,FLOOR:11|,FLOOR:11|,FLOOR:13|,FLOOR:13|,WALL:69|,WALL:69|,FLOOR:33|,FLOOR:7|,FLOOR:7|,FLOOR:7|,FLOOR:7|,FLOOR:7|,FLOOR:7|DEPLOY:2|,FLOOR:7|,FLOOR:7|,WALL:69|,FLOOR:13|,FLOOR:13|,FLOOR:13|,FLOOR:13|,FLOOR:11|,
FLOOR:7|,FLOOR:7|,WALL:69|,WALL:69|,WALL:69|,WALL:69|,FLOOR:27|,FLOOR:36|,FLOOR:7|,WALL:69|,WALL:69|,FLOOR:13|,FLOOR:13|,FLOOR:13|,FLOOR:11|,FLOOR:11|,FLOOR:11|,FLOOR:13|,WALL:69|,FLOOR:58|,FLOOR:7|,WALL:69|,WALL:69|,FLOOR:13|,FLOOR:11|,FLOOR:11|,FLOOR:11|,FLOOR:11|,FLOOR:13|,FLOOR:13|,WALL:69|,WALL:69|,FLOOR:22|,FLOOR:23|,WALL:69|,WALL:69|,WALL:69|,WALL:69|,FLOOR:7|,FLOOR:7|,FLOOR:7|,FLOOR:7|,WALL:69|,WALL:69|,WALL:69|,WALL:69|,FLOOR:13|,FLOOR:13|,
FLOOR:7|,WALL:69|,WALL:69|,FLOOR:13|,FLOOR:13|,WALL:69|,WALL:69|,FLOOR:33|,FLOOR:7|,FLOOR:7|,WALL:69|,WALL:69|,WALL:69|,FLOOR:13|,FLOOR:13|,FLOOR:11|,FLOOR:11|,FLOOR:13|,WALL:69|,FLOOR:58|,FLOOR:7|,FLOOR:7|,WALL:69|,FLOOR:13|,FLOOR:13|,FLOOR:13|,FLOOR:13|,FLOOR:13|SCENERY:13:0|,FLOOR:13|,WALL:69|,WALL:69|,FLOOR:58|,FLOOR:33|,WALL:69|,WALL:69|,FLOOR:13|,FLOOR:13|,WALL:69|,WALL:69|,FLOOR:7|,FLOOR:7|,FLOOR:7|,FLOOR:7|,FLOOR:58|,FLOOR:58|,WALL:69|,WALL:69|,WALL:69|,
FLOOR:7|,WALL:69|,FLOOR:13|,FLOOR:13|,FLOOR:13|,FLOOR:13|,WALL:69|,FLOOR:27|,FLOOR:36|,FLOOR:7|,FLOOR:7|,FLOOR:58|,WALL:69|,WALL:69|,FLOOR:13|,FLOOR:11|,FLOOR:11|,FLOOR:13|,WALL:69|,WALL:69|,FLOOR:7|,FLOOR:7|,WALL:69|,WALL:69|,WALL:69|,WALL:69|,WALL:69|,WALL:69|,WALL:69|,WALL:69|,FLOOR:22|,FLOOR:35|,FLOOR:23|,WALL:69|,FLOOR:13|,FLOOR:13|,FLOOR:13|,FLOOR:13|,WALL:69|,WALL:69|,WALL:69|,FLOOR:7|,FLOOR:7|,FLOOR:7|,FLOOR:7|,FLOOR:7|,FLOOR:58|,FLOOR:58|ESCAPE:1|,
FLOOR:7|,WALL:69|,FLOOR:13|,FLOOR:11|,FLOOR:11|,FLOOR:13|,WALL:69|,WALL:69|,FLOOR:27|,FLOOR:35|,FLOOR:35|,FLOOR:35|,FLOOR:36|,WALL:69|,FLOOR:13|,FLOOR:13|,FLOOR:11|,FLOOR:13|,FLOOR:13|,WALL:69|,FLOOR:58|,FLOOR:7|,FLOOR:7|,FLOOR:58|,FLOOR:58|,FLOOR:58|,FLOOR:58|,WALL:69|,WALL:69|,FLOOR:58|,FLOOR:33|,FLOOR:7|,WALL:69|,WALL:69|,FLOOR:13|,FLOOR:11|,FLOOR:11|,FLOOR:13|,FLOOR:13|,FLOOR:13|,WALL:69|,FLOOR:58|,FLOOR:7|,FLOOR:7|,FLOOR:7|,FLOOR:7|,FLOOR:7|,FLOOR:7|ESCAPE:1|,
FLOOR:7|,WALL:69|,FLOOR:13|,FLOOR:11|,FLOOR:11|,FLOOR:13|,FLOOR:13|,WALL:69|,FLOOR:58|,FLOOR:7|,WALL:69|,WALL:69|,FLOOR:33|,WALL:69|,WALL:69|,FLOOR:13|,FLOOR:13|,FLOOR:13|,WALL:69|,WALL:69|,FLOOR:58|,FLOOR:7|,FLOOR:7|,WALL:69|,WALL:69|,WALL:69|,FLOOR:58|,FLOOR:58|,FLOOR:22|,FLOOR:35|,FLOOR:23|,WALL:69|,WALL:69|,FLOOR:13|,FLOOR:13|,FLOOR:11|,FLOOR:11|,FLOOR:11|,FLOOR:11|,FLOOR:13|,WALL:69|,WALL:69|,FLOOR:7|,FLOOR:7|,FLOOR:7|,FLOOR:7|,WALL:69|,WALL:69|,
FLOOR:7|,WALL:69|,FLOOR:13|,FLOOR:13|,FLOOR:11|,FLOOR:13|,FLOOR:13|,WALL:69|,FLOOR:58|,WALL:69|,WALL:69|,WALL:69|,FLOOR:27|,FLOOR:36|,WALL:69|,WALL:69|,WALL:69|,WALL:69|,WALL:69|,FLOOR:58|,FLOOR:58|,FLOOR:7|,WALL:69|,WALL:69|,FLOOR:13|,WALL:69|,WALL:69|,WALL:69|,FLOOR:33|,FLOOR:7|,WALL:69|,WALL:69|,FLOOR:13|,FLOOR:13|,FLOOR:11|,FLOOR:11|,FLOOR:11|,FLOOR:11|,FLOOR:11|,FLOOR:13|SCENERY:1:0|,FLOOR:13|,WALL:69|,FLOOR:58|,WALL:69|,WALL:69|,WALL:69|,WALL:69|,WALL:69|,
FLOOR:7|,WALL:69|,WALL:69|,FLOOR:13|,FLOOR:13|,FLOOR:13|,WALL:69|,WALL:69|,FLOOR:58|,WALL:69|,FLOOR:13|,WALL:69|,WALL:69|,FLOOR:33|,FLOOR:7|,FLOOR:58|,FLOOR:58|,FLOOR:58|,FLOOR:58|,FLOOR:58|,FLOOR:7|,WALL:69|,WALL:69|,FLOOR:13|,FLOOR:13|,FLOOR:13|,FLOOR:13|,WALL:69|,FLOOR:33|,FLOOR:7|,WALL:69|,WALL:69|,FLOOR:13|,FLOOR:11|,FLOOR:11|,FLOOR:11|,FLOOR:11|,FLOOR:11|,FLOOR:11|,FLOOR:13|,WALL:69|,WALL:69|,FLOOR:58|DEPLOY:2|,WALL:69|,FLOOR:13|,FLOOR:13|,FLOOR:13|,WALL:69|,
FLOOR:7|,FLOOR:7|,WALL:69|,WALL:69|,WALL:69|,WALL:69|,WALL:69|,FLOOR:58|,FLOOR:58|,WALL:69|,FLOOR:13|,FLOOR:13|,WALL:69|,FLOOR:27|,FLOOR:35|,FLOOR:35|,FLOOR:36|,WALL:69|,WALL:69|,WALL:69|,WALL:69|,WALL:69|,FLOOR:13|SCENERY:9:0|,FLOOR:13|,FLOOR:11|,FLOOR:13|,FLOOR:13|,WALL:69|,FLOOR:33|,FLOOR:7|,FLOOR:7|,WALL:69|,FLOOR:13|,FLOOR:13|,FLOOR:13|,FLOOR:11|,FLOOR:11|,FLOOR:11|,FLOOR:11|,FLOOR:13|,WALL:69|,FLOOR:58|,FLOOR:58|,WALL:69|,FLOOR:13|,FLOOR:11|,FLOOR:13|,WALL:69|,
FLOOR:7|,FLOOR:7|DEPLOY:1|,FLOOR:7|,FLOOR:58|,FLOOR:58|,FLOOR:58|,FLOOR:58|,FLOOR:58|,WALL:69|,WALL:69|,FLOOR:13|,FLOOR:13|,WALL:69|,WALL:69|,WALL:69|,WALL:69|,FLOOR:33|,WALL:69|,FLOOR:13|,FLOOR:13|,FLOOR:13|,FLOOR:13|,FLOOR:13|,FLOOR:11|,FLOOR:11|,FLOOR:13|,WALL:69|,WALL:69|,FLOOR:33|,FLOOR:7|,FLOOR:7|,WALL:69|,WALL:69|,WALL:69|,FLOOR:13|,FLOOR:11|,FLOOR:11|,FLOOR:11|,FLOOR:13|,FLOOR:13|,WALL:69|,FLOOR:58|,FLOOR:7|,WALL:69|,FLOOR:13|,FLOOR:11|,FLOOR:13|,WALL:69|,
WALL:69|,FLOOR:7|,WALL:69|,WALL:69|,WALL:69|,FLOOR:7|,FLOOR:7|,WALL:69|,WALL:69|,FLOOR:13|,FLOOR:13|,FLOOR:13|SCENERY:1:0|,FLOOR:13|,FLOOR:13|,FLOOR:13|,WALL:69|,FLOOR:33|,WALL:69|,WALL:69|,FLOOR:13|,FLOOR:13|,FLOOR:11|,FLOOR:11|,FLOOR:11|,FLOOR:13|,FLOOR:13|,WALL:69|,FLOOR:58|,FLOOR:27|,FLOOR:35|,FLOOR:36|,FLOOR:7|,FLOOR:58|,WALL:69|,FLOOR:13|,FLOOR:13|,FLOOR:13|,FLOOR:13|,FLOOR:13|,WALL:69|,WALL:69|,FLOOR:58|,WALL:69|,WALL:69|,FLOOR:13|,FLOOR:13|,FLOOR:13|,WALL:69|,
WALL:69|,WALL:69|,WALL:69|,FLOOR:13|,WALL:69|,FLOOR:58|,FLOOR:7|,WALL:69|,FLOOR:13|,FLOOR:13|,FLOOR:11|,FLOOR:11|,FLOOR:11|,FLOOR:13|,FLOOR:13|,WALL:69|,FLOOR:33|,FLOOR:7|,WALL:69|,WALL:69|,FLOOR:13|,FLOOR:11|,FLOOR:11|,FLOOR:11|,FLOOR:13|,WALL:69|,WALL:69|,FLOOR:58|,FLOOR:7|,WALL:69|,FLOOR:27|,FLOOR:35|,FLOOR:36|,WALL:69|,WALL:69|,WALL:69|,FLOOR:13|,WALL:69|,WALL:69|,WALL:69|,FLOOR:58|,FLOOR:58|,FLOOR:7|,WALL:69|,WALL:69|,FLOOR:13|,FLOOR:13|,WALL:69|,
FLOOR:13|,FLOOR:13|,FLOOR:13|,FLOOR:13|,WALL:69|,WALL:69|,FLOOR:7|,WALL:69|,FLOOR:13|,FLOOR:11|,FLOOR:11|,FLOOR:11|,FLOOR:11|,FLOOR:13|,WALL:69|,WALL:69|,FLOOR:33|,FLOOR:7|,FLOOR:7|,WALL:69|,FLOOR:13|,FLOOR:13|,FLOOR:13|,FLOOR:11|,FLOOR:13|,WALL:69|,FLOOR:58|,FLOOR:58|,WALL:69|,WALL:69|,WALL:69|,WALL:69|,FLOOR:33|,FLOOR:7|,FLOOR:58|,WALL:69|,WALL:69|,WALL:69|,FLOOR:58|,FLOOR:22|,FLOOR:35|,FLOOR:35|,FLOOR:35|,FLOOR:36|,WALL:69|,WALL:69|,WALL:69|,WALL:69|,
FLOOR:11|,FLOOR:11|,FLOOR:11|,FLOOR:13|,FLOOR:13|,WALL:69|,FLOOR:58|,WALL:69|,FLOOR:13|,FLOOR:13|,FLOOR:11|,FLOOR:11|,FLOOR:13|,FLOOR:13|,WALL:69|,FLOOR:58|,FLOOR:33|,FLOOR:7|,FLOOR:7|,WALL:69|,WALL:69|,WALL:69|,FLOOR:13|,FLOOR:11|,FLOOR:13|,WALL:69|,FLOOR:58|,FLOOR:7|,WALL:69|,FLOOR:13|,FLOOR:13|,WALL:69|,FLOOR:27|,FLOOR:35|,FLOOR:35|,FLOOR:35|,FLOOR:35|,FLOOR:35|,FLOOR:35|,FLOOR:23|,WALL:69|,WALL:69|,WALL:69|,FLOOR:27|,FLOOR:35|DEPLOY:2|,FLOOR:35|,FLOOR:35|,FLOOR:35|,
FLOOR:11|,FLOOR:11|,FLOOR:11|,FLOOR:13|,WALL:69|,WALL:69|,FLOOR:58|,WALL:69|,WALL:69|,FLOOR:13|,FLOOR:13|,FLOOR:11|,FLOOR:13|,WALL:69|,WALL:69|,FLOOR:58|,FLOOR:33|,FLOOR:7|,FLOOR:7|,FLOOR:7|,FLOOR:58|,WALL:69|,FLOOR:13|,FLOOR:11|,FLOOR:13|,WALL:69|,FLOOR:58|,FLOOR:7|,WALL:69|,FLOOR:13|,FLOOR:13|,WALL:69|,WALL:69|,FLOOR:7|,FLOOR:7|,FLOOR:7|,FLOOR:7|,FLOOR:7|,WALL:69|,WALL:69|,WALL:69|,FLOOR:13|,WALL:69|,WALL:69|,WALL:69|,FLOOR:7|,WALL:69|,WALL:69|,
FLOOR:11|,FLOOR:11|,FLOOR:11|,FLOOR:13|,WALL:69|,FLOOR:58|,FLOOR:58|,FLOOR:7|,WALL:69|,WALL:69|,FLOOR:13|,FLOOR:13|,FLOOR:13|,WALL:69|,FLOOR:58|,FLOOR:58|,FLOOR:27|,FLOOR:35|,FLOOR:35|,FLOOR:36|,FLOOR:7|,WALL:69|,FLOOR:13|,FLOOR:13|,FLOOR:13|,WALL:69|,FLOOR:58|,FLOOR:7|,WALL:69|,FLOOR:13|,FLOOR:13|,FLOOR:13|,WALL:69|,WALL:69|,FLOOR:7|,FLOOR:7|,FLOOR:7|,WALL:69|,WALL:69|,FLOOR:13|,FLOOR:13|,FLOOR:13|,FLOOR:13|,FLOOR:13|,WALL:69|,WALL:69|,WALL:69|,FLOOR:13|,
FLOOR:11|,FLOOR:11|,FLOOR:13|SCENERY:12:0|,FLOOR:13|,WALL:69|,FLOOR:58|,FLOOR:7|,FLOOR:7|,FLOOR:7|,WALL:69|,WALL:69|,WALL:69|,WALL:69|,WALL:69|,FLOOR:58|,FLOOR:7|,FLOOR:7|,WALL:69|,WALL:69|,FLOOR:33|,FLOOR:7|,WALL:69|,WALL:69|,FLOOR:13|,WALL:69|,WALL:69|,FLOOR:58|,WALL:69|,WALL:69|,FLOOR:13|SCENERY:8:0|,FLOOR:11|,FLOOR:13|,FLOOR:13|,WALL:69|,WALL:69|,FLOOR:7|DEPLOY:2|,FLOOR:7|,WALL:69|,FLOOR:13|,FLOOR:13|,FLOOR:11|,FLOOR:11|,FLOOR:11|,FLOOR:13|,FLOOR:13|,FLOOR:13|,FLOOR:13|,FLOOR:13|,
FLOOR:13|,FLOOR:13|,FLOOR:13|,WALL:69|,WALL:69|,FLOOR:58|,FLOOR:7|,FLOOR:7|,FLOOR:7|,FLOOR:7|,FLOOR:58|,FLOOR:58|,FLOOR:58|,FLOOR:58|,FLOOR:58|,WALL:69|,WALL:69|,WALL:69|,WALL:69|,FLOOR:33|,FLOOR:7|,FLOOR:7|,WALL:69|,WALL:69|,WALL:69|,FLOOR:58|,FLOOR:58|,WALL:69|,FLOOR:13|,FLOOR:13|,FLOOR:11|,FLOOR:11|,FLOOR:13|,FLOOR:13|,WALL:69|,FLOOR:58|,FLOOR:7|,WALL:69|,WALL:69|,FLOOR:13|,FLOOR:13|SCENERY:12:0|,FLOOR:13|,FLOOR:13|,FLOOR:13|,FLOOR:13|,FLOOR:13|,FLOOR:13|,FLOOR:13|,
FLOOR:13|,WALL:69|,WALL:69|,WALL:69|,FLOOR:58|,FLOOR:58|,FLOOR:7|,FLOOR:7|,FLOOR:7|,FLOOR:7|,FLOOR:7|,FLOOR:7|,FLOOR:7|,FLOOR:7|,WALL:69|,WALL:69|,FLOOR:13|,FLOOR:13|,WALL:69|,FLOOR:27|,FLOOR:36|,FLOOR:7|,FLOOR:7|,FLOOR:58|,FLOOR:58|,FLOOR:58|,FLOOR:7|,WALL:69|,FLOOR:13|,FLOOR:11|,FLOOR:11|,FLOOR:11|,FLOOR:11|,FLOOR:13|,WALL:69|,FLOOR:58|,FLOOR:7|,FLOOR:7|,WALL:69|,WALL:69|,WALL:69|,WALL:69|,FLOOR:13|,FLOOR:13|,WALL:69|,WALL:69|,WALL:69|,WALL:69|,
WALL:69|,WALL:69|,FLOOR:58|,FLOOR:58|,FLOOR:58|,FLOOR:7|,FLOOR:7|,WALL:69|,WALL:69|,WALL:69|,FLOOR:7|,FLOOR:7|,WALL:69|,WALL:69|,WALL:69|,FLOOR:13|,FLOOR:13|,FLOOR:13|,WALL:69|,WALL:69|,FLOOR:33|,FLOOR:7|,FLOOR:7|,FLOOR:7|,FLOOR:7|,FLOOR:7|,WALL:69|,WALL:69|,FLOOR:13|,FLOOR:11|,FLOOR:11|,FLOOR:11|,FLOOR:11|,FLOOR:13|,WALL:69|,WALL:69|,FLOOR:7|,FLOOR:7|,FLOOR:7|,FLOOR:58|,FLOOR:58|,WALL:69|,FLOOR:13|,FLOOR:13|,WALL:69|,FLOOR:58|,FLOOR:58|,FLOOR:58|ESCAPE:1|,
FLOOR:58|,FLOOR:58|,FLOOR:58|,FLOOR:7|,FLOOR:7|,WALL:69|,WALL:69|,WALL:69|,FLOOR:13|,WALL:69|,WALL:69|,WALL:69|,WALL:69|,FLOOR:13|,FLOOR:13|SCENERY:8:0|,FLOOR:13|,WALL:69|,WALL:69|,WALL:69|,WALL:69|,FLOOR:33|,FLOOR:7|,FLOOR:7|,FLOOR:7|,FLOOR:7|,FLOOR:7|,WALL:69|,FLOOR:13|,FLOOR:13|,FLOOR:11|,FLOOR:11|,FLOOR:11|,FLOOR:11|,FLOOR:13|,FLOOR:13|,WALL:69|,FLOOR:58|,FLOOR:7|,FLOOR:7|,FLOOR:7|,WALL:69|,WALL:69|,FLOOR:13|,FLOOR:13|,WALL:69|,FLOOR:58|,FLOOR:7|,FLOOR:7|ESCAPE:1|,
FLOOR:35|,FLOOR:35|,FLOOR:35|,FLOOR:36|,FLOOR:7|,WALL:69|,WALL:69|,FLOOR:13|,FLOOR:13|,FLOOR:13|,FLOOR:13|,FLOOR:13|,FLOOR:13|,FLOOR:13|,WALL:69|,WALL:69|,WALL:69|,FLOOR:58|,FLOOR:58|,FLOOR:58|,FLOOR:33|,FLOOR:7|,WALL:69|,WALL:69|,WALL:69|,WALL:69|,WALL:69|,FLOOR:13|,FLOOR:11|,FLOOR:11|,FLOOR:11|,FLOOR:11|,FLOOR:11|,FLOOR:13|,FLOOR:13|,WALL:69|,FLOOR:58|,WALL:69|,FLOOR:7|,FLOOR:7|,WALL:69|,FLOOR:13|,FLOOR:13|,WALL:69|,WALL:69|,FLOOR:58|,FLOOR:7|,FLOOR:7|ESCAPE:1|,
FLOOR:7|,WALL:69|,WALL:69|,FLOOR:27|,FLOOR:36|,FLOOR:7|,WALL:69|,WALL:69|,WALL:69|,WALL:69|,WALL:69|,WALL:69|,WALL:69|,WALL:69|,WALL:69|,FLOOR:58|,FLOOR:58|,FLOOR:58|,FLOOR:7|,FLOOR:7|,FLOOR:33|,FLOOR:7|,WALL:69|,FLOOR:13|,FLOOR:13|,FLOOR:13|,FLOOR:13|,FLOOR:13|,FLOOR:11|,FLOOR:11|,FLOOR:11|,FLOOR:11|,FLOOR:13|,FLOOR:13|,WALL:69|,WALL:69|,FLOOR:58|,WALL:69|,FLOOR:58|,FLOOR:7|,WALL:69|,FLOOR:13|,FLOOR:13|,WALL:69|,FLOOR:58|,FLOOR:58|,FLOOR:7|,WALL:69|,
FLOOR:7|,FLOOR:7|,WALL:69|,WALL:69|,FLOOR:27|,FLOOR:35|,FLOOR:35|,FLOOR:36|,FLOOR:58|,FLOOR:58|,FLOOR:58|,FLOOR:58|,FLOOR:58|,FLOOR:58|,FLOOR:58|,FLOOR:58|,FLOOR:7|,FLOOR:7|,FLOOR:7|,FLOOR:7|,FLOOR:33|,WALL:69|,WALL:69|,FLOOR:13|,FLOOR:11|,FLOOR:11|,FLOOR:11|,FLOOR:11|,FLOOR:11|,FLOOR:11|,FLOOR:11|,FLOOR:11|,FLOOR:13|,WALL:69|,WALL:69|,FLOOR:58|,FLOOR:58|,WALL:69|,FLOOR:58|,FLOOR:7|,WALL:69|,WALL:69|,WALL:69|,WALL:69|,FLOOR:58|,FLOOR:7|,WALL:69|,WALL:69|,
FLOOR:7|,FLOOR:7|,WALL:69|,WALL:69|,WALL:69|,WALL:69|,WALL:69|,FLOOR:27|,FLOOR:36|,FLOOR:7|,FLOOR:7|,FLOOR:7|,FLOOR:7|,WALL:69|,WALL:69|,WALL:69|,WALL:69|,WALL:69|,WALL:69|,FLOOR:7|,FLOOR:33|,WALL:69|,FLOOR:13|,FLOOR:13|,FLOOR:11|,FLOOR:11|,FLOOR:11|,FLOOR:11|,FLOOR:11|,FLOOR:11|,FLOOR:11|,FLOOR:11|,FLOOR:13|,WALL:69|,FLOOR:58|,FLOOR:58|,WALL:69|,WALL:69|,FLOOR:58|,FLOOR:7|,FLOOR:7|,FLOOR:58|DEPLOY:2|,FLOOR:58|,FLOOR:58|,FLOOR:58|,WALL:69|,WALL:69|,FLOOR:13|,
FLOOR:7|,FLOOR:7|,WALL:69|,FLOOR:13|,FLOOR:13|,FLOOR:13|,WALL:69|,WALL:69|,FLOOR:27|,FLOOR:35|,FLOOR:36|,FLOOR:7|,WALL:69|,WALL:69|,FLOOR:13|SCENERY:13:0|,FLOOR:13|,FLOOR:13|,FLOOR:13|,WALL:69|,FLOOR:58|,FLOOR:33|,WALL:69|,FLOOR:13|,FLOOR:11|,FLOOR:11|,FLOOR:11|,FLOOR:11|,FLOOR:11|,FLOOR:11|,FLOOR:11|,FLOOR:11|,FLOOR:11|,FLOOR:13|,WALL:69|,FLOOR:58|,FLOOR:7|,WALL:69|,WALL:69|,WALL:69|,WALL:69|,FLOOR:7|,FLOOR:7|,FLOOR:7|,FLOOR:7|,FLOOR:7|,WALL:69|,WALL:69|,FLOOR:13|,
FLOOR:7|,FLOOR:7|DEPLOY:1|,WALL:69|,FLOOR:13|,FLOOR:11|,FLOOR:13|,FLOOR:13|,WALL:69|,WALL:69|,WALL:69|,FLOOR:33|,FLOOR:7|,WALL:69|,WALL:69|,FLOOR:13|,FLOOR:13|,FLOOR:11|,FLOOR:13|,WALL:69|,FLOOR:58|,FLOOR:33|,WALL:69|,FLOOR:13|,FLOOR:11|,FLOOR:11|,FLOOR:11|,FLOOR:11|,FLOOR:11|,FLOOR:11|,FLOOR:11|,FLOOR:11|,FLOOR:11|,FLOOR:13|,WALL:69|,WALL:69|,FLOOR:7|,FLOOR:7|,WALL:69|,FLOOR:13|,WALL:69|,WALL:69|,WALL:69|,FLOOR:7|,FLOOR:7|,FLOOR:7|,FLOOR:7|,WALL:69|,WALL:69|,
FLOOR:7|,WALL:69|,WALL:69|,FLOOR:13|,FLOOR:11|,FLOOR:11|,FLOOR:13|,FLOOR:13|,FLOOR:13|,WALL:69|,FLOOR:33|,FLOOR:7|,FLOOR:7|,WALL:69|,WALL:69|,FLOOR:13|,FLOOR:11|,FLOOR:13|,WALL:69|,FLOOR:58|,FLOOR:33|,WALL:69|,FLOOR:13|,FLOOR:13|,FLOOR:13|,FLOOR:11|,FLOOR:11|,FLOOR:11|,FLOOR:11|,FLOOR:11|,FLOOR:11|,FLOOR:11|,FLOOR:13|,FLOOR:13|,WALL:69|,FLOOR:58|,FLOOR:7|,WALL:69|,FLOOR:13|,FLOOR:13|,FLOOR:13|,WALL:69|,WALL:69|,WALL:69|,FLOOR:7|,FLOOR:7|,FLOOR:7|,FLOOR:58|ESCAPE:1|,
FLOOR:7|,WALL:69|,FLOOR:13|,FLOOR:13|,FLOOR:11|,FLOOR:11|,FLOOR:11|,FLOOR:11|,FLOOR:13|,WALL:69|,FLOOR:33|,FLOOR:7|,FLOOR:7|,FLOOR:7|,WALL:69|,FLOOR:13|,FLOOR:11|,FLOOR:13|,WALL:69|,FLOOR:58|,FLOOR:33|,WALL:69|,WALL:69|,WALL:69|,FLOOR:13|,FLOOR:11|,FLOOR:11|,FLOOR:11|,FLOOR:11|,FLOOR:11|,FLOOR:11|,FLOOR:13|,FLOOR:13|,FLOOR:13|,WALL:69|,FLOOR:58|,WALL:69|,WALL:69|,FLOOR:13|,FLOOR:11|,FLOOR:13|SCENERY:9:0|,FLOOR:13|,FLOOR:13|,WALL:69|,WALL:69|,FLOOR:7|,FLOOR:7|,FLOOR:7|ESCAPE:1|,
FLOOR:7|,WALL:69|,FLOOR:13|,FLOOR:13|SCENERY:2:0|,FLOOR:11|,FLOOR:11|,FLOOR:11|,FLOOR:11|,FLOOR:13|,WALL:69|,FLOOR:33|,FLOOR:7|,FLOOR:7|,FLOOR:7|,WALL:69|,FLOOR:13|,FLOOR:11|,FLOOR:13|,WALL:69|,WALL:69|,FLOOR:33|,FLOOR:7|,FLOOR:58|,WALL:69|,FLOOR:13|,FLOOR:13|,FLOOR:11|,FLOOR:11|,FLOOR:11|,FLOOR:11|,FLOOR:13|,FLOOR:13|,WALL:69|,WALL:69|,WALL:69|,FLOOR:58|,WALL:69|,FLOOR:13|,FLOOR:13|,FLOOR:11|,FLOOR:11|,FLOOR:13|,FLOOR:13|,FLOOR:13|,WALL:69|,FLOOR:58|,FLOOR:7|,FLOOR:7|ESCAPE:1|,
FLOOR:7|,WALL:69|,WALL:69|,FLOOR:13|,FLOOR:13|,FLOOR:11|,FLOOR:13|,FLOOR:13|,FLOOR:13|,WALL:69|,FLOOR:33|,FLOOR:7|,FLOOR:7|,WALL:69|,WALL:69|,FLOOR:13|,FLOOR:11|,FLOOR:13|,FLOOR:13|,WALL:69|,FLOOR:27|,FLOOR:36|,FLOOR:7|,WALL:69|,WALL:69|,FLOOR:13|,FLOOR:13|,FLOOR:13|,FLOOR:13|SCENERY:2:0|,FLOOR:13|,FLOOR:13|,WALL:69|,WALL:69|,FLOOR:58|DEPLOY:2|,FLOOR:58|,FLOOR:58|,WALL:69|,WALL:69|,FLOOR:13|,FLOOR:13|,FLOOR:13|,FLOOR:13|,WALL:69|,WALL:69|,WALL:69|,FLOOR:58|,FLOOR:7|,FLOOR:7|ESCAPE:1|,
FLOOR:7|,FLOOR:7|,WALL:69|,WALL:69|,FLOOR:13|,FLOOR:13|,FLOOR:13|,WALL:69|,WALL:69|,WALL:69|,FLOOR:33|,FLOOR:7|,WALL:69|,WALL:69|,FLOOR:13|,FLOOR:13|,FLOOR:11|,FLOOR:11|,FLOOR:13|,WALL:69|,WALL:69|,FLOOR:27|,FLOOR:35|,FLOOR:36|,WALL:69|,WALL:69|,WALL:69|,WALL:69|,WALL:69|,WALL:69|,FLOOR:13|,WALL:69|,FLOOR:58|,FLOOR:58|,FLOOR:7|,FLOOR:7|,FLOOR:7|,WALL:69|,WALL:69|,WALL:69|,WALL:69|,WALL:69|,WALL:69|,FLOOR:58|,FLOOR:58|,FLOOR:58|,FLOOR:7|,FLOOR:7|DEPLOY:2|ESCAPE:1|,
FLOOR:7|,FLOOR:7|,FLOOR:7|,WALL:69|,WALL:69|,FLOOR:13|,FLOOR:13|,WALL:69|,FLOOR:58|,FLOOR:58|,FLOOR:33|,FLOOR:7|,WALL:69|,WALL:69|,FLOOR:13|,FLOOR:13|,FLOOR:13|,FLOOR:13|,FLOOR:13|,WALL:69|,WALL:69|,FLOOR:58|,WALL:69|,FLOOR:27|,FLOOR:36|,FLOOR:58|,FLOOR:58|,FLOOR:58|,FLOOR:58|,WALL:69|,WALL:69|,WALL:69|,FLOOR:22|,FLOOR:35|,FLOOR:35|,FLOOR:36|,FLOOR:7|,FLOOR:7|,FLOOR:58|,FLOOR:58|,FLOOR:58|,FLOOR:58|,FLOOR:58|,FLOOR:58|,WALL:69|,WALL:69|,WALL:69|,WALL:69|,
FLOOR:7|,FLOOR:7|,FLOOR:7|,FLOOR:7|,WALL:69|,WALL:69|,WALL:69|,WALL:69|,FLOOR:58|,FLOOR:7|,FLOOR:33|,FLOOR:7|,FLOOR:7|,WALL:69|,WALL:69|,WALL:69|,WALL:69|,WALL:69|,WALL:69|,WALL:69|,FLOOR:58|,FLOOR:58|,WALL:69|,WALL:69|,FLOOR:27|,FLOOR:35|,FLOOR:35|,FLOOR:35|,FLOOR:35|,FLOOR:35|,FLOOR:35|,FLOOR:35|,FLOOR:23|,WALL:69|,WALL:69|,FLOOR:27|,FLOOR:36|,FLOOR:7|,FLOOR:7|,FLOOR:7|,FLOOR:7|,FLOOR:7|,FLOOR:7|,WALL:69|,WALL:69|,FLOOR:13|,FLOOR:13|,FLOOR:13|,
FLOOR:7|,FLOOR:7|,FLOOR:7|,FLOOR:7|,FLOOR:7|,FLOOR:58|,FLOOR:58|,FLOOR:58|,FLOOR:58|,WALL:69|,FLOOR:27|,FLOOR:35|,FLOOR:35|,FLOOR:35|,FLOOR:36|,FLOOR:58|,FLOOR:58|,FLOOR:58|,FLOOR:58|,FLOOR:58|,FLOOR:58|,WALL:69|,WALL:69|,WALL:69|,WALL:69|,WALL:69|,WALL:69|,FLOOR:7|,FLOOR:7|,FLOOR:7|,WALL:69|,FLOOR:7|,FLOOR:7|,WALL:69|,WALL:69|,WALL:69|,FLOOR:33|,FLOOR:7|,WALL:69|,WALL:69|,WALL:69|,WALL:69|,WALL:69|,WALL:69|,FLOOR:13|,FLOOR:13|,FLOOR:11|,FLOOR:11|,
FLOOR:7|,FLOOR:7|,FLOOR:7|,FLOOR:7|,FLOOR:7|,FLOOR:7|,FLOOR:7|,FLOOR:7|,FLOOR:7|,WALL:69|,WALL:69|,WALL:69|,WALL:69|,WALL:69|,FLOOR:27|,FLOOR:35|,FLOOR:35|,FLOOR:36|,FLOOR:7|,FLOOR:7|,WALL:69|,WALL:69|,FLOOR:13|,FLOOR:13|,FLOOR:13|,FLOOR:13|,WALL:69|,WALL:69|,FLOOR:7|,WALL:69|,WALL:69|,WALL:69|,WALL:69|,WALL:69|,WALL:69|,FLOOR:58|,FLOOR:33|,WALL:69|,WALL:69|,FLOOR:13|,FLOOR:13|,FLOOR:13|,FLOOR:13|,FLOOR:13|,FLOOR:13|,FLOOR:11|,FLOOR:11|,FLOOR:11|,
FLOOR:7|,FLOOR:7|,FLOOR:7|,FLOOR:7|,FLOOR:7|,WALL:69|,WALL:69|,WALL:69|,WALL:69|,WALL:69|,FLOOR:13|,FLOOR:13|,FLOOR:13|,WALL:69|,WALL:69|,WALL:69|,WALL:69|,FLOOR:33|,FLOOR:7|,WALL:69|,WALL:69|,FLOOR:13|,FLOOR:13|,FLOOR:11|,FLOOR:11|,FLOOR:13|,FLOOR:13|,WALL:69|,FLOOR:58|,WALL:69|,FLOOR:13|,FLOOR:13|,FLOOR:13|,FLOOR:13|,WALL:69|,FLOOR:58|,FLOOR:33|,WALL:69|,FLOOR:13|,FLOOR:13|,FLOOR:11|,FLOOR:11|,FLOOR:11|,FLOOR:11|,FLOOR:11|,FLOOR:11|,FLOOR:11|,FLOOR:11|,
FLOOR:7|,FLOOR:7|,FLOOR:7|,FLOOR:7|,WALL:69|,WALL:69|,FLOOR:13|,FLOOR:13|,FLOOR:13|,FLOOR:13|,FLOOR:13|,FLOOR:11|,FLOOR:13|,FLOOR:13|,FLOOR:13|,FLOOR:13|,WALL:69|,FLOOR:33|,FLOOR:7|,WALL:69|,FLOOR:13|,FLOOR:13|,FLOOR:13|,FLOOR:13|,FLOOR:13|,FLOOR:13|,WALL:69|,WALL:69|,FLOOR:58|,WALL:69|,FLOOR:13|,FLOOR:13|,FLOOR:13|,FLOOR:13|,WALL:69|,FLOOR:58|,FLOOR:33|,WALL:69|,FLOOR:13|,FLOOR:13|SCENERY:1:0|,FLOOR:13|,FLOOR:13|,FLOOR:11|,FLOOR:11|,FLOOR:11|,FLOOR:11|,FLOOR:11|,FLOOR:11|,
FLOOR:7|,FLOOR:7|DEPLOY:1|,WALL:69|,WALL:69|,WALL:69|,FLOOR:13|,FLOOR:13|,FLOOR:11|,FLOOR:11|,FLOOR:11|,FLOOR:11|,FLOOR:13|,FLOOR:13|,FLOOR:13|,FLOOR:13|,WALL:69|,WALL:69|,FLOOR:33|,FLOOR:7|,WALL:69|,WALL:69|,WALL:69|,FLOOR:13|,WALL:69|,WALL:69|,WALL:69|,WALL:69|,FLOOR:58|,FLOOR:58|,WALL:69|,WALL:69|,WALL:69|,WALL:69|,WALL:69|,WALL:69|,FLOOR:58|,FLOOR:33|,WALL:69|,WALL:69|,WALL:69|,WALL:69|,FLOOR:13|,FLOOR:13|,FLOOR:13|,FLOOR:13|,FLOOR:11|,FLOOR:11|,FLOOR:11|,
FLOOR:7|,FLOOR:7|,WALL:69|,FLOOR:13|,FLOOR:13|,FLOOR:13|,FLOOR:11|,FLOOR:11|,FLOOR:13|SCENERY:2:0|,FLOOR:13|,FLOOR:13|,FLOOR:13|,WALL:69|,WALL:69|,WALL:69|,WALL:69|,FLOOR:58|,FLOOR:33|,FLOOR:7|,FLOOR:7|,FLOOR:58|,WALL:69|,WALL:69|,WALL:69|,FLOOR:58|,FLOOR:58|,FLOOR:58|,FLOOR:58|,FLOOR:7|,FLOOR:7|,FLOOR:58|,FLOOR:58|,FLOOR:58|,FLOOR:58|,FLOOR:58|,FLOOR:58|,FLOOR:33|,FLOOR:7|,FLOOR:58|,FLOOR:58|,WALL:69|,WALL:69|,WALL:69|,WALL:69|,FLOOR:13|,FLOOR:13|,FLOOR:11|,FLOOR:11|,
FLOOR:7|,WALL:69|,WALL:69|,FLOOR:13|,FLOOR:11|,FLOOR:11|,FLOOR:11|,FLOOR:11|,FLOOR:13|,WALL:69|,WALL:69|,WALL:69|,WALL:69|,FLOOR:58|,FLOOR:58|,FLOOR:22|,FLOOR:35|,FLOOR:23|,FLOOR:7|,FLOOR:7|,FLOOR:7|,FLOOR:7|,FLOOR:58|,FLOOR:58|,FLOOR:58|,FLOOR:7|,FLOOR:7|,WALL:69|,WALL:69|,WALL:69|,WALL:69|,WALL:69|,WALL:69|,WALL:69|,WALL:69|,FLOOR:7|,FLOOR:27|DEPLOY:2|,FLOOR:35|,FLOOR:36|,FLOOR:7|,FLOOR:7|,FLOOR:58|,FLOOR:58|,WALL:69|,WALL:69|,FLOOR:13|,FLOOR:13|,FLOOR:13|,
FLOOR:7|,WALL:69|,WALL:69|,FLOOR:13|,FLOOR:13|,FLOOR:11|,FLOOR:11|,FLOOR:11|,FLOOR:13|,WALL:69|,FLOOR:58|,FLOOR:58|,FLOOR:58|,FLOOR:58|,FLOOR:22|,FLOOR:23|,WALL:69|,WALL:69|,WALL:69|,WALL:69|,FLOOR:7|,FLOOR:7|,FLOOR:7|,FLOOR:7|,FLOOR:7|,FLOOR:7|,WALL:69|,WALL:69|,FLOOR:13|,FLOOR:13|,FLOOR:13|,FLOOR:13|,FLOOR:13|SCENERY:8:0|,FLOOR:13|,WALL:69|,WALL:69|,WALL:69|,WALL:69|,FLOOR:33|,FLOOR:7|,FLOOR:7|,FLOOR:7|,FLOOR:7|,FLOOR:7|,WALL:69|,WALL:69|,WALL:69|,WALL:69|,
FLOOR:7|,FLOOR:7|,WALL:69|,WALL:69|,FLOOR:13|,FLOOR:11|,FLOOR:11|,FLOOR:11|,FLOOR:13|,WALL:69|,WALL:69|,FLOOR:58|,FLOOR:7|,FLOOR:7|,FLOOR:33|,WALL:69|,WALL:69|,FLOOR:13|SCENERY:12:0|,FLOOR:13|,WALL:69|,WALL:69|,FLOOR:7|,FLOOR:7|,FLOOR:7|,FLOOR:7|,WALL:69|,WALL:69|,FLOOR:13|,FLOOR:13|,FLOOR:11|,FLOOR:11|,FLOOR:11|,FLOOR:13|,FLOOR:13|,FLOOR:13|,FLOOR:13|,WALL:69|,WALL:69|,FLOOR:27|,FLOOR:35|,FLOOR:35|,FLOOR:35|,FLOOR:35|,FLOOR:36|,FLOOR:7|,FLOOR:58|,FLOOR:58|DEPLOY:2|,FLOOR:58|ESCAPE:1|,
FLOOR:7|,FLOOR:7|,FLOOR:7|,WALL:69|,FLOOR:13|,FLOOR:13|,FLOOR:13|,FLOOR:11|,FLOOR:13|,FLOOR:13|,WALL:69|,FLOOR:58|,FLOOR:7|,FLOOR:7|,FLOOR:33|,WALL:69|,FLOOR:13|,FLOOR:13|,FLOOR:13|,FLOOR:13|,WALL:69|,WALL:69|,FLOOR:7|,FLOOR:7|,FLOOR:7|,WALL:69|,WALL:69|,FLOOR:13|,FLOOR:11|,FLOOR:11|,FLOOR:11|,FLOOR:11|,FLOOR:13|,WALL:69|,WALL:69|,WALL:69|,WALL:69|,FLOOR:58|,FLOOR:58|,FLOOR:7|,WALL:69|,WALL:69|,WALL:69|,FLOOR:27|,FLOOR:35|,FLOOR:35|,FLOOR:36|,FLOOR:7|ESCAPE:1|,
FLOOR:7|,FLOOR:7|,FLOOR:7|,WALL:69|,WALL:69|,WALL:69|,FLOOR:13|,FLOOR:11|,FLOOR:11|,FLOOR:13|,WALL:69|,FLOOR:58|,FLOOR:7|,FLOOR:22|,FLOOR:23|,WALL:69|,FLOOR:13|,FLOOR:11|,FLOOR:11|,FLOOR:13|,FLOOR:13|,WALL:69|,WALL:69|,FLOOR:7|,FLOOR:7|,FLOOR:7|,WALL:69|,FLOOR:13|,FLOOR:11|,FLOOR:11|,FLOOR:11|,FLOOR:13|,FLOOR:13|,WALL:69|,FLOOR:58|,FLOOR:58|,FLOOR:58|,FLOOR:58|,FLOOR:7|,FLOOR:7|,WALL:69|,FLOOR:13|,WALL:69|,WALL:69|,WALL:69|,WALL:69|,FLOOR:27|,FLOOR:35|ESCAPE:1|,
FLOOR:7|,FLOOR:7|,FLOOR:7|,FLOOR:7|,FLOOR:58|,WALL:69|,FLOOR:13|,FLOOR:13|,FLOOR:13|,FLOOR:13|,WALL:69|,FLOOR:58|,FLOOR:7|,FLOOR:33|,WALL:69|,WALL:69|,FLOOR:13|,FLOOR:11|,FLOOR:11|,FLOOR:11|,FLOOR:13|,FLOOR:13|,WALL:69|,FLOOR:58|DEPLOY:2|,FLOOR:7|,FLOOR:7|,WALL:69|,FLOOR:13|,FLOOR:11|,FLOOR:11|,FLOOR:13|,FLOOR:13|,WALL:69|,WALL:69|,FLOOR:58|,FLOOR:7|,FLOOR:7|,FLOOR:7|,FLOOR:7|,FLOOR:7|,WALL:69|,FLOOR:13|SCENERY:13:0|,FLOOR:13|,FLOOR:13|,FLOOR:13|,WALL:69|,WALL:69|,WALL:69|,
FLOOR:7|,FLOOR:7|,FLOOR:7|,FLOOR:7|,FLOOR:7|,WALL:69|,WALL:69|,WALL:69|,WALL:69|,WALL:69|,WALL:69|,FLOOR:58|,FLOOR:7|,FLOOR:33|,WALL:69|,FLOOR:13|,FLOOR:13|,FLOOR:11|,FLOOR:11|,FLOOR:11|,FLOOR:11|,FLOOR:13|,WALL:69|,FLOOR:58|,FLOOR:7|,FLOOR:7|,WALL:69|,FLOOR:13|,FLOOR:11|,FLOOR:11|,FLOOR:13|,WALL:69|,WALL:69|,FLOOR:58|,FLOOR:58|,FLOOR:7|,FLOOR:7|,WALL:69|,WALL:69|,WALL:69|,WALL:69|,FLOOR:13|,FLOOR:11|,FLOOR:11|,FLOOR:13|,FLOOR:13|,FLOOR:13|,FLOOR:13|,
FLOOR:7|,FLOOR:7|,FLOOR:7|,FLOOR:7|,FLOOR:7|,FLOOR:7|,FLOOR:58|,FLOOR:58|,FLOOR:58|,FLOOR:58|,FLOOR:58|,FLOOR:58|,FLOOR:7|,FLOOR:33|,WALL:69|,FLOOR:13|,FLOOR:11|,FLOOR:11|,FLOOR:11|,FLOOR:11|,FLOOR:11|,FLOOR:13|,WALL:69|,FLOOR:58|,FLOOR:7|,FLOOR:7|,WALL:69|,FLOOR:13|,FLOOR:11|,FLOOR:11|,FLOOR:13|,WALL:69|,FLOOR:58|,FLOOR:58|,FLOOR:7|,FLOOR:7|,FLOOR:7|,WALL:69|,FLOOR:13|,FLOOR:13|,FLOOR:13|,FLOOR:13|,FLOOR:11|,FLOOR:11|,FLOOR:11|,FLOOR:11|,FLOOR:11|,FLOOR:11|,

