61,1.87
FLOOR:2|,FLOOR:2|,FLOOR:2|,FLOOR:2|,FLOOR:2|,FLOOR:2|,FLOOR:2|,FLOOR:2|,FLOOR:2|,FLOOR:2|,FLOOR:2|,FLOOR:2|,FLOOR:2|,FLOOR:2|,FLOOR:2|,FLOOR:2|,FLOOR:2|,FLOOR:2|,FLOOR:2|,FLOOR:2|,FLOOR:2|,FLOOR:2|,FLOOR:2|,FLOOR:2|,FLOOR:2|,FLOOR:2|,FLOOR:2|,FLOOR:2|,FLOOR:2|,FLOOR:2|,FLOOR:2|,FLOOR:2|,FLOOR:2|,FLOOR:2|,FLOOR:2|,FLOOR:2|,FLOOR:2|,FLOOR:2|,FLOOR:2|,FLOOR:2|,FLOOR:2|,FLOOR:2|,FLOOR:2|,FLOOR:2|,FLOOR:2|,FLOOR:2|,FLOOR:2|,FLOOR:2|,FLOOR:2|,FLOOR:2|,FLOOR:2|,FLOOR:2|,FLOOR:2|,FLOOR:2|,FLOOR:2|,FLOOR:2|,FLOOR:2|,FLOOR:2|,FLOOR:2|,FLOOR:2|,FLOOR:2|,
FLOOR:2|,FLOOR:2|DEPLOY:1|,FLOOR:2|DEPLOY:1|,FLOOR:2|DEPLOY:1|,FLOOR:2|DEPLOY:1|,FLOOR:2|DEPLOY:1|,FLOOR:2|DEPLOY:1|,FLOOR:2|DEPLOY:1|,FLOOR:2|DEPLOY:1|,FLOOR:2|DEPLOY:1|,FLOOR:2|DEPLOY:1|,FLOOR:2|DEPLOY:1|,FLOOR:2|DEPLOY:1|,FLOOR:2|DEPLOY:1|,FLOOR:2|DEPLOY:1|,FLOOR:2|DEPLOY:1|,FLOOR:2|DEPLOY:1|,FLOOR:2|DEPLOY:1|,FLOOR:2|DEPLOY:1|,FLOOR:2|DEPLOY:1|,FLOOR:2|DEPLOY:1|,FLOOR:2|DEPLOY:1|,FLOOR:2|DEPLOY:1|,FLOOR:2|DEPLOY:1|,FLOOR:2|DEPLOY:1|,FLOOR:2|DEPLOY:1|,FLOOR:2|DEPLOY:1|,FLOOR:2|DEPLOY:1|,FLOOR:2|DEPLOY:1|,FLOOR:2|DEPLOY:1|,FLOOR:2|DEPLOY:1|,FLOOR:2|DEPLOY:1|,FLOOR:2|DEPLOY:1|,FLOOR:2|DEPLOY:1|,FLOOR:2|DEPLOY:1|,FLOOR:2|DEPLOY:1|,FLOOR:2|DEPLOY:1|,FLOOR:2|DEPLOY:1|,FLOOR:2|DEPLOY:1|,FLOOR:2|DEPLOY:1|,FLOOR:2|DEPLOY:1|,FLOOR:2|DEPLOY:1|,FLOOR:2|DEPLOY:1|,FLOOR:2|DEPLOY:1|,FLOOR:2|DEPLOY:1|,FLOOR:2|DEPLOY:1|,FLOOR:2|DEPLOY:1|,FLOOR:2|DEPLOY:1|,FLOOR:2|DEPLOY:1|,FLOOR:2|DEPLOY:1|,FLOOR:2|DEPLOY:1|,FLOOR:2|DEPLOY:1|,FLOOR:2|DEPLOY:1|,FLOOR:2|DEPLOY:1|,FLOOR:2|DEPLOY:1|,FLOOR:2|DEPLOY:1|,FLOOR:2|DEPLOY:1|,FLOOR:2|DEPLOY:1|,FLOOR:2|DEPLOY:1|,FLOOR:2|DEPLOY:1|,FLOOR:2|,
FLOOR:2|,FLOOR:2|DEPLOY:1|,FLOOR:2|DEPLOY:1|,FLOOR:2|DEPLOY:1|,FLOOR:2|DEPLOY:1|,FLOOR:2|DEPLOY:1|,FLOOR:2|DEPLOY:1|,FLOOR:2|DEPLOY:1|,FLOOR:2|DEPLOY:1|,FLOOR:2|DEPLOY:1|,FLOOR:2|DEPLOY:1|,FLOOR:2|DEPLOY:1|,FLOOR:2|DEPLOY:1|,FLOOR:2|DEPLOY:1|,FLOOR:2|DEPLOY:1|,FLOOR:2|DEPLOY:1|,FLOOR:2|DEPLOY:1|,FLOOR:2|DEPLOY:1|,FLOOR:2|DEPLOY:1|,FLOOR:2|DEPLOY:1|,FLOOR:2|DEPLOY:1|,FLOOR:2|DEPLOY:1|,FLOOR:2|DEPLOY:1|,FLOOR:2|DEPLOY:1|,FLOOR:2|DEPLOY:1|,FLOOR:2|DEPLOY:1|,FLOOR:2|DEPLOY:1|,FLOOR:2|DEPLOY:1|,FLOOR:2|DEPLOY:1|,FLOOR:2|DEPLOY:1|,FLOOR:2|DEPLOY:1|,FLOOR:2|DEPLOY:1|,FLOOR:2|DEPLOY:1|,FLOOR:2|DEPLOY:1|,FLOOR:2|DEPLOY:1|,FLOOR:2|DEPLOY:1|,FLOOR:2|DEPLOY:1|,FLOOR:2|DEPLOY:1|,FLOOR:2|DEPLOY:1|,FLOOR:2|DEPLOY:1|,FLOOR:2|DEPLOY:1|,FLOOR:2|DEPLOY:1|,FLOOR:2|DEPLOY:1|,FLOOR:2|DEPLOY:1|,FLOOR:2|DEPLOY:1|,FLOOR:2|DEPLOY:1|,FLOOR:2|DEPLOY:1|,FLOOR:2|DEPLOY:1|,FLOOR:2|DEPLOY:1|,FLOOR:2|DEPLOY:1|,FLOOR:2|DEPLOY:1|,FLOOR:2|DEPLOY:1|,FLOOR:2|DEPLOY:1|,FLOOR:2|DEPLOY:1|,FLOOR:2|DEPLOY:1|,FLOOR:2|DEPLOY:1|,FLOOR:2|DEPLOY:1|,FLOOR:2|DEPLOY:1|,FLOOR:2|DEPLOY:1|,FLOOR:2|DEPLOY:1|,FLOOR:2|,
FLOOR:2|,FLOOR:2|DEPLOY:1|,FLOOR:2|DEPLOY:1|,FLOOR:2|,FLOOR:2|,FLOOR:2|,FLOOR:2|,FLOOR:2|,FLOOR:2|,FLOOR:2|,FLOOR:2|,FLOOR:2|,FLOOR:2|,FLOOR:2|,FLOOR:2|,FLOOR:2|,FLOOR:2|,FLOOR:2|,FLOOR:2|,FLOOR:2|,FLOOR:2|,FLOOR:2|,FLOOR:2|,FLOOR:2|,FLOOR:2|,FLOOR:2|,FLOOR:2|,FLOOR:2|,FLOOR:2|,FLOOR:2|,FLOOR:2|,FLOOR:2|,FLOOR:2|,FLOOR:2|,FLOOR:2|,FLOOR:2|,FLOOR:2|,FLOOR:2|,FLOOR:2|,FLOOR:2|,FLOOR:2|,FLOOR:2|,FLOOR:2|,FLOOR:2|,FLOOR:2|,FLOOR:2|,FLOOR:2|,FLOOR:2|,FLOOR:2|,FLOOR:2|,FLOOR:2|,FLOOR:2|,FLOOR:2|,FLOOR:2|,FLOOR:2|,FLOOR:2|,FLOOR:2|,FLOOR:2|,FLOOR:2|DEPLOY:1|,FLOOR:2|DEPLOY:1|,FLOOR:2|,
FLOOR:2|,FLOOR:2|DEPLOY:1|,FLOOR:2|DEPLOY:1|,FLOOR:2|,FLOOR:2|,FLOOR:2|,FLOOR:31|,FLOOR:31|,FLOOR:31|,FLOOR:31|,FLOOR:31|,FLOOR:31|,FLOOR:31|,FLOOR:31|,FLOOR:31|,FLOOR:2|,FLOOR:2|,FLOOR:2|,FLOOR:2|,FLOOR:2|,FLOOR:2|,FLOOR:2|,FLOOR:2|,FLOOR:2|,FLOOR:2|,FLOOR:2|,FLOOR:2|,FLOOR:2|,FLOOR:2|,FLOOR:2|,FLOOR:2|,WALL:17|,FLOOR:2|,FLOOR:2|,FLOOR:2|,FLOOR:2|,FLOOR:2|,FLOOR:2|,FLOOR:2|,FLOOR:2|,FLOOR:2|,FLOOR:2|,FLOOR:2|,FLOOR:2|,FLOOR:2|,FLOOR:2|,FLOOR:2|,FLOOR:2|,FLOOR:2|,FLOOR:2|,FLOOR:2|,FLOOR:2|,FLOOR:2|,FLOOR:2|,FLOOR:2|,FLOOR:2|,FLOOR:2|,FLOOR:2|,FLOOR:2|DEPLOY:1|,FLOOR:2|DEPLOY:1|,FLOOR:2|,
FLOOR:2|,FLOOR:2|DEPLOY:1|,FLOOR:2|DEPLOY:1|,FLOOR:2|,FLOOR:2|,FLOOR:2|,FLOOR:31|,FLOOR:31|,FLOOR:31|,FLOOR:31|,FLOOR:31|,FLOOR:31|,FLOOR:31|,FLOOR:31|,FLOOR:31|,FLOOR:2|,FLOOR:2|,FLOOR:2|,FLOOR:2|,FLOOR:2|,WALL:17|,FLOOR:2|,FLOOR:2|,FLOOR:2|,FLOOR:2|,FLOOR:2|,FLOOR:2|,FLOOR:2|,FLOOR:2|,FLOOR:2|,FLOOR:2|,FLOOR:2|,FLOOR:2|,FLOOR:2|,FLOOR:2|,FLOOR:2|,FLOOR:2|,FLOOR:2|,FLOOR:2|,FLOOR:2|,FLOOR:2|,FLOOR:2|,FLOOR:2|,FLOOR:2|,FLOOR:2|,FLOOR:2|,FLOOR:2|,FLOOR:2|,FLOOR:2|,FLOOR:31|,FLOOR:31|,FLOOR:31|,FLOOR:31|,FLOOR:31|,FLOOR:31|,FLOOR:2|,FLOOR:2|,FLOOR:2|,FLOOR:2|DEPLOY:1|,FLOOR:2|DEPLOY:1|,FLOOR:2|,
FLOOR:2|,FLOOR:2|DEPLOY:1|,FLOOR:2|DEPLOY:1|,FLOOR:2|,FLOOR:2|,FLOOR:2|,FLOOR:31|,FLOOR:31|,FLOOR:31|,FLOOR:63|,FLOOR:31|,FLOOR:31|,FLOOR:63|,FLOOR:31|,FLOOR:31|,FLOOR:2|,FLOOR:2|,FLOOR:2|,FLOOR:2|,FLOOR:2|,FLOOR:2|,FLOOR:2|,FLOOR:2|,FLOOR:2|,FLOOR:2|,FLOOR:2|,FLOOR:2|,FLOOR:2|,FLOOR:2|,FLOOR:2|,FLOOR:2|,FLOOR:2|,FLOOR:2|,FLOOR:2|,FLOOR:2|,FLOOR:2|,FLOOR:2|,FLOOR:2|,FLOOR:2|,WALL:17|,FLOOR:2|,FLOOR:2|,FLOOR:2|,FLOOR:2|,FLOOR:2|,FLOOR:2|,FLOOR:2|,FLOOR:2|,FLOOR:2|,FLOOR:64|,FLOOR:64|,FLOOR:64|,FLOOR:64|,FLOOR:64|,FLOOR:64|,FLOOR:2|,FLOOR:2|,FLOOR:2|,FLOOR:2|DEPLOY:1|,FLOOR:2|DEPLOY:1|,FLOOR:2|,
FLOOR:2|,FLOOR:2|DEPLOY:1|,FLOOR:2|DEPLOY:1|,FLOOR:2|,FLOOR:2|,FLOOR:2|,FLOOR:31|,FLOOR:31|,FLOOR:31|,FLOOR:63|,FLOOR:31|,FLOOR:31|,FLOOR:63|,FLOOR:31|,FLOOR:31|,FLOOR:2|,FLOOR:2|,FLOOR:2|,FLOOR:2|,FLOOR:2|,FLOOR:2|,FLOOR:2|,FLOOR:2|,FLOOR:2|,FLOOR:2|,FLOOR:2|,FLOOR:2|,FLOOR:2|,FLOOR:2|,FLOOR:2|,FLOOR:2|,FLOOR:2|,FLOOR:2|,FLOOR:2|,FLOOR:2|,FLOOR:2|,FLOOR:2|,FLOOR:2|,FLOOR:2|,FLOOR:2|,FLOOR:2|,FLOOR:2|,FLOOR:2|,FLOOR:2|,FLOOR:2|,FLOOR:2|,FLOOR:2|,FLOOR:2|,FLOOR:2|,FLOOR:31|,FLOOR:31|,FLOOR:31|,FLOOR:31|,FLOOR:31|,FLOOR:31|,FLOOR:2|,FLOOR:2|,FLOOR:2|,FLOOR:2|DEPLOY:1|,FLOOR:2|DEPLOY:1|,FLOOR:2|,
FLOOR:2|,FLOOR:2|DEPLOY:1|,FLOOR:2|DEPLOY:1|,FLOOR:2|,FLOOR:2|,FLOOR:2|,FLOOR:31|,FLOOR:31|,FLOOR:31|,FLOOR:64|,FLOOR:64|,FLOOR:64|,FLOOR:63|,FLOOR:31|,FLOOR:31|,FLOOR:2|,FLOOR:2|,FLOOR:2|,FLOOR:2|,FLOOR:2|,FLOOR:2|,FLOOR:2|,FLOOR:2|,FLOOR:2|,FLOOR:2|,FLOOR:2|,FLOOR:2|,FLOOR:2|,FLOOR:2|,FLOOR:2|,FLOOR:2|,FLOOR:2|,FLOOR:2|,FLOOR:2|,FLOOR:2|,FLOOR:2|,FLOOR:2|,FLOOR:2|,FLOOR:2|,FLOOR:2|,FLOOR:2|,FLOOR:2|,FLOOR:2|,FLOOR:2|,FLOOR:2|,FLOOR:2|,FLOOR:2|,FLOOR:2|,FLOOR:2|,FLOOR:31|,FLOOR:31|,FLOOR:31|,FLOOR:63|,FLOOR:31|,FLOOR:31|,FLOOR:2|,FLOOR:2|,FLOOR:2|,FLOOR:2|DEPLOY:1|,FLOOR:2|DEPLOY:1|,FLOOR:2|,
FLOOR:2|,FLOOR:2|DEPLOY:1|,FLOOR:2|DEPLOY:1|,FLOOR:2|,FLOOR:2|,FLOOR:2|,FLOOR:31|,FLOOR:31|,FLOOR:31|,FLOOR:63|,FLOOR:31|,FLOOR:31|,FLOOR:63|,FLOOR:31|,FLOOR:31|,FLOOR:2|,FLOOR:2|,FLOOR:2|,FLOOR:2|,FLOOR:2|,FLOOR:2|,FLOOR:2|,FLOOR:2|,FLOOR:2|,FLOOR:2|,FLOOR:2|,WALL:17|,FLOOR:2|,FLOOR:2|,FLOOR:2|,FLOOR:2|,FLOOR:2|,FLOOR:2|,FLOOR:2|,FLOOR:2|,FLOOR:2|,FLOOR:2|,FLOOR:2|,FLOOR:2|,FLOOR:2|,FLOOR:2|,FLOOR:2|,FLOOR:2|,FLOOR:2|,FLOOR:2|,FLOOR:2|,FLOOR:2|,FLOOR:2|,FLOOR:2|,FLOOR:31|,FLOOR:31|,FLOOR:31|,FLOOR:63|,FLOOR:31|,FLOOR:31|,FLOOR:2|,FLOOR:2|,FLOOR:2|,FLOOR:2|DEPLOY:1|,FLOOR:2|DEPLOY:1|,FLOOR:2|,
FLOOR:2|,FLOOR:2|DEPLOY:1|,FLOOR:2|DEPLOY:1|,FLOOR:2|,FLOOR:2|,FLOOR:2|,FLOOR:31|,FLOOR:31|,FLOOR:31|,FLOOR:31|,FLOOR:31|,FLOOR:31|,FLOOR:31|,FLOOR:31|,FLOOR:31|,FLOOR:2|,FLOOR:2|,FLOOR:2|,FLOOR:2|,FLOOR:2|,FLOOR:2|,FLOOR:2|,FLOOR:2|,FLOOR:2|,FLOOR:2|,FLOOR:2|,FLOOR:2|,FLOOR:2|,FLOOR:2|,FLOOR:2|,FLOOR:2|,FLOOR:2|,FLOOR:2|,FLOOR:2|,FLOOR:2|,FLOOR:2|,FLOOR:2|,FLOOR:2|,FLOOR:2|,FLOOR:2|,FLOOR:2|,FLOOR:2|,FLOOR:2|,FLOOR:2|,FLOOR:2|,FLOOR:2|,FLOOR:2|,FLOOR:2|,FLOOR:2|,FLOOR:31|,FLOOR:31|,FLOOR:31|,FLOOR:31|,FLOOR:31|,FLOOR:31|,FLOOR:2|,FLOOR:2|,FLOOR:2|,FLOOR:2|DEPLOY:1|,FLOOR:2|DEPLOY:1|,FLOOR:2|,
FLOOR:2|,FLOOR:2|DEPLOY:1|,FLOOR:2|DEPLOY:1|,FLOOR:2|,FLOOR:2|,FLOOR:2|,FLOOR:31|,FLOOR:31|,FLOOR:31|,FLOOR:31|,FLOOR:31|,FLOOR:31|RAISED_FLOOR:35|,FLOOR:31|RAISED_FLOOR:35|,FLOOR:31|RAISED_FLOOR:35|,FLOOR:31|RAISED_FLOOR:35|,FLOOR:2|RAISED_FLOOR:35|,FLOOR:2|RAISED_FLOOR:35|,FLOOR:2|RAISED_FLOOR:35|,FLOOR:2|RAISED_FLOOR:35|,FLOOR:2|RAISED_FLOOR:35|,FLOOR:2|RAISED_FLOOR:35|,FLOOR:2|RAISED_FLOOR:35|,FLOOR:2|RAISED_FLOOR:35|,FLOOR:2|RAISED_FLOOR:36|,FLOOR:2|,FLOOR:2|,FLOOR:2|,FLOOR:2|,FLOOR:2|,FLOOR:2|,FLOOR:2|,FLOOR:2|,FLOOR:2|,FLOOR:2|,FLOOR:2|,FLOOR:2|,FLOOR:2|,FLOOR:2|,FLOOR:2|,FLOOR:2|,FLOOR:2|,FLOOR:2|,FLOOR:2|,FLOOR:2|,FLOOR:2|,FLOOR:2|,FLOOR:2|,FLOOR:2|,FLOOR:2|,FLOOR:31|,FLOOR:31|,FLOOR:31|,FLOOR:31|,FLOOR:31|,FLOOR:31|,FLOOR:2|,FLOOR:2|,FLOOR:2|,FLOOR:2|DEPLOY:1|,FLOOR:2|DEPLOY:1|,FLOOR:2|,
FLOOR:2|,FLOOR:2|DEPLOY:1|,FLOOR:2|DEPLOY:1|,FLOOR:2|,FLOOR:2|,FLOOR:2|,FLOOR:31|,FLOOR:31|,FLOOR:31|,FLOOR:31|,FLOOR:31|,FLOOR:31|,FLOOR:31|,FLOOR:31|,FLOOR:31|,FLOOR:2|,FLOOR:2|,FLOOR:2|,FLOOR:2|,FLOOR:2|,FLOOR:2|,FLOOR:2|,FLOOR:2|,FLOOR:2|RAISED_FLOOR:33|,FLOOR:2|,FLOOR:2|,FLOOR:2|,FLOOR:2|,FLOOR:2|,FLOOR:2|,FLOOR:2|,FLOOR:2|,FLOOR:2|,WALL:17|,FLOOR:2|,FLOOR:2|,FLOOR:2|,FLOOR:2|RAISED_FLOOR:22|,FLOOR:2|RAISED_FLOOR:35|,FLOOR:2|RAISED_FLOOR:35|,FLOOR:2|RAISED_FLOOR:35|,FLOOR:2|RAISED_FLOOR:35|,FLOOR:2|RAISED_FLOOR:35|,FLOOR:2|RAISED_FLOOR:35|,FLOOR:2|RAISED_FLOOR:35|,FLOOR:2|RAISED_FLOOR:35|,FLOOR:2|RAISED_FLOOR:35|,FLOOR:2|RAISED_FLOOR:35|,FLOOR:2|RAISED_FLOOR:35|,FLOOR:31|RAISED_FLOOR:35|,FLOOR:31|RAISED_FLOOR:35|,FLOOR:31|RAISED_FLOOR:35|,FLOOR:31|RAISED_FLOOR:35|,FLOOR:31|RAISED_FLOOR:35|,FLOOR:31|RAISED_FLOOR:35|,FLOOR:2|RAISED_FLOOR:35|,FLOOR:2|RAISED_FLOOR:35|,FLOOR:2|RAISED_FLOOR:35|,FLOOR:2|RAISED_FLOOR:35|DEPLOY:1|,FLOOR:2|RAISED_FLOOR:35|DEPLOY:1|,FLOOR:2|RAISED_FLOOR:35|,
FLOOR:2|,FLOOR:2|DEPLOY:1|,FLOOR:2|DEPLOY:1|,FLOOR:2|,FLOOR:2|,FLOOR:2|,FLOOR:2|,FLOOR:2|,FLOOR:2|,FLOOR:2|,FLOOR:2|,FLOOR:2|,FLOOR:2|,FLOOR:2|,FLOOR:2|,FLOOR:2|,FLOOR:2|,FLOOR:2|,WALL:17|,FLOOR:2|,FLOOR:2|,FLOOR:2|,FLOOR:2|,FLOOR:2|RAISED_FLOOR:33|,FLOOR:2|,FLOOR:2|,FLOOR:2|,FLOOR:2|,FLOOR:2|,FLOOR:2|,FLOOR:2|,FLOOR:2|,FLOOR:2|,FLOOR:2|,FLOOR:2|,FLOOR:2|,FLOOR:2|,FLOOR:2|RAISED_FLOOR:33|,FLOOR:2|,FLOOR:2|,FLOOR:2|,FLOOR:2|,FLOOR:2|,FLOOR:2|,FLOOR:2|,FLOOR:2|,FLOOR:2|,FLOOR:2|,FLOOR:2|,FLOOR:31|,FLOOR:31|,FLOOR:31|,FLOOR:63|,FLOOR:31|,FLOOR:31|,FLOOR:2|,FLOOR:2|,FLOOR:2|,FLOOR:2|DEPLOY:1|,FLOOR:2|DEPLOY:1|,FLOOR:2|,
FLOOR:2|,FLOOR:2|DEPLOY:1|,FLOOR:2|DEPLOY:1|,FLOOR:2|,FLOOR:2|,FLOOR:2|,FLOOR:2|,FLOOR:2|,FLOOR:2|,FLOOR:2|,FLOOR:2|,FLOOR:2|,FLOOR:2|,FLOOR:2|,FLOOR:2|,FLOOR:2|,FLOOR:2|,FLOOR:2|,FLOOR:2|,FLOOR:2|,FLOOR:2|,FLOOR:2|,FLOOR:2|,FLOOR:2|RAISED_FLOOR:27|,FLOOR:2|RAISED_FLOOR:35|,FLOOR:2|RAISED_FLOOR:35|,FLOOR:2|RAISED_FLOOR:35|,FLOOR:2|RAISED_FLOOR:35|,FLOOR:2|RAISED_FLOOR:35|,FLOOR:2|RAISED_FLOOR:35|,FLOOR:2|RAISED_FLOOR:35|,FLOOR:2|RAISED_FLOOR:35|,FLOOR:2|RAISED_FLOOR:35|,FLOOR:2|RAISED_FLOOR:35|,FLOOR:2|RAISED_FLOOR:35|,FLOOR:2|RAISED_FLOOR:35|,FLOOR:2|RAISED_FLOOR:35|,FLOOR:2|RAISED_FLOOR:23|,FLOOR:2|,FLOOR:2|,WALL:17|,FLOOR:2|,FLOOR:2|,FLOOR:2|,FLOOR:2|,FLOOR:2|,FLOOR:2|,FLOOR:2|,FLOOR:2|,FLOOR:31|,FLOOR:31|,FLOOR:31|,FLOOR:63|,FLOOR:31|,FLOOR:31|,FLOOR:2|,FLOOR:2|,FLOOR:2|,FLOOR:2|DEPLOY:1|,FLOOR:2|DEPLOY:1|,FLOOR:2|,
FLOOR:2|,FLOOR:2|DEPLOY:1|,FLOOR:2|DEPLOY:1|,FLOOR:2|,FLOOR:2|,FLOOR:2|,FLOOR:2|,FLOOR:2|,FLOOR:2|,FLOOR:2|,FLOOR:2|,WALL:17|,FLOOR:2|,FLOOR:2|,FLOOR:2|,FLOOR:2|,FLOOR:2|,FLOOR:2|,FLOOR:2|,FLOOR:2|,FLOOR:2|,FLOOR:2|,FLOOR:2|,FLOOR:2|,FLOOR:2|,FLOOR:2|,FLOOR:2|,FLOOR:2|,FLOOR:2|,FLOOR:2|,FLOOR:2|,FLOOR:2|,FLOOR:2|,FLOOR:2|,FLOOR:2|,FLOOR:2|,FLOOR:2|,FLOOR:2|,FLOOR:2|,FLOOR:2|,FLOOR:2|,FLOOR:2|,FLOOR:2|,FLOOR:2|,FLOOR:2|,FLOOR:2|,FLOOR:2|,WALL:17|,FLOOR:2|,FLOOR:31|,FLOOR:31|,FLOOR:31|,FLOOR:31|,FLOOR:31|,FLOOR:31|,FLOOR:2|,FLOOR:2|,FLOOR:2|,FLOOR:2|DEPLOY:1|,FLOOR:2|DEPLOY:1|,FLOOR:2|,
FLOOR:2|,FLOOR:2|DEPLOY:1|,FLOOR:2|DEPLOY:1|,FLOOR:2|,FLOOR:2|,FLOOR:2|,FLOOR:2|,FLOOR:2|,FLOOR:2|,FLOOR:2|,FLOOR:2|,FLOOR:2|,FLOOR:2|,FLOOR:2|,FLOOR:2|,FLOOR:2|,FLOOR:2|,FLOOR:2|,FLOOR:2|,FLOOR:2|,FLOOR:2|,FLOOR:2|,FLOOR:2|,WALL:17|,WALL:17|SCENERY:44:0|,WALL:17|,FLOOR:4|DOOR:2|,WALL:17|,WALL:17|SCENERY:29:0|,WALL:17|,WALL:17|,WALL:17|,FLOOR:2|,FLOOR:2|,FLOOR:2|,FLOOR:2|,FLOOR:2|,FLOOR:2|,FLOOR:2|,FLOOR:2|,FLOOR:2|,FLOOR:2|,FLOOR:2|,FLOOR:2|,FLOOR:2|,FLOOR:2|,FLOOR:2|,FLOOR:2|,FLOOR:2|,FLOOR:31|,FLOOR:31|,FLOOR:31|,FLOOR:31|,FLOOR:31|,FLOOR:31|,FLOOR:2|,FLOOR:2|,FLOOR:2|,FLOOR:2|DEPLOY:1|,FLOOR:2|DEPLOY:1|,FLOOR:2|,
FLOOR:2|,FLOOR:2|DEPLOY:1|,FLOOR:2|DEPLOY:1|,FLOOR:2|,FLOOR:2|,FLOOR:2|,FLOOR:2|,FLOOR:2|,FLOOR:2|,FLOOR:2|,FLOOR:2|,FLOOR:2|,FLOOR:2|,FLOOR:2|,FLOOR:2|,FLOOR:2|,FLOOR:2|,FLOOR:2|,FLOOR:2|,FLOOR:2|,FLOOR:2|,FLOOR:2|,FLOOR:2|SCENERY:37:0|,WALL:17|,FLOOR:4|DEPLOY:2|SCENERY:34:0|,FLOOR:4|DEPLOY:2|,FLOOR:4|DEPLOY:2|,FLOOR:4|DEPLOY:2|,FLOOR:4|DEPLOY:2|,WALL:17|,FLOOR:4|DEPLOY:2|SCENERY:5:1|,WALL:17|,FLOOR:2|,FLOOR:2|,FLOOR:2|,FLOOR:2|,FLOOR:2|,FLOOR:2|,FLOOR:2|,FLOOR:2|,FLOOR:2|,FLOOR:2|,FLOOR:2|,FLOOR:2|,FLOOR:2|,FLOOR:2|,FLOOR:2|,FLOOR:2|,FLOOR:2|,FLOOR:31|,FLOOR:31|,FLOOR:31|,FLOOR:63|,FLOOR:31|,FLOOR:31|,FLOOR:2|,FLOOR:2|,FLOOR:2|,FLOOR:2|DEPLOY:1|,FLOOR:2|DEPLOY:1|,FLOOR:2|,
FLOOR:2|,FLOOR:2|DEPLOY:1|,FLOOR:2|DEPLOY:1|,FLOOR:2|,FLOOR:2|,FLOOR:2|,FLOOR:2|,FLOOR:2|,FLOOR:2|,FLOOR:2|,FLOOR:2|,FLOOR:2|,FLOOR:2|,FLOOR:2|,FLOOR:2|,FLOOR:2|,FLOOR:2|,FLOOR:2|,FLOOR:2|,FLOOR:2|,FLOOR:2|,FLOOR:2|,FLOOR:2|,WALL:17|,FLOOR:4|DEPLOY:2|,FLOOR:4|DEPLOY:2|,FLOOR:4|DEPLOY:2|,FLOOR:4|DEPLOY:2|,FLOOR:4|DEPLOY:2|,FLOOR:4|DOOR:1|,FLOOR:4|DEPLOY:2|SCENERY:20:0|,WALL:17|,FLOOR:2|,FLOOR:2|,FLOOR:2|,FLOOR:2|,FLOOR:2|,FLOOR:2|,FLOOR:2|,FLOOR:2|,FLOOR:2|,FLOOR:2|,FLOOR:2|,FLOOR:2|,FLOOR:2|,FLOOR:2|,FLOOR:2|,FLOOR:2|,FLOOR:2|,FLOOR:31|,FLOOR:31|,FLOOR:31|,FLOOR:63|,FLOOR:31|,FLOOR:31|,FLOOR:2|,FLOOR:2|,FLOOR:2|,FLOOR:2|DEPLOY:1|,FLOOR:2|DEPLOY:1|,FLOOR:2|,
FLOOR:2|,FLOOR:2|DEPLOY:1|,FLOOR:2|DEPLOY:1|,FLOOR:2|,FLOOR:2|,FLOOR:2|,FLOOR:2|,FLOOR:2|,FLOOR:2|,FLOOR:2|,FLOOR:2|,FLOOR:2|,FLOOR:2|,FLOOR:2|,FLOOR:2|,FLOOR:2|,FLOOR:2|,FLOOR:2|,FLOOR:2|,FLOOR:2|,FLOOR:2|,FLOOR:2|,FLOOR:2|,WALL:17|,FLOOR:4|DEPLOY:2|,FLOOR:4|DEPLOY:2|,FLOOR:4|DEPLOY:2|,FLOOR:4|DEPLOY:2|,FLOOR:4|DEPLOY:2|,WALL:17|,WALL:17|,WALL:17|,WALL:17|SCENERY:44:0|,FLOOR:4|DOOR:2|,WALL:17|,WALL:17|,WALL:17|,FLOOR:2|,FLOOR:2|,FLOOR:2|,FLOOR:2|,FLOOR:2|,FLOOR:2|,FLOOR:2|,FLOOR:2|,FLOOR:2|,FLOOR:2|,FLOOR:2|,FLOOR:2|,FLOOR:31|,FLOOR:31|,FLOOR:31|,FLOOR:31|,FLOOR:31|,FLOOR:31|,FLOOR:2|,FLOOR:2|,FLOOR:2|,FLOOR:2|DEPLOY:1|,FLOOR:2|DEPLOY:1|,FLOOR:2|,
FLOOR:2|,FLOOR:2|DEPLOY:1|,FLOOR:2|DEPLOY:1|,FLOOR:2|,FLOOR:2|,FLOOR:2|,FLOOR:2|,FLOOR:2|,FLOOR:2|,FLOOR:2|,FLOOR:2|,FLOOR:2|,FLOOR:2|,FLOOR:2|,FLOOR:2|,FLOOR:2|,FLOOR:2|,WALL:17|,FLOOR:2|,FLOOR:2|,FLOOR:2|,FLOOR:2|,FLOOR:2|,FLOOR:4|DOOR:1|,FLOOR:4|DEPLOY:2|,FLOOR:4|DEPLOY:2|,FLOOR:59|DEPLOY:2|,FLOOR:4|DEPLOY:2|SCENERY:21:0|,FLOOR:4|DEPLOY:2|,WALL:17|,FLOOR:4|DEPLOY:2|SCENERY:1:0|,FLOOR:4|DEPLOY:2|,FLOOR:4|DEPLOY:2|,FLOOR:4|DEPLOY:2|,FLOOR:4|DEPLOY:2|,FLOOR:4|DEPLOY:2|SCENERY:41:0|,WALL:17|,FLOOR:2|SCENERY:36:0|,FLOOR:2|,FLOOR:2|,FLOOR:2|,FLOOR:2|,FLOOR:2|,FLOOR:2|,FLOOR:2|,FLOOR:2|,FLOOR:2|,FLOOR:2|,FLOOR:2|,FLOOR:31|,FLOOR:31|,FLOOR:31|,FLOOR:31|,FLOOR:31|,FLOOR:31|,FLOOR:2|,FLOOR:2|,FLOOR:2|,FLOOR:2|DEPLOY:1|,FLOOR:2|DEPLOY:1|,FLOOR:2|,
FLOOR:2|,FLOOR:2|DEPLOY:1|,FLOOR:2|DEPLOY:1|,FLOOR:2|,FLOOR:2|,FLOOR:2|,FLOOR:2|,FLOOR:2|,FLOOR:2|,FLOOR:2|,FLOOR:2|,FLOOR:2|,FLOOR:2|,FLOOR:2|,FLOOR:2|,FLOOR:2|,FLOOR:2|,FLOOR:2|,FLOOR:2|,FLOOR:2|,FLOOR:2|,FLOOR:2|,FLOOR:2|,WALL:17|,FLOOR:4|DEPLOY:2|,FLOOR:4|DEPLOY:2|,FLOOR:4|DEPLOY:2|,FLOOR:4|DEPLOY:2|,FLOOR:4|DEPLOY:2|,WALL:17|,FLOOR:4|DEPLOY:2|,FLOOR:4|DEPLOY:2|,FLOOR:4|DEPLOY:2|,FLOOR:4|DEPLOY:2|,FLOOR:4|DEPLOY:2|,FLOOR:4|DEPLOY:2|SCENERY:27:0|,WALL:17|,FLOOR:2|,FLOOR:2|,FLOOR:2|,FLOOR:2|,FLOOR:2|,WALL:17|,FLOOR:2|,FLOOR:2|,FLOOR:2|,FLOOR:2|,FLOOR:2|,FLOOR:2|,FLOOR:31|,FLOOR:31|,FLOOR:31|,FLOOR:63|,FLOOR:31|,FLOOR:31|,FLOOR:2|,FLOOR:2|,FLOOR:2|,FLOOR:2|DEPLOY:1|,FLOOR:2|DEPLOY:1|,FLOOR:2|,
FLOOR:2|,FLOOR:2|DEPLOY:1|,FLOOR:2|DEPLOY:1|,FLOOR:2|,FLOOR:2|,FLOOR:2|,FLOOR:2|,FLOOR:2|,FLOOR:2|,FLOOR:2|,FLOOR:2|,FLOOR:2|,FLOOR:2|,FLOOR:2|,FLOOR:2|,FLOOR:2|,FLOOR:2|,FLOOR:2|,FLOOR:2|,FLOOR:2|,FLOOR:2|,FLOOR:2|,FLOOR:2|,WALL:17|,FLOOR:4|DEPLOY:2|,FLOOR:4|DEPLOY:2|,FLOOR:4|DEPLOY:2|,FLOOR:4|DEPLOY:2|,FLOOR:4|DEPLOY:2|,WALL:17|,FLOOR:4|DEPLOY:2|,FLOOR:4|DEPLOY:2|,FLOOR:4|DEPLOY:2|,FLOOR:4|DEPLOY:2|,FLOOR:4|DEPLOY:2|,FLOOR:4|DEPLOY:2|,WALL:17|,FLOOR:2|,FLOOR:2|,FLOOR:2|,FLOOR:2|,FLOOR:2|,FLOOR:2|,FLOOR:2|,FLOOR:2|,FLOOR:2|,FLOOR:2|,FLOOR:2|,FLOOR:2|,FLOOR:31|,FLOOR:31|,FLOOR:31|,FLOOR:63|,FLOOR:31|,FLOOR:31|,FLOOR:2|,FLOOR:2|,FLOOR:2|,FLOOR:2|DEPLOY:1|,FLOOR:2|DEPLOY:1|,FLOOR:2|,
FLOOR:2|,FLOOR:2|DEPLOY:1|,FLOOR:2|DEPLOY:1|,FLOOR:2|,FLOOR:2|,FLOOR:2|,FLOOR:2|,FLOOR:2|,FLOOR:2|,WALL:17|,FLOOR:2|,FLOOR:2|,FLOOR:2|,FLOOR:2|,FLOOR:2|,FLOOR:2|,FLOOR:2|,FLOOR:2|,FLOOR:2|,FLOOR:2|,FLOOR:2|,FLOOR:2|,FLOOR:2|,WALL:17|,FLOOR:4|DEPLOY:2|,FLOOR:4|DEPLOY:2|,FLOOR:4|DEPLOY:2|,FLOOR:4|DEPLOY:2|,FLOOR:4|DEPLOY:2|,WALL:17|,FLOOR:4|DEPLOY:2|,FLOOR:4|DEPLOY:2|,FLOOR:4|DEPLOY:2|,FLOOR:4|DEPLOY:2|,FLOOR:4|DEPLOY:2|,FLOOR:4|DEPLOY:2|,FLOOR:4|DOOR:1|,FLOOR:2|,FLOOR:2|,FLOOR:2|,FLOOR:2|,FLOOR:2|,FLOOR:2|,FLOOR:2|,FLOOR:2|,FLOOR:2|,FLOOR:2|,FLOOR:2|,FLOOR:2|,FLOOR:31|,FLOOR:31|,FLOOR:31|,FLOOR:31|,FLOOR:31|,FLOOR:31|,FLOOR:2|,FLOOR:2|,FLOOR:2|,FLOOR:2|DEPLOY:1|,FLOOR:2|DEPLOY:1|,FLOOR:2|,
FLOOR:2|,FLOOR:2|DEPLOY:1|,FLOOR:2|DEPLOY:1|,FLOOR:2|,FLOOR:2|,FLOOR:2|,FLOOR:2|,FLOOR:2|,FLOOR:2|,FLOOR:2|,FLOOR:2|,FLOOR:2|,FLOOR:2|,FLOOR:2|,FLOOR:2|,FLOOR:2|,FLOOR:2|,FLOOR:2|,FLOOR:2|,FLOOR:2|,FLOOR:2|,FLOOR:2|,FLOOR:2|,WALL:17|,FLOOR:4|DEPLOY:2|SCENERY:33:0|,FLOOR:4|DEPLOY:2|,FLOOR:4|DEPLOY:2|,FLOOR:4|DEPLOY:2|,FLOOR:4|DEPLOY:2|SCENERY:4:2|,WALL:17|,FLOOR:4|DEPLOY:2|,FLOOR:4|DEPLOY:2|,FLOOR:4|DEPLOY:2|,FLOOR:4|DEPLOY:2|,FLOOR:4|DEPLOY:2|,FLOOR:4|DEPLOY:2|,WALL:17|,FLOOR:2|,FLOOR:2|,FLOOR:2|,FLOOR:2|,FLOOR:2|,FLOOR:2|,FLOOR:2|,FLOOR:2|,FLOOR:2|,FLOOR:2|,FLOOR:2|,FLOOR:2|,FLOOR:31|,FLOOR:31|,FLOOR:31|,FLOOR:31|,FLOOR:31|,FLOOR:31|,FLOOR:2|,FLOOR:2|,FLOOR:2|,FLOOR:2|DEPLOY:1|,FLOOR:2|DEPLOY:1|,FLOOR:2|,
FLOOR:2|,FLOOR:2|DEPLOY:1|,FLOOR:2|DEPLOY:1|,FLOOR:2|,FLOOR:2|,FLOOR:2|,FLOOR:2|,FLOOR:2|,FLOOR:2|,FLOOR:2|,FLOOR:2|,FLOOR:2|,FLOOR:2|,FLOOR:2|,FLOOR:2|,FLOOR:2|,FLOOR:2|,FLOOR:2|,FLOOR:2|,FLOOR:2|,FLOOR:2|,FLOOR:2|,FLOOR:2|,WALL:17|,WALL:17|,FLOOR:4|DOOR:2|,WALL:17|,WALL:17|,WALL:17|,WALL:17|,FLOOR:4|DOOR:2|,WALL:17|,FLOOR:4|DEPLOY:2|,FLOOR:4|DEPLOY:2|,FLOOR:4|DEPLOY:2|,FLOOR:4|DEPLOY:2|,WALL:17|,FLOOR:2|,FLOOR:2|,FLOOR:2|,FLOOR:2|,FLOOR:2|,FLOOR:2|,FLOOR:2|,FLOOR:2|,FLOOR:2|,FLOOR:2|,FLOOR:2|,WALL:17|,FLOOR:31|,FLOOR:31|,FLOOR:31|,FLOOR:63|,FLOOR:31|,FLOOR:31|,FLOOR:2|,FLOOR:2|,FLOOR:2|,FLOOR:2|DEPLOY:1|,FLOOR:2|DEPLOY:1|,FLOOR:2|,
FLOOR:2|,FLOOR:2|DEPLOY:1|,FLOOR:2|DEPLOY:1|,FLOOR:2|,FLOOR:2|,FLOOR:2|,FLOOR:2|,FLOOR:2|,FLOOR:2|,FLOOR:2|,FLOOR:2|,FLOOR:2|,FLOOR:2|,FLOOR:2|,FLOOR:2|,FLOOR:2|,FLOOR:2|,FLOOR:2|,FLOOR:2|,FLOOR:2|,FLOOR:2|,FLOOR:2|,FLOOR:2|,WALL:17|,FLOOR:4|DEPLOY:2|,FLOOR:4|DEPLOY:2|,FLOOR:4|DEPLOY:2|,WALL:17|,COMP:62|OWNER:2|,FLOOR:62|SCENERY:8:0|,FLOOR:62|,WALL:17|,FLOOR:4|DEPLOY:2|,FLOOR:4|DEPLOY:2|,FLOOR:4|DEPLOY:2|,FLOOR:4|DEPLOY:2|SCENERY:7:1|,WALL:17|,FLOOR:2|,FLOOR:2|,FLOOR:2|,FLOOR:2|,FLOOR:2|,FLOOR:2|,FLOOR:2|,FLOOR:2|,FLOOR:2|,FLOOR:2|,FLOOR:2|,FLOOR:2|,FLOOR:31|,FLOOR:31|,FLOOR:31|,FLOOR:63|,FLOOR:31|,FLOOR:31|,FLOOR:2|,FLOOR:2|,FLOOR:2|,FLOOR:2|DEPLOY:1|,FLOOR:2|DEPLOY:1|,FLOOR:2|,
FLOOR:2|,FLOOR:2|DEPLOY:1|,FLOOR:2|DEPLOY:1|,FLOOR:2|,FLOOR:2|,FLOOR:2|,FLOOR:2|,FLOOR:2|,FLOOR:2|,FLOOR:2|,FLOOR:2|,FLOOR:2|,FLOOR:2|,FLOOR:2|,FLOOR:2|,FLOOR:2|,FLOOR:2|,FLOOR:2|,FLOOR:2|,FLOOR:2|,FLOOR:2|,FLOOR:2|,WALL:17|,WALL:17|,WALL:17|,FLOOR:4|DOOR:2|,WALL:17|,WALL:17|,FLOOR:62|SCENERY:6:0|,FLOOR:62|SCENERY:35:0|,FLOOR:62|SCENERY:27:0|,WALL:17|,FLOOR:4|DEPLOY:2|,FLOOR:4|DEPLOY:2|,FLOOR:4|DEPLOY:2|,FLOOR:4|DEPLOY:2|,WALL:17|,FLOOR:2|,FLOOR:2|,FLOOR:2|,FLOOR:2|,FLOOR:2|,FLOOR:2|,FLOOR:2|,FLOOR:2|,FLOOR:2|,FLOOR:2|,FLOOR:2|,FLOOR:2|,FLOOR:31|,FLOOR:31|,FLOOR:31|,FLOOR:31|,FLOOR:31|,FLOOR:31|,FLOOR:2|,FLOOR:2|,FLOOR:2|,FLOOR:2|DEPLOY:1|,FLOOR:2|DEPLOY:1|,FLOOR:2|,
FLOOR:2|,FLOOR:2|DEPLOY:1|,FLOOR:2|DEPLOY:1|,FLOOR:2|,FLOOR:2|,FLOOR:2|,FLOOR:2|,FLOOR:2|,FLOOR:2|,FLOOR:2|,FLOOR:2|,FLOOR:2|,FLOOR:2|,FLOOR:2|,FLOOR:2|,FLOOR:2|,WALL:17|,FLOOR:2|,FLOOR:2|,FLOOR:2|,FLOOR:2|,FLOOR:2|,WALL:17|,FLOOR:4|DEPLOY:2|SCENERY:26:0|,FLOOR:4|DEPLOY:2|,FLOOR:4|DEPLOY:2|,FLOOR:4|DEPLOY:2|,WALL:17|,FLOOR:62|,FLOOR:62|SCENERY:8:0|,FLOOR:62|SCENERY:6:2|,WALL:17|,WALL:17|SCENERY:29:0|,FLOOR:4|DOOR:2|,WALL:17|,WALL:17|SCENERY:31:0|,WALL:17|SCENERY:31:0|,FLOOR:2|,FLOOR:2|,FLOOR:2|,FLOOR:2|,FLOOR:2|,WALL:17|,FLOOR:2|,FLOOR:2|,FLOOR:2|,FLOOR:2|,FLOOR:2|,FLOOR:2|,FLOOR:31|,FLOOR:31|,FLOOR:31|,FLOOR:31|,FLOOR:31|,FLOOR:31|,FLOOR:2|,FLOOR:2|,FLOOR:2|,FLOOR:2|DEPLOY:1|,FLOOR:2|DEPLOY:1|,FLOOR:2|,
FLOOR:2|,FLOOR:2|DEPLOY:1|,FLOOR:2|DEPLOY:1|,FLOOR:2|,FLOOR:2|,FLOOR:2|,FLOOR:2|,FLOOR:2|,FLOOR:2|,FLOOR:2|,FLOOR:2|,FLOOR:2|,FLOOR:2|,FLOOR:2|,FLOOR:2|,FLOOR:2|,FLOOR:2|,FLOOR:2|,FLOOR:2|,FLOOR:2|,FLOOR:2|,FLOOR:2|SCENERY:37:0|,WALL:17|,FLOOR:4|DEPLOY:2|SCENERY:26:0|,FLOOR:4|DEPLOY:2|,FLOOR:4|DEPLOY:2|,FLOOR:4|DEPLOY:2|,WALL:17|SCENERY:45:0|,FLOOR:4|DOOR:2|,WALL:17|,WALL:17|,WALL:17|SCENERY:45:0|,FLOOR:4|,FLOOR:4|,WALL:17|,FLOOR:2|,FLOOR:2|,FLOOR:2|,FLOOR:2|,FLOOR:2|,FLOOR:2|,FLOOR:2|,FLOOR:2|,FLOOR:2|,FLOOR:2|,FLOOR:2|,FLOOR:2|,FLOOR:2|,FLOOR:2|,FLOOR:31|,FLOOR:31|,FLOOR:31|,FLOOR:63|,FLOOR:31|,FLOOR:31|,FLOOR:2|,FLOOR:2|,FLOOR:2|,FLOOR:2|DEPLOY:1|,FLOOR:2|DEPLOY:1|,FLOOR:2|,
FLOOR:2|,FLOOR:2|DEPLOY:1|,FLOOR:2|DEPLOY:1|,FLOOR:2|,FLOOR:2|,FLOOR:2|,FLOOR:2|,FLOOR:2|,FLOOR:2|,FLOOR:2|,FLOOR:2|,FLOOR:2|,FLOOR:2|,FLOOR:2|,FLOOR:2|,FLOOR:2|,FLOOR:2|,FLOOR:2|,FLOOR:2|,FLOOR:2|,FLOOR:2|,FLOOR:2|,WALL:17|,FLOOR:4|DEPLOY:2|SCENERY:26:0|,FLOOR:4|DEPLOY:2|,FLOOR:4|DEPLOY:2|,FLOOR:4|DEPLOY:2|,FLOOR:4|DEPLOY:2|,FLOOR:4|DEPLOY:2|,WALL:17|,FLOOR:4|DEPLOY:2|SCENERY:24:0|,FLOOR:4|DEPLOY:2|,FLOOR:4|DEPLOY:2|,FLOOR:4|DEPLOY:2|,WALL:17|,FLOOR:2|,FLOOR:2|,FLOOR:2|,FLOOR:2|,FLOOR:2|,FLOOR:2|,FLOOR:2|,FLOOR:2|,FLOOR:2|,FLOOR:2|,FLOOR:2|,FLOOR:2|,FLOOR:2|,FLOOR:2|,FLOOR:31|,FLOOR:31|,FLOOR:31|,FLOOR:63|,FLOOR:31|,FLOOR:31|,FLOOR:2|,FLOOR:2|,FLOOR:2|,FLOOR:2|DEPLOY:1|,FLOOR:2|DEPLOY:1|,FLOOR:2|,
FLOOR:2|,FLOOR:2|DEPLOY:1|,FLOOR:2|DEPLOY:1|,FLOOR:2|,FLOOR:2|,FLOOR:2|,FLOOR:2|,FLOOR:2|,FLOOR:2|,FLOOR:2|,FLOOR:2|,FLOOR:2|,FLOOR:2|,FLOOR:2|,FLOOR:2|,FLOOR:2|,FLOOR:2|,FLOOR:2|,FLOOR:2|,FLOOR:2|,FLOOR:2|,FLOOR:2|,WALL:17|,FLOOR:4|DEPLOY:2|,FLOOR:4|DEPLOY:2|,FLOOR:4|DEPLOY:2|,FLOOR:4|DEPLOY:2|,FLOOR:4|DEPLOY:2|,FLOOR:4|DEPLOY:2|,WALL:17|,FLOOR:4|DEPLOY:2|,FLOOR:4|DEPLOY:2|,FLOOR:4|DEPLOY:2|,FLOOR:4|DEPLOY:2|,WALL:17|,FLOOR:2|,FLOOR:2|,FLOOR:2|,FLOOR:2|,FLOOR:2|,FLOOR:2|,FLOOR:2|,FLOOR:2|,FLOOR:2|,FLOOR:2|,FLOOR:2|,FLOOR:2|,FLOOR:2|,FLOOR:2|,FLOOR:31|,FLOOR:31|,FLOOR:31|,FLOOR:31|,FLOOR:31|,FLOOR:31|,FLOOR:2|,FLOOR:2|,FLOOR:2|,FLOOR:2|DEPLOY:1|,FLOOR:2|DEPLOY:1|,FLOOR:2|,
FLOOR:2|,FLOOR:2|DEPLOY:1|,FLOOR:2|DEPLOY:1|,FLOOR:2|,FLOOR:2|,FLOOR:2|,FLOOR:2|,FLOOR:2|,FLOOR:2|,WALL:17|,FLOOR:2|,FLOOR:2|,FLOOR:2|,FLOOR:2|,FLOOR:2|,FLOOR:2|,FLOOR:2|,FLOOR:2|,FLOOR:2|,FLOOR:2|,FLOOR:2|,FLOOR:2|,FLOOR:4|DOOR:1|,FLOOR:4|DEPLOY:2|,FLOOR:4|DEPLOY:2|,FLOOR:4|DEPLOY:2|,FLOOR:4|DEPLOY:2|,FLOOR:4|DEPLOY:2|,FLOOR:4|DEPLOY:2|,WALL:17|,FLOOR:4|DEPLOY:2|SCENERY:7:3|,FLOOR:4|DEPLOY:2|,FLOOR:4|DEPLOY:2|,FLOOR:4|DEPLOY:2|,FLOOR:4|DOOR:1|,FLOOR:2|,FLOOR:2|,FLOOR:2|,FLOOR:2|,FLOOR:2|,FLOOR:2|,FLOOR:2|,FLOOR:2|,FLOOR:2|,FLOOR:2|,FLOOR:2|,FLOOR:2|,FLOOR:2|,FLOOR:2|,FLOOR:31|,FLOOR:31|,FLOOR:31|,FLOOR:31|,FLOOR:31|,FLOOR:31|,FLOOR:2|,FLOOR:2|,FLOOR:2|,FLOOR:2|DEPLOY:1|,FLOOR:2|DEPLOY:1|,FLOOR:2|,
FLOOR:2|,FLOOR:2|DEPLOY:1|,FLOOR:2|DEPLOY:1|,FLOOR:2|,FLOOR:2|,FLOOR:2|,FLOOR:2|,FLOOR:2|,FLOOR:2|,FLOOR:2|,FLOOR:2|,FLOOR:2|,FLOOR:2|,FLOOR:2|,FLOOR:2|,FLOOR:2|,FLOOR:2|,FLOOR:2|,FLOOR:2|,FLOOR:2|,FLOOR:2|,FLOOR:2|,WALL:17|,FLOOR:4|DEPLOY:2|,FLOOR:4|DEPLOY:2|,FLOOR:4|DEPLOY:2|,FLOOR:4|DEPLOY:2|,FLOOR:4|DEPLOY:2|,FLOOR:4|DEPLOY:2|,WALL:17|,FLOOR:4|DEPLOY:2|,FLOOR:4|DEPLOY:2|,FLOOR:4|DEPLOY:2|,FLOOR:4|DEPLOY:2|,WALL:17|,FLOOR:2|,FLOOR:2|,FLOOR:2|,FLOOR:2|,FLOOR:2|,FLOOR:2|,FLOOR:2|,FLOOR:2|,FLOOR:2|,FLOOR:2|,FLOOR:2|,FLOOR:2|,FLOOR:2|,FLOOR:2|,FLOOR:31|,FLOOR:31|,FLOOR:31|,FLOOR:63|,FLOOR:31|,FLOOR:31|,FLOOR:2|,FLOOR:2|,FLOOR:2|,FLOOR:2|DEPLOY:1|,FLOOR:2|DEPLOY:1|,FLOOR:2|,
FLOOR:2|,FLOOR:2|DEPLOY:1|,FLOOR:2|DEPLOY:1|,FLOOR:2|,FLOOR:2|,FLOOR:2|,FLOOR:2|,FLOOR:2|,FLOOR:2|,FLOOR:2|,FLOOR:2|,FLOOR:2|,FLOOR:2|,FLOOR:2|,FLOOR:2|,FLOOR:2|,FLOOR:2|,FLOOR:2|,FLOOR:2|,FLOOR:2|,FLOOR:2|,FLOOR:2|,WALL:17|,FLOOR:4|DEPLOY:2|,FLOOR:4|DEPLOY:2|,FLOOR:4|DEPLOY:2|,FLOOR:4|DEPLOY:2|,FLOOR:4|DEPLOY:2|,FLOOR:4|DEPLOY:2|SCENERY:2:0|,WALL:17|,FLOOR:4|DEPLOY:2|,FLOOR:4|DEPLOY:2|,FLOOR:4|DEPLOY:2|,FLOOR:4|DEPLOY:2|,WALL:17|,FLOOR:2|SCENERY:36:0|,FLOOR:2|,FLOOR:2|,FLOOR:2|,FLOOR:2|,WALL:17|,FLOOR:2|,FLOOR:2|,FLOOR:2|,FLOOR:2|,FLOOR:2|,FLOOR:2|,WALL:17|,FLOOR:2|,FLOOR:31|,FLOOR:31|,FLOOR:31|,FLOOR:63|,FLOOR:31|,FLOOR:31|,FLOOR:2|,FLOOR:2|,FLOOR:2|,FLOOR:2|DEPLOY:1|,FLOOR:2|DEPLOY:1|,FLOOR:2|,
FLOOR:2|,FLOOR:2|DEPLOY:1|,FLOOR:2|DEPLOY:1|,FLOOR:2|,FLOOR:2|,FLOOR:2|,FLOOR:2|,FLOOR:2|,FLOOR:2|,FLOOR:2|,FLOOR:2|,FLOOR:2|,FLOOR:2|,FLOOR:2|,FLOOR:2|,FLOOR:2|,WALL:17|,FLOOR:2|,FLOOR:2|,FLOOR:2|,FLOOR:2|,FLOOR:2|,WALL:17|,FLOOR:4|DEPLOY:2|,FLOOR:4|DEPLOY:2|,FLOOR:4|DEPLOY:2|,FLOOR:4|DEPLOY:2|,WALL:17|,WALL:17|,WALL:17|,FLOOR:4|DEPLOY:2|,FLOOR:4|DEPLOY:2|,FLOOR:4|DEPLOY:2|,FLOOR:4|DEPLOY:2|SCENERY:39:0|,WALL:17|,FLOOR:2|,FLOOR:2|,FLOOR:2|,FLOOR:2|,FLOOR:2|,FLOOR:2|,FLOOR:2|,FLOOR:2|,FLOOR:2|,FLOOR:2|,FLOOR:2|,FLOOR:2|,FLOOR:2|,FLOOR:2|,FLOOR:31|,FLOOR:31|,FLOOR:31|,FLOOR:31|,FLOOR:31|,FLOOR:31|,FLOOR:2|,FLOOR:2|,FLOOR:2|,FLOOR:2|DEPLOY:1|,FLOOR:2|DEPLOY:1|,FLOOR:2|,
FLOOR:2|,FLOOR:2|DEPLOY:1|,FLOOR:2|DEPLOY:1|,FLOOR:2|,FLOOR:2|,FLOOR:2|,FLOOR:2|,FLOOR:2|,FLOOR:2|,FLOOR:2|,FLOOR:2|,FLOOR:2|,FLOOR:2|,FLOOR:2|,FLOOR:2|,FLOOR:2|,FLOOR:2|,FLOOR:2|,FLOOR:2|,FLOOR:2|,FLOOR:2|,FLOOR:2|,WALL:17|,FLOOR:4|DEPLOY:2|SCENERY:40:0|,FLOOR:4|DEPLOY:2|,FLOOR:4|DEPLOY:2|,FLOOR:4|DEPLOY:2|,FLOOR:4|DOOR:1|,FLOOR:4|DEPLOY:2|SCENERY:3:0|,WALL:17|,WALL:17|SCENERY:31:0|,WALL:17|SCENERY:31:0|,FLOOR:4|DOOR:2|,WALL:17|SCENERY:31:0|,WALL:17|SCENERY:31:0|,FLOOR:2|,FLOOR:2|,FLOOR:2|,FLOOR:2|,FLOOR:2|,FLOOR:2|,FLOOR:2|,FLOOR:2|,FLOOR:2|,FLOOR:2|,FLOOR:2|,FLOOR:2|,FLOOR:2|,FLOOR:2|,FLOOR:31|,FLOOR:31|,FLOOR:31|,FLOOR:31|,FLOOR:31|,FLOOR:31|,FLOOR:2|,FLOOR:2|,FLOOR:2|,FLOOR:2|DEPLOY:1|,FLOOR:2|DEPLOY:1|,FLOOR:2|,
FLOOR:2|,FLOOR:2|DEPLOY:1|,FLOOR:2|DEPLOY:1|,FLOOR:2|,FLOOR:2|,FLOOR:2|,FLOOR:2|,FLOOR:2|,FLOOR:2|,FLOOR:2|,FLOOR:2|,FLOOR:2|,FLOOR:2|,FLOOR:2|,FLOOR:2|,FLOOR:2|,FLOOR:2|,FLOOR:2|,FLOOR:2|,FLOOR:2|,FLOOR:2|,FLOOR:2|,WALL:17|SCENERY:31:0|,WALL:17|SCENERY:31:0|,WALL:17|SCENERY:31:0|,FLOOR:4|DOOR:2|,WALL:17|SCENERY:31:0|,WALL:17|SCENERY:31:0|,WALL:17|SCENERY:31:0|,WALL:17|SCENERY:31:0|,FLOOR:2|,FLOOR:2|,FLOOR:2|,FLOOR:2|,FLOOR:2|,FLOOR:2|,FLOOR:2|,FLOOR:2|,FLOOR:2|,FLOOR:2|,FLOOR:2|,FLOOR:2|,FLOOR:2|,FLOOR:2|,FLOOR:2|,FLOOR:2|,FLOOR:2|,FLOOR:2|,FLOOR:2|,FLOOR:31|,FLOOR:31|,FLOOR:31|,FLOOR:63|,FLOOR:31|,FLOOR:31|,FLOOR:2|,FLOOR:2|,FLOOR:2|,FLOOR:2|DEPLOY:1|,FLOOR:2|DEPLOY:1|,FLOOR:2|,
FLOOR:2|,FLOOR:2|DEPLOY:1|,FLOOR:2|DEPLOY:1|,FLOOR:2|,FLOOR:2|,FLOOR:2|,FLOOR:2|,FLOOR:2|,FLOOR:2|,FLOOR:2|,FLOOR:2|,FLOOR:2|,FLOOR:2|,FLOOR:2|,FLOOR:2|,FLOOR:2|,FLOOR:2|,FLOOR:2|,FLOOR:2|,FLOOR:2|,FLOOR:2|,FLOOR:2|,FLOOR:2|,FLOOR:2|,FLOOR:2|,FLOOR:2|,FLOOR:2|,FLOOR:2|,FLOOR:2|,FLOOR:2|,FLOOR:2|,FLOOR:2|,FLOOR:2|,FLOOR:2|,FLOOR:2|,FLOOR:2|,FLOOR:2|,FLOOR:2|,FLOOR:2|,FLOOR:2|,FLOOR:2|,FLOOR:2|,FLOOR:2|,FLOOR:2|,FLOOR:2|,FLOOR:2|,FLOOR:2|,FLOOR:2|,FLOOR:2|,FLOOR:31|,FLOOR:31|,FLOOR:31|,FLOOR:63|,FLOOR:31|,FLOOR:31|,FLOOR:2|,FLOOR:2|,FLOOR:2|,FLOOR:2|DEPLOY:1|,FLOOR:2|DEPLOY:1|,FLOOR:2|,
FLOOR:2|,FLOOR:2|DEPLOY:1|,FLOOR:2|DEPLOY:1|,FLOOR:2|,FLOOR:2|,FLOOR:2|,FLOOR:2|,FLOOR:2|,FLOOR:2|,FLOOR:2|,FLOOR:2|,FLOOR:2|,FLOOR:2|,FLOOR:2|,FLOOR:2|,FLOOR:2|,FLOOR:2|,FLOOR:2|,FLOOR:2|,FLOOR:2|,FLOOR:2|,FLOOR:2|,FLOOR:2|,FLOOR:2|,FLOOR:2|,FLOOR:2|,FLOOR:2|,FLOOR:2|,FLOOR:2|,FLOOR:2|,FLOOR:2|,FLOOR:2|,FLOOR:2|,FLOOR:2|,FLOOR:2|,FLOOR:2|,FLOOR:2|,FLOOR:2|,FLOOR:2|,FLOOR:2|,FLOOR:2|,FLOOR:2|,FLOOR:2|,FLOOR:2|,FLOOR:2|,FLOOR:2|,FLOOR:2|,FLOOR:2|,FLOOR:2|,FLOOR:31|,FLOOR:31|,FLOOR:31|,FLOOR:31|,FLOOR:31|,FLOOR:31|,FLOOR:2|,FLOOR:2|,FLOOR:2|,FLOOR:2|DEPLOY:1|,FLOOR:2|DEPLOY:1|,FLOOR:2|,
FLOOR:2|,FLOOR:2|DEPLOY:1|,FLOOR:2|DEPLOY:1|,FLOOR:2|,FLOOR:2|,FLOOR:2|,FLOOR:2|,FLOOR:2|,FLOOR:2|,FLOOR:2|,FLOOR:2|,FLOOR:2|,FLOOR:2|,FLOOR:2|,FLOOR:2|,FLOOR:2|,FLOOR:2|,FLOOR:2|,FLOOR:2|,FLOOR:2|,FLOOR:2|,FLOOR:2|,FLOOR:2|,FLOOR:2|,FLOOR:2|,FLOOR:2|,FLOOR:2|,FLOOR:2|,FLOOR:2|,FLOOR:2|,FLOOR:2|,FLOOR:2|,FLOOR:2|,FLOOR:2|,FLOOR:2|,FLOOR:2|,FLOOR:2|,FLOOR:2|,FLOOR:2|,FLOOR:2|,FLOOR:2|,FLOOR:2|,FLOOR:2|,FLOOR:2|,FLOOR:2|,FLOOR:2|,FLOOR:2|,FLOOR:2|,FLOOR:2|,FLOOR:31|,FLOOR:31|,FLOOR:31|,FLOOR:31|,FLOOR:31|,FLOOR:31|,FLOOR:2|,FLOOR:2|,FLOOR:2|,FLOOR:2|DEPLOY:1|,FLOOR:2|DEPLOY:1|,FLOOR:2|,
FLOOR:2|,FLOOR:2|DEPLOY:1|,FLOOR:2|DEPLOY:1|,FLOOR:2|,FLOOR:2|,FLOOR:2|,FLOOR:2|,FLOOR:2|,FLOOR:2|,FLOOR:2|,FLOOR:2|,FLOOR:2|,WALL:17|,FLOOR:2|,FLOOR:2|,FLOOR:2|,FLOOR:2|,FLOOR:2|,FLOOR:2|,FLOOR:2|,FLOOR:2|,FLOOR:2|,FLOOR:2|,FLOOR:2|,FLOOR:2|,FLOOR:2|,FLOOR:2|,FLOOR:2|,FLOOR:2|,FLOOR:2|,FLOOR:2|,FLOOR:2|,FLOOR:2|,FLOOR:2|,FLOOR:2|,FLOOR:2|,FLOOR:2|,FLOOR:2|,WALL:17|,FLOOR:2|,FLOOR:2|,FLOOR:2|,FLOOR:2|,FLOOR:2|,WALL:17|,FLOOR:2|,FLOOR:2|,FLOOR:2|,FLOOR:2|,FLOOR:31|,FLOOR:31|,FLOOR:31|,FLOOR:63|,FLOOR:31|,FLOOR:31|,FLOOR:2|,FLOOR:2|,FLOOR:2|,FLOOR:2|DEPLOY:1|,FLOOR:2|DEPLOY:1|,FLOOR:2|,
FLOOR:2|,FLOOR:2|DEPLOY:1|,FLOOR:2|DEPLOY:1|,FLOOR:2|,FLOOR:2|,FLOOR:2|,FLOOR:2|,FLOOR:2|,FLOOR:2|,FLOOR:2|,FLOOR:2|,FLOOR:2|,FLOOR:2|,FLOOR:2|,FLOOR:2|,FLOOR:2|,FLOOR:2|,FLOOR:2|,WALL:17|,FLOOR:2|,FLOOR:2|,FLOOR:2|,FLOOR:2|,FLOOR:2|,FLOOR:2|,FLOOR:2|,FLOOR:2|,FLOOR:2|,FLOOR:2|,FLOOR:2|,FLOOR:2|,FLOOR:2|,FLOOR:2|,FLOOR:2|,FLOOR:2|,FLOOR:2|,FLOOR:2|,FLOOR:2|,FLOOR:2|,FLOOR:2|,FLOOR:2|,FLOOR:2|,FLOOR:2|,FLOOR:2|,FLOOR:2|,FLOOR:2|,FLOOR:2|,FLOOR:2|,FLOOR:2|,FLOOR:31|,FLOOR:31|,FLOOR:31|,FLOOR:63|,FLOOR:31|,FLOOR:31|,FLOOR:2|,FLOOR:2|,FLOOR:2|,FLOOR:2|DEPLOY:1|,FLOOR:2|DEPLOY:1|,FLOOR:2|,
FLOOR:2|,FLOOR:2|DEPLOY:1|,FLOOR:2|DEPLOY:1|,FLOOR:2|,FLOOR:2|,FLOOR:2|,FLOOR:2|,FLOOR:2|,FLOOR:2|,FLOOR:2|,FLOOR:2|,FLOOR:2|,FLOOR:2|,FLOOR:2|,FLOOR:2|,FLOOR:2|,FLOOR:2|,FLOOR:2|,FLOOR:2|,FLOOR:2|,FLOOR:2|,FLOOR:2|,FLOOR:2|,FLOOR:2|,FLOOR:2|,FLOOR:2|,FLOOR:2|,FLOOR:2|,FLOOR:2|,FLOOR:2|,FLOOR:2|,FLOOR:2|,WALL:17|,FLOOR:2|,FLOOR:2|,FLOOR:2|,FLOOR:2|,FLOOR:2|,FLOOR:2|,FLOOR:2|,FLOOR:2|,FLOOR:2|,FLOOR:2|,FLOOR:2|,FLOOR:2|,FLOOR:2|,FLOOR:2|,FLOOR:2|,FLOOR:2|,FLOOR:31|,FLOOR:31|,FLOOR:31|,FLOOR:31|,FLOOR:31|,FLOOR:31|,FLOOR:2|,FLOOR:2|,FLOOR:2|,FLOOR:2|DEPLOY:1|,FLOOR:2|DEPLOY:1|,FLOOR:2|,
FLOOR:2|,FLOOR:2|DEPLOY:1|,FLOOR:2|DEPLOY:1|,FLOOR:2|,FLOOR:2|,FLOOR:2|,FLOOR:2|,FLOOR:2|,FLOOR:2|,FLOOR:2|,FLOOR:2|,FLOOR:2|,FLOOR:2|,FLOOR:2|,FLOOR:2|,FLOOR:2|,FLOOR:2|,FLOOR:2|,FLOOR:2|,FLOOR:2|,FLOOR:2|,FLOOR:2|,FLOOR:2|,FLOOR:2|,FLOOR:2|,WALL:17|,FLOOR:2|,FLOOR:2|,FLOOR:2|,FLOOR:2|,FLOOR:2|,FLOOR:2|,FLOOR:2|,FLOOR:2|,FLOOR:2|,FLOOR:2|,FLOOR:2|,FLOOR:2|,FLOOR:2|,FLOOR:2|,FLOOR:2|,FLOOR:2|,FLOOR:2|,FLOOR:2|,FLOOR:2|,FLOOR:2|,FLOOR:2|,FLOOR:2|,FLOOR:2|,FLOOR:31|,FLOOR:31|,FLOOR:31|,FLOOR:31|,FLOOR:31|,FLOOR:31|,FLOOR:2|,FLOOR:2|,FLOOR:2|,FLOOR:2|DEPLOY:1|,FLOOR:2|DEPLOY:1|,FLOOR:2|,
FLOOR:2|,FLOOR:2|DEPLOY:1|,FLOOR:2|DEPLOY:1|,FLOOR:2|,FLOOR:2|,FLOOR:2|,FLOOR:2|,FLOOR:2|,FLOOR:2|,FLOOR:2|,FLOOR:2|,FLOOR:2|,FLOOR:2|,FLOOR:2|,FLOOR:2|,FLOOR:2|,FLOOR:2|,FLOOR:2|,FLOOR:2|,FLOOR:2|,FLOOR:2|,FLOOR:2|,FLOOR:2|,FLOOR:2|,FLOOR:2|,FLOOR:2|,FLOOR:2|,FLOOR:2|,FLOOR:2|,FLOOR:2|,FLOOR:2|,FLOOR:2|,FLOOR:2|,FLOOR:2|,FLOOR:2|,FLOOR:2|,FLOOR:2|,FLOOR:2|,FLOOR:2|,FLOOR:2|,FLOOR:2|,FLOOR:2|,FLOOR:2|,FLOOR:2|,FLOOR:2|,FLOOR:2|,FLOOR:2|,FLOOR:2|,FLOOR:2|,FLOOR:31|,FLOOR:31|,FLOOR:31|,FLOOR:63|,FLOOR:31|,FLOOR:31|,FLOOR:2|,FLOOR:2|,FLOOR:2|,FLOOR:2|DEPLOY:1|,FLOOR:2|DEPLOY:1|,FLOOR:2|,
FLOOR:2|,FLOOR:2|DEPLOY:1|,FLOOR:2|DEPLOY:1|,FLOOR:2|,FLOOR:2|,FLOOR:2|,FLOOR:2|,FLOOR:2|,FLOOR:2|,FLOOR:2|,FLOOR:2|,FLOOR:2|,FLOOR:2|,FLOOR:2|,FLOOR:2|,FLOOR:2|,FLOOR:2|,FLOOR:2|,FLOOR:2|,FLOOR:2|,FLOOR:2|,FLOOR:2|,FLOOR:2|,FLOOR:2|,FLOOR:2|,FLOOR:2|,FLOOR:2|,FLOOR:2|,FLOOR:2|,FLOOR:2|,FLOOR:2|,FLOOR:2|,FLOOR:2|,FLOOR:2|,FLOOR:2|,FLOOR:2|,FLOOR:2|,FLOOR:2|,FLOOR:2|,FLOOR:2|,FLOOR:2|,FLOOR:2|,FLOOR:2|,FLOOR:2|,FLOOR:2|,FLOOR:2|,FLOOR:2|,FLOOR:2|,FLOOR:2|,FLOOR:31|,FLOOR:31|,FLOOR:31|,FLOOR:63|,FLOOR:31|,FLOOR:31|,FLOOR:2|,FLOOR:2|,FLOOR:2|,FLOOR:2|DEPLOY:1|,FLOOR:2|DEPLOY:1|,FLOOR:2|,
FLOOR:2|,FLOOR:2|DEPLOY:1|,FLOOR:2|DEPLOY:1|,FLOOR:2|,FLOOR:2|,FLOOR:2|,FLOOR:2|,FLOOR:2|,FLOOR:2|,FLOOR:2|,FLOOR:2|,FLOOR:2|,FLOOR:2|,FLOOR:2|,FLOOR:2|,FLOOR:2|,FLOOR:2|,FLOOR:2|,FLOOR:2|,FLOOR:2|,FLOOR:2|,FLOOR:2|,FLOOR:2|,FLOOR:2|,FLOOR:2|,FLOOR:2|,FLOOR:2|,FLOOR:2|,FLOOR:2|,FLOOR:2|,FLOOR:2|,FLOOR:2|,FLOOR:2|,FLOOR:2|,FLOOR:2|,FLOOR:2|,FLOOR:2|,FLOOR:2|,FLOOR:2|,FLOOR:2|,FLOOR:2|,FLOOR:2|,FLOOR:2|,FLOOR:2|,FLOOR:2|,FLOOR:2|,FLOOR:2|,FLOOR:2|,FLOOR:2|,FLOOR:31|,FLOOR:31|,FLOOR:31|,FLOOR:31|,FLOOR:31|,FLOOR:31|,FLOOR:2|,FLOOR:2|,FLOOR:2|,FLOOR:2|DEPLOY:1|,FLOOR:2|DEPLOY:1|,FLOOR:2|,
FLOOR:2|,FLOOR:2|DEPLOY:1|,FLOOR:2|DEPLOY:1|,FLOOR:2|,FLOOR:2|,FLOOR:2|,FLOOR:2|,FLOOR:2|,FLOOR:2|,FLOOR:2|,FLOOR:2|,FLOOR:2|,FLOOR:2|,FLOOR:2|,FLOOR:2|,FLOOR:2|,FLOOR:2|,FLOOR:2|,FLOOR:2|,FLOOR:2|,FLOOR:2|,FLOOR:2|,FLOOR:2|,FLOOR:2|,FLOOR:2|,FLOOR:2|,FLOOR:2|,FLOOR:2|,FLOOR:2|,FLOOR:2|,FLOOR:2|,FLOOR:2|,FLOOR:2|,FLOOR:2|,FLOOR:2|,FLOOR:2|,FLOOR:2|,WALL:17|,FLOOR:2|,FLOOR:2|,FLOOR:2|,FLOOR:2|,FLOOR:2|,FLOOR:2|,FLOOR:2|,FLOOR:2|,FLOOR:2|,FLOOR:2|,FLOOR:2|,FLOOR:31|,FLOOR:31|,FLOOR:31|,FLOOR:31|,FLOOR:31|,FLOOR:31|,FLOOR:2|,FLOOR:2|,FLOOR:2|,FLOOR:2|DEPLOY:1|,FLOOR:2|DEPLOY:1|,FLOOR:2|,
FLOOR:2|,FLOOR:2|DEPLOY:1|,FLOOR:2|DEPLOY:1|,FLOOR:2|,FLOOR:2|,FLOOR:2|,FLOOR:2|,FLOOR:2|,FLOOR:2|,FLOOR:2|,FLOOR:2|,FLOOR:2|,FLOOR:2|,FLOOR:2|,FLOOR:2|,FLOOR:2|,FLOOR:2|,FLOOR:2|,FLOOR:2|,FLOOR:2|,WALL:17|,FLOOR:2|,FLOOR:2|,FLOOR:2|,FLOOR:2|,FLOOR:2|,FLOOR:2|,FLOOR:2|,FLOOR:2|,FLOOR:2|,FLOOR:2|,FLOOR:2|,FLOOR:2|,FLOOR:2|,FLOOR:2|,FLOOR:2|,FLOOR:2|,FLOOR:2|,FLOOR:2|,FLOOR:2|,FLOOR:2|,FLOOR:2|,FLOOR:2|,FLOOR:2|,FLOOR:2|,FLOOR:2|,FLOOR:2|,FLOOR:2|,FLOOR:2|,FLOOR:31|,FLOOR:31|,FLOOR:31|,FLOOR:63|,FLOOR:31|,FLOOR:31|,FLOOR:2|,FLOOR:2|,FLOOR:2|,FLOOR:2|DEPLOY:1|,FLOOR:2|DEPLOY:1|,FLOOR:2|,
FLOOR:2|,FLOOR:2|DEPLOY:1|,FLOOR:2|DEPLOY:1|,FLOOR:2|,FLOOR:2|,FLOOR:2|,FLOOR:2|,FLOOR:2|,FLOOR:2|,FLOOR:2|,FLOOR:2|,FLOOR:2|,FLOOR:2|,FLOOR:2|,FLOOR:2|,FLOOR:2|,FLOOR:2|,FLOOR:2|,FLOOR:2|,FLOOR:2|,FLOOR:2|,FLOOR:2|,FLOOR:2|,FLOOR:2|,FLOOR:2|,FLOOR:2|,FLOOR:2|,FLOOR:2|,FLOOR:2|,WALL:17|,FLOOR:2|,FLOOR:2|,FLOOR:2|,FLOOR:2|,FLOOR:2|,FLOOR:2|,FLOOR:2|,FLOOR:2|,FLOOR:2|,FLOOR:2|,FLOOR:2|,FLOOR:2|,FLOOR:2|,FLOOR:2|,FLOOR:2|,FLOOR:2|,FLOOR:2|,FLOOR:2|,FLOOR:2|,FLOOR:31|,FLOOR:31|,FLOOR:31|,FLOOR:63|,FLOOR:31|,FLOOR:31|,FLOOR:2|,FLOOR:2|,FLOOR:2|,FLOOR:2|DEPLOY:1|,FLOOR:2|DEPLOY:1|,FLOOR:2|,
FLOOR:2|,FLOOR:2|DEPLOY:1|,FLOOR:2|DEPLOY:1|,FLOOR:2|,FLOOR:2|,FLOOR:2|,FLOOR:2|,FLOOR:2|,FLOOR:2|,FLOOR:2|,FLOOR:2|,FLOOR:2|,FLOOR:2|,FLOOR:2|,FLOOR:2|,FLOOR:2|,FLOOR:2|,FLOOR:2|,FLOOR:2|,FLOOR:2|,FLOOR:2|,FLOOR:2|,FLOOR:2|,FLOOR:2|,FLOOR:2|,FLOOR:2|,FLOOR:2|,FLOOR:2|,FLOOR:2|,FLOOR:2|,FLOOR:2|,FLOOR:2|,FLOOR:2|,FLOOR:2|,FLOOR:2|,FLOOR:2|,FLOOR:2|,FLOOR:2|,FLOOR:2|,FLOOR:2|,FLOOR:2|,FLOOR:2|,FLOOR:2|,FLOOR:2|,FLOOR:2|,FLOOR:2|,FLOOR:2|,FLOOR:2|,FLOOR:2|,FLOOR:31|,FLOOR:31|,FLOOR:31|,FLOOR:31|,FLOOR:31|,FLOOR:31|,FLOOR:2|,FLOOR:2|,FLOOR:2|,FLOOR:2|DEPLOY:1|,FLOOR:2|DEPLOY:1|,FLOOR:2|,
FLOOR:2|,FLOOR:2|DEPLOY:1|,FLOOR:2|DEPLOY:1|,FLOOR:2|,FLOOR:2|,FLOOR:2|,FLOOR:2|,FLOOR:2|,FLOOR:2|,FLOOR:2|,FLOOR:2|,FLOOR:2|,FLOOR:2|,FLOOR:2|,FLOOR:2|,FLOOR:2|,FLOOR:2|,FLOOR:2|,FLOOR:2|,FLOOR:2|,FLOOR:2|,FLOOR:2|,FLOOR:2|,FLOOR:2|,FLOOR:2|,FLOOR:2|,FLOOR:2|,FLOOR:2|,FLOOR:2|,FLOOR:2|,FLOOR:2|,FLOOR:2|,FLOOR:2|,FLOOR:2|,FLOOR:2|,FLOOR:2|,FLOOR:2|,FLOOR:2|,FLOOR:2|,FLOOR:2|,FLOOR:2|,FLOOR:2|,FLOOR:2|,FLOOR:2|,FLOOR:2|,FLOOR:2|,FLOOR:2|,FLOOR:2|,FLOOR:2|,FLOOR:31|,FLOOR:31|,FLOOR:31|,FLOOR:31|,FLOOR:31|,FLOOR:31|,FLOOR:2|,FLOOR:2|,FLOOR:2|,FLOOR:2|DEPLOY:1|,FLOOR:2|DEPLOY:1|,FLOOR:2|,
FLOOR:2|,FLOOR:2|DEPLOY:1|,FLOOR:2|DEPLOY:1|,FLOOR:2|,FLOOR:2|,FLOOR:2|,FLOOR:2|,FLOOR:2|,FLOOR:2|,FLOOR:2|,FLOOR:2|,FLOOR:2|,FLOOR:2|,FLOOR:2|,FLOOR:2|,FLOOR:2|,FLOOR:2|,FLOOR:2|,FLOOR:2|,FLOOR:2|,FLOOR:2|,FLOOR:2|,FLOOR:2|,FLOOR:2|,FLOOR:2|,FLOOR:2|,FLOOR:2|,FLOOR:2|,FLOOR:2|,FLOOR:2|,FLOOR:2|,FLOOR:2|,FLOOR:2|,FLOOR:2|,FLOOR:2|,FLOOR:2|,FLOOR:2|,FLOOR:2|,FLOOR:2|,FLOOR:2|,FLOOR:2|,FLOOR:2|,FLOOR:2|,FLOOR:2|,FLOOR:2|,FLOOR:2|,FLOOR:2|,FLOOR:2|,FLOOR:2|,FLOOR:31|,FLOOR:31|,FLOOR:31|,FLOOR:63|,FLOOR:31|,FLOOR:31|,FLOOR:2|,FLOOR:2|,FLOOR:2|,FLOOR:2|DEPLOY:1|,FLOOR:2|DEPLOY:1|,FLOOR:2|,
FLOOR:2|,FLOOR:2|DEPLOY:1|,FLOOR:2|DEPLOY:1|,FLOOR:2|,FLOOR:2|,FLOOR:2|,FLOOR:2|,FLOOR:2|,FLOOR:2|,FLOOR:2|,FLOOR:2|,FLOOR:2|,FLOOR:2|,FLOOR:2|,FLOOR:2|,FLOOR:2|,FLOOR:2|,FLOOR:2|,FLOOR:2|,FLOOR:2|,FLOOR:2|,FLOOR:2|,FLOOR:2|,FLOOR:2|,FLOOR:2|,FLOOR:2|,FLOOR:2|,FLOOR:2|,FLOOR:2|,FLOOR:2|,FLOOR:2|,FLOOR:2|,FLOOR:2|,FLOOR:2|,FLOOR:2|,FLOOR:2|,FLOOR:2|,FLOOR:2|,FLOOR:2|,FLOOR:2|,FLOOR:2|,FLOOR:2|,FLOOR:2|,FLOOR:2|,FLOOR:2|,FLOOR:2|,FLOOR:2|,FLOOR:2|,FLOOR:2|,FLOOR:31|,FLOOR:31|,FLOOR:31|,FLOOR:63|,FLOOR:31|,FLOOR:31|,FLOOR:2|,FLOOR:2|,FLOOR:2|,FLOOR:2|DEPLOY:1|,FLOOR:2|DEPLOY:1|,FLOOR:2|,
FLOOR:2|,FLOOR:2|DEPLOY:1|,FLOOR:2|DEPLOY:1|,FLOOR:2|,FLOOR:2|,FLOOR:2|,FLOOR:2|,FLOOR:2|,FLOOR:2|,FLOOR:2|,FLOOR:2|,FLOOR:2|,FLOOR:2|,FLOOR:2|,FLOOR:2|,FLOOR:2|,FLOOR:2|,FLOOR:2|,FLOOR:2|,FLOOR:2|,FLOOR:2|,FLOOR:2|,FLOOR:2|,FLOOR:2|,FLOOR:2|,FLOOR:2|,FLOOR:2|,FLOOR:2|,FLOOR:2|,FLOOR:2|,FLOOR:2|,FLOOR:2|,FLOOR:2|,FLOOR:2|,FLOOR:2|,FLOOR:2|,FLOOR:2|,FLOOR:2|,FLOOR:2|,FLOOR:2|,FLOOR:2|,FLOOR:2|,FLOOR:2|,FLOOR:2|,FLOOR:2|,FLOOR:2|,FLOOR:2|,FLOOR:2|,FLOOR:2|,FLOOR:64|,FLOOR:64|,FLOOR:64|,FLOOR:64|,FLOOR:64|,FLOOR:64|,FLOOR:2|,FLOOR:2|,FLOOR:2|,FLOOR:2|DEPLOY:1|,FLOOR:2|DEPLOY:1|,FLOOR:2|,
FLOOR:2|,FLOOR:2|DEPLOY:1|,FLOOR:2|DEPLOY:1|,FLOOR:2|,FLOOR:2|,FLOOR:2|,FLOOR:2|,FLOOR:2|,FLOOR:2|,FLOOR:2|,FLOOR:2|,FLOOR:2|,FLOOR:2|,FLOOR:2|,FLOOR:2|,FLOOR:2|,FLOOR:2|,FLOOR:2|,FLOOR:2|,FLOOR:2|,FLOOR:2|,FLOOR:2|,FLOOR:2|,FLOOR:2|,FLOOR:2|,FLOOR:2|,FLOOR:2|,FLOOR:2|,FLOOR:2|,FLOOR:2|,FLOOR:2|,FLOOR:2|,FLOOR:2|,FLOOR:2|,FLOOR:2|,FLOOR:2|,FLOOR:2|,FLOOR:2|,FLOOR:2|,FLOOR:2|,FLOOR:2|,FLOOR:2|,FLOOR:2|,FLOOR:2|,FLOOR:2|,FLOOR:2|,FLOOR:2|,FLOOR:2|,FLOOR:2|,FLOOR:2|,FLOOR:2|,FLOOR:2|,FLOOR:2|,FLOOR:2|,FLOOR:2|,FLOOR:2|,FLOOR:2|,FLOOR:2|,FLOOR:2|DEPLOY:1|,FLOOR:2|DEPLOY:1|,FLOOR:2|,
FLOOR:2|,FLOOR:2|DEPLOY:1|,FLOOR:2|DEPLOY:1|,FLOOR:2|,FLOOR:2|,FLOOR:2|,FLOOR:2|,FLOOR:2|,FLOOR:2|,FLOOR:2|,FLOOR:2|,FLOOR:2|,FLOOR:2|,FLOOR:2|,FLOOR:2|,FLOOR:2|,FLOOR:2|,FLOOR:2|,FLOOR:2|,FLOOR:2|,FLOOR:2|,FLOOR:2|,FLOOR:2|,FLOOR:2|,FLOOR:2|,FLOOR:2|,FLOOR:2|,FLOOR:2|,FLOOR:2|,FLOOR:2|,FLOOR:2|,FLOOR:2|,FLOOR:2|,FLOOR:2|,FLOOR:2|,FLOOR:2|,FLOOR:2|,FLOOR:2|,FLOOR:2|,FLOOR:2|,FLOOR:2|,FLOOR:2|,FLOOR:2|,FLOOR:2|,FLOOR:2|,FLOOR:2|,FLOOR:2|,FLOOR:2|,FLOOR:2|,FLOOR:2|,FLOOR:2|,FLOOR:2|,FLOOR:2|,FLOOR:2|,FLOOR:2|,FLOOR:2|,FLOOR:2|,FLOOR:2|,FLOOR:2|DEPLOY:1|,FLOOR:2|DEPLOY:1|,FLOOR:2|,
FLOOR:2|,FLOOR:2|DEPLOY:1|,FLOOR:2|DEPLOY:1|,FLOOR:2|DEPLOY:1|,FLOOR:2|DEPLOY:1|,FLOOR:2|DEPLOY:1|,FLOOR:2|DEPLOY:1|,FLOOR:2|DEPLOY:1|,FLOOR:2|DEPLOY:1|,FLOOR:2|DEPLOY:1|,FLOOR:2|DEPLOY:1|,FLOOR:2|DEPLOY:1|,FLOOR:2|DEPLOY:1|,FLOOR:2|DEPLOY:1|,FLOOR:2|DEPLOY:1|,FLOOR:2|DEPLOY:1|,FLOOR:2|DEPLOY:1|,FLOOR:2|DEPLOY:1|,FLOOR:2|DEPLOY:1|,FLOOR:2|DEPLOY:1|,FLOOR:2|DEPLOY:1|,FLOOR:2|DEPLOY:1|,FLOOR:2|DEPLOY:1|,FLOOR:2|DEPLOY:1|,FLOOR:2|DEPLOY:1|,FLOOR:2|DEPLOY:1|,FLOOR:2|DEPLOY:1|,FLOOR:2|DEPLOY:1|,FLOOR:2|DEPLOY:1|,FLOOR:2|DEPLOY:1|,FLOOR:2|DEPLOY:1|,FLOOR:2|DEPLOY:1|,FLOOR:2|DEPLOY:1|,FLOOR:2|DEPLOY:1|,FLOOR:2|DEPLOY:1|,FLOOR:2|DEPLOY:1|,FLOOR:2|DEPLOY:1|,FLOOR:2|DEPLOY:1|,FLOOR:2|DEPLOY:1|,FLOOR:2|DEPLOY:1|,FLOOR:2|DEPLOY:1|,FLOOR:2|DEPLOY:1|,FLOOR:2|DEPLOY:1|,FLOOR:2|DEPLOY:1|,FLOOR:2|DEPLOY:1|,FLOOR:2|DEPLOY:1|,FLOOR:2|DEPLOY:1|,FLOOR:2|DEPLOY:1|,FLOOR:2|DEPLOY:1|,FLOOR:2|DEPLOY:1|,FLOOR:2|DEPLOY:1|,FLOOR:2|DEPLOY:1|,FLOOR:2|DEPLOY:1|,FLOOR:2|DEPLOY:1|,FLOOR:2|DEPLOY:1|,FLOOR:2|DEPLOY:1|,FLOOR:2|DEPLOY:1|,FLOOR:2|DEPLOY:1|,FLOOR:2|DEPLOY:1|,FLOOR:2|DEPLOY:1|,FLOOR:2|,
FLOOR:2|,FLOOR:2|DEPLOY:1|,FLOOR:2|DEPLOY:1|,FLOOR:2|DEPLOY:1|,FLOOR:2|DEPLOY:1|,FLOOR:2|DEPLOY:1|,FLOOR:2|DEPLOY:1|,FLOOR:2|DEPLOY:1|,FLOOR:2|DEPLOY:1|,FLOOR:2|DEPLOY:1|,FLOOR:2|DEPLOY:1|,FLOOR:2|DEPLOY:1|,FLOOR:2|DEPLOY:1|,FLOOR:2|DEPLOY:1|,FLOOR:2|DEPLOY:1|,FLOOR:2|DEPLOY:1|,FLOOR:2|DEPLOY:1|,FLOOR:2|DEPLOY:1|,FLOOR:2|DEPLOY:1|,FLOOR:2|DEPLOY:1|,FLOOR:2|DEPLOY:1|,FLOOR:2|DEPLOY:1|,FLOOR:2|DEPLOY:1|,FLOOR:2|DEPLOY:1|,FLOOR:2|DEPLOY:1|,FLOOR:2|DEPLOY:1|,FLOOR:2|DEPLOY:1|,FLOOR:2|DEPLOY:1|,FLOOR:2|DEPLOY:1|,FLOOR:2|DEPLOY:1|,FLOOR:2|DEPLOY:1|,FLOOR:2|DEPLOY:1|,FLOOR:2|DEPLOY:1|,FLOOR:2|DEPLOY:1|,FLOOR:2|DEPLOY:1|,FLOOR:2|DEPLOY:1|,FLOOR:2|DEPLOY:1|,FLOOR:2|DEPLOY:1|,FLOOR:2|DEPLOY:1|,FLOOR:2|DEPLOY:1|,FLOOR:2|DEPLOY:1|,FLOOR:2|DEPLOY:1|,FLOOR:2|DEPLOY:1|,FLOOR:2|DEPLOY:1|,FLOOR:2|DEPLOY:1|,FLOOR:2|DEPLOY:1|,FLOOR:2|DEPLOY:1|,FLOOR:2|DEPLOY:1|,FLOOR:2|DEPLOY:1|,FLOOR:2|DEPLOY:1|,FLOOR:2|DEPLOY:1|,FLOOR:2|DEPLOY:1|,FLOOR:2|DEPLOY:1|,FLOOR:2|DEPLOY:1|,FLOOR:2|DEPLOY:1|,FLOOR:2|DEPLOY:1|,FLOOR:2|DEPLOY:1|,FLOOR:2|DEPLOY:1|,FLOOR:2|DEPLOY:1|,FLOOR:2|DEPLOY:1|,FLOOR:2|,
FLOOR:2|,FLOOR:2|,FLOOR:2|,FLOOR:2|,FLOOR:2|,FLOOR:2|,FLOOR:2|,FLOOR:2|,FLOOR:2|,FLOOR:2|,FLOOR:2|,FLOOR:2|,FLOOR:2|,FLOOR:2|,FLOOR:2|,FLOOR:2|,FLOOR:2|,FLOOR:2|,FLOOR:2|,FLOOR:2|,FLOOR:2|,FLOOR:2|,FLOOR:2|,FLOOR:2|,FLOOR:2|,FLOOR:2|,FLOOR:2|,FLOOR:2|,FLOOR:2|,FLOOR:2|,FLOOR:2|,FLOOR:2|,FLOOR:2|,FLOOR:2|,FLOOR:2|,FLOOR:2|,FLOOR:2|,FLOOR:2|,FLOOR:2|,FLOOR:2|,FLOOR:2|,FLOOR:2|,FLOOR:2|,FLOOR:2|,FLOOR:2|,FLOOR:2|,FLOOR:2|,FLOOR:2|,FLOOR:2|,FLOOR:2|,FLOOR:2|,FLOOR:2|,FLOOR:2|,FLOOR:2|,FLOOR:2|,FLOOR:2|,FLOOR:2|,FLOOR:2|,FLOOR:2|,FLOOR:2|,FLOOR:2|,

