61,1.87
FLOOR:2|,FLOOR:2|,FLOOR:2|,FLOOR:2|,FLOOR:2|,FLOOR:2|,FLOOR:2|,FLOOR:2|,FLOOR:2|,FLOOR:2|,FLOOR:2|,FLOOR:2|,FLOOR:2|,FLOOR:2|,FLOOR:2|,FLOOR:2|,FLOOR:2|,FLOOR:2|,FLOOR:2|,FLOOR:2|,FLOOR:2|,FLOOR:2|,FLOOR:2|,FLOOR:2|,FLOOR:2|,FLOOR:2|,FLOOR:2|,FLOOR:2|,FLOOR:2|,FLOOR:2|,FLOOR:2|,FLOOR:2|,FLOOR:2|,FLOOR:2|,FLOOR:2|,FLOOR:2|,FLOOR:2|,FLOOR:2|,FLOOR:2|,FLOOR:2|,FLOOR:2|,FLOOR:2|,FLOOR:2|,FLOOR:2|,FLOOR:2|,FLOOR:2|,FLOOR:2|,FLOOR:2|,FLOOR:2|,FLOOR:2|,FLOOR:2|,FLOOR:2|,FLOOR:2|,FLOOR:2|,FLOOR:2|,FLOOR:2|,FLOOR:2|,FLOOR:2|,FLOOR:2|,FLOOR:2|,FLOOR:2|,
FLOOR:2|,WALL:16|,WALL:16|,WALL:16|,WALL:16|,WALL:16|,WALL:16|,WALL:16|,WALL:16|,WALL:16|,WALL:16|,WALL:16|,WALL:16|,WALL:16|,WALL:16|,WALL:16|,WALL:16|,WALL:16|,WALL:16|,WALL:16|,WALL:16|,WALL:16|,WALL:16|,WALL:16|,WALL:16|,WALL:16|,WALL:16|,WALL:16|,WALL:16|,WALL:16|,WALL:16|,WALL:16|,WALL:16|,WALL:16|,WALL:16|,WALL:16|,WALL:16|,WALL:16|,WALL:16|,WALL:16|,WALL:16|,WALL:16|,WALL:16|,WALL:16|,WALL:16|,WALL:16|,WALL:16|,WALL:16|,WALL:16|,WALL:16|,WALL:16|,WALL:16|,WALL:16|,WALL:16|,WALL:16|,WALL:16|,WALL:16|,WALL:16|,WALL:16|,FLOOR:2|,FLOOR:2|,
FLOOR:2|,WALL:16|,FLOOR:3|OWNER:1|DEPLOY:1|,FLOOR:3|OWNER:1|DEPLOY:1|,FLOOR:3|OWNER:1|DEPLOY:1|,FLOOR:3|OWNER:1|DEPLOY:1|,FLOOR:3|OWNER:1|DEPLOY:1|,FLOOR:3|OWNER:1|DEPLOY:1|,FLOOR:3|OWNER:1|DEPLOY:1|,WALL:16|,FLOOR:1|SCENERY:23:0|,FLOOR:1|,FLOOR:1|,FLOOR:1|,FLOOR:1|,FLOOR:1|,FLOOR:1|,FLOOR:1|,FLOOR:1|,FLOOR:1|,FLOOR:1|,FLOOR:1|,FLOOR:1|,FLOOR:1|,FLOOR:1|,FLOOR:1|,FLOOR:1|,FLOOR:1|,FLOOR:1|SCENERY:56:0|,FLOOR:1|,FLOOR:1|,FLOOR:1|,FLOOR:1|,FLOOR:1|,FLOOR:1|,FLOOR:1|,FLOOR:1|,FLOOR:1|,FLOOR:1|,FLOOR:1|,FLOOR:1|,FLOOR:1|,FLOOR:1|,FLOOR:1|,FLOOR:1|,FLOOR:1|,FLOOR:1|,FLOOR:1|,FLOOR:1|,FLOOR:1|,WALL:16|,FLOOR:3|OWNER:3|DEPLOY:3|,FLOOR:3|OWNER:3|DEPLOY:3|,FLOOR:3|OWNER:3|DEPLOY:3|,FLOOR:3|OWNER:3|DEPLOY:3|,FLOOR:3|OWNER:3|DEPLOY:3|,FLOOR:3|OWNER:3|DEPLOY:3|,FLOOR:3|OWNER:3|DEPLOY:3|,WALL:16|,FLOOR:2|,FLOOR:2|,
FLOOR:2|,WALL:16|,FLOOR:3|OWNER:1|DEPLOY:1|,FLOOR:3|OWNER:1|DEPLOY:1|,FLOOR:3|OWNER:1|DEPLOY:1|,FLOOR:3|OWNER:1|DEPLOY:1|,FLOOR:3|OWNER:1|DEPLOY:1|,FLOOR:3|OWNER:1|DEPLOY:1|,FLOOR:3|OWNER:1|DEPLOY:1|,WALL:16|,WALL:16|,WALL:16|,WALL:16|,WALL:16|,WALL:16|,FLOOR:1|,FLOOR:1|,WALL:16|,WALL:16|,WALL:16|,WALL:16|,WALL:16|SCENERY:49:0|,WALL:16|,WALL:16|,WALL:16|,WALL:16|,FLOOR:1|,WALL:16|,WALL:16|,WALL:16|,FLOOR:1|,FLOOR:1|,WALL:16|,WALL:16|,WALL:16|,FLOOR:1|,WALL:16|,WALL:16|,WALL:16|,WALL:16|,WALL:16|,WALL:16|,WALL:16|,WALL:16|,WALL:16|,FLOOR:1|,FLOOR:1|,WALL:16|,WALL:16|,WALL:16|,WALL:16|,FLOOR:3|OWNER:3|DEPLOY:3|,FLOOR:3|OWNER:3|DEPLOY:3|,FLOOR:3|OWNER:3|DEPLOY:3|,FLOOR:3|OWNER:3|DEPLOY:3|,FLOOR:3|OWNER:3|DEPLOY:3|,FLOOR:3|OWNER:3|DEPLOY:3|,FLOOR:3|OWNER:3|DEPLOY:3|,WALL:16|,FLOOR:2|,FLOOR:2|,
FLOOR:2|,WALL:16|,FLOOR:3|OWNER:1|DEPLOY:1|,FLOOR:3|OWNER:1|DEPLOY:1|,FLOOR:3|OWNER:1|DEPLOY:1|,FLOOR:3|OWNER:1|DEPLOY:1|,FLOOR:3|OWNER:1|DEPLOY:1|,FLOOR:3|OWNER:1|DEPLOY:1|,FLOOR:3|OWNER:1|DEPLOY:1|,WALL:16|,FLOOR:1|,FLOOR:1|,FLOOR:1|,WALL:16|,FLOOR:1|,FLOOR:1|,FLOOR:1|,FLOOR:1|,WALL:16|,FLOOR:1|,FLOOR:1|,FLOOR:1|,FLOOR:1|,FLOOR:1|,FLOOR:1|,FLOOR:1|,FLOOR:1|,FLOOR:1|,WALL:16|,FLOOR:1|,FLOOR:1|,FLOOR:1|,FLOOR:1|,WALL:16|,FLOOR:1|SCENERY:23:0|,FLOOR:1|,FLOOR:1|,WALL:16|,FLOOR:1|,FLOOR:1|,FLOOR:1|SCENERY:4:1|,FLOOR:1|SCENERY:7:0|,FLOOR:1|,WALL:16|,FLOOR:1|,FLOOR:1|,FLOOR:1|,FLOOR:1|,WALL:16|,FLOOR:1|,WALL:16|,FLOOR:3|OWNER:3|DEPLOY:3|,FLOOR:3|OWNER:3|DEPLOY:3|,FLOOR:3|OWNER:3|DEPLOY:3|SCENERY:9:0|,FLOOR:3|OWNER:3|DEPLOY:3|,FLOOR:3|OWNER:3|DEPLOY:3|,FLOOR:3|OWNER:3|DEPLOY:3|,FLOOR:3|OWNER:3|DEPLOY:3|,WALL:16|,FLOOR:2|,FLOOR:2|,
FLOOR:2|,WALL:16|,FLOOR:3|OWNER:1|DEPLOY:1|,FLOOR:3|OWNER:1|DEPLOY:1|,FLOOR:3|OWNER:1|DEPLOY:1|,FLOOR:3|OWNER:1|DEPLOY:1|,FLOOR:3|OWNER:1|DEPLOY:1|,FLOOR:3|OWNER:1|DEPLOY:1|,FLOOR:3|OWNER:1|DEPLOY:1|,FLOOR:1|DOOR:1|,FLOOR:1|,FLOOR:1|,FLOOR:1|,WALL:16|,FLOOR:1|,FLOOR:1|,FLOOR:1|,FLOOR:1|,WALL:16|,FLOOR:1|,FLOOR:1|,FLOOR:1|,FLOOR:1|,FLOOR:1|,FLOOR:1|,FLOOR:1|,FLOOR:1|,FLOOR:1|,WALL:16|,FLOOR:1|,FLOOR:1|,FLOOR:1|,FLOOR:1|,WALL:16|,FLOOR:1|,FLOOR:1|,FLOOR:1|,FLOOR:1|DOOR:1|,FLOOR:1|,FLOOR:1|,FLOOR:1|,FLOOR:1|,FLOOR:1|,FLOOR:1|DOOR:1|,FLOOR:1|,FLOOR:1|,FLOOR:1|,FLOOR:1|,WALL:16|,FLOOR:1|,WALL:16|,FLOOR:3|OWNER:3|DEPLOY:3|,FLOOR:3|OWNER:3|DEPLOY:3|,FLOOR:3|OWNER:3|DEPLOY:3|,FLOOR:3|OWNER:3|DEPLOY:3|,FLOOR:3|OWNER:3|DEPLOY:3|,FLOOR:3|OWNER:3|DEPLOY:3|,FLOOR:3|OWNER:3|DEPLOY:3|,WALL:16|,FLOOR:2|,FLOOR:2|,
FLOOR:2|,WALL:16|,FLOOR:3|OWNER:1|DEPLOY:1|,FLOOR:3|OWNER:1|DEPLOY:1|,FLOOR:3|OWNER:1|DEPLOY:1|,FLOOR:3|OWNER:1|DEPLOY:1|,FLOOR:3|OWNER:1|DEPLOY:1|,FLOOR:3|OWNER:1|DEPLOY:1|,FLOOR:3|OWNER:1|DEPLOY:1|,WALL:16|,FLOOR:1|,FLOOR:1|SCENERY:53:0|,FLOOR:1|,FLOOR:1|,FLOOR:1|,FLOOR:1|,FLOOR:1|,FLOOR:1|,WALL:16|,WALL:16|,WALL:16|,FLOOR:1|DOOR:2|,WALL:16|,WALL:16|,WALL:16|,FLOOR:1|,FLOOR:1|,FLOOR:1|,WALL:16|,FLOOR:1|,FLOOR:1|,FLOOR:1|,FLOOR:1|,FLOOR:1|,FLOOR:1|,FLOOR:1|,FLOOR:1|,WALL:16|,FLOOR:1|,FLOOR:1|,FLOOR:1|,FLOOR:1|,FLOOR:1|,WALL:16|,FLOOR:1|,FLOOR:1|SCENERY:53:0|,FLOOR:1|,FLOOR:1|,FLOOR:1|,FLOOR:1|,FLOOR:1|DOOR:1|,FLOOR:3|OWNER:3|DEPLOY:3|,FLOOR:3|OWNER:3|DEPLOY:3|,FLOOR:3|OWNER:3|DEPLOY:3|,FLOOR:3|OWNER:3|DEPLOY:3|,FLOOR:3|OWNER:3|DEPLOY:3|,FLOOR:3|OWNER:3|DEPLOY:3|,FLOOR:3|OWNER:3|DEPLOY:3|,WALL:16|,FLOOR:2|,FLOOR:2|,
FLOOR:2|,WALL:16|,FLOOR:3|OWNER:1|DEPLOY:1|,FLOOR:3|OWNER:1|DEPLOY:1|,FLOOR:3|OWNER:1|DEPLOY:1|,FLOOR:3|OWNER:1|DEPLOY:1|,FLOOR:3|OWNER:1|DEPLOY:1|,FLOOR:3|OWNER:1|DEPLOY:1|,FLOOR:3|OWNER:1|DEPLOY:1|,WALL:16|,FLOOR:1|SCENERY:26:0|,FLOOR:1|,FLOOR:1|,FLOOR:1|,FLOOR:1|,FLOOR:1|,FLOOR:1|,FLOOR:1|,WALL:16|,FLOOR:1|,FLOOR:1|,FLOOR:1|,FLOOR:1|,FLOOR:1|SCENERY:57:0|,WALL:16|,FLOOR:1|,FLOOR:1|,FLOOR:1|,WALL:16|,FLOOR:1|,FLOOR:1|,FLOOR:1|,FLOOR:1|SCENERY:53:0|,FLOOR:1|,FLOOR:1|,FLOOR:1|,FLOOR:1|,WALL:16|,WALL:16|,WALL:16|,FLOOR:1|DOOR:2|,WALL:16|,WALL:16|,WALL:16|,FLOOR:1|,FLOOR:1|,FLOOR:1|,FLOOR:1|,FLOOR:1|,FLOOR:1|,WALL:16|,FLOOR:3|OWNER:3|DEPLOY:3|,FLOOR:3|OWNER:3|DEPLOY:3|,FLOOR:3|OWNER:3|DEPLOY:3|,FLOOR:3|OWNER:3|DEPLOY:3|,FLOOR:3|OWNER:3|DEPLOY:3|,FLOOR:3|OWNER:3|DEPLOY:3|,FLOOR:3|OWNER:3|DEPLOY:3|,WALL:16|,FLOOR:2|,FLOOR:2|,
FLOOR:2|,WALL:16|,FLOOR:3|OWNER:1|DEPLOY:1|,FLOOR:3|OWNER:1|DEPLOY:1|,FLOOR:3|OWNER:1|DEPLOY:1|,FLOOR:3|OWNER:1|DEPLOY:1|,FLOOR:3|OWNER:1|DEPLOY:1|,FLOOR:3|OWNER:1|DEPLOY:1|,FLOOR:3|OWNER:1|DEPLOY:1|,WALL:16|,FLOOR:1|,FLOOR:1|,FLOOR:1|,WALL:16|,FLOOR:1|,FLOOR:1|,FLOOR:1|,FLOOR:1|,FLOOR:1|DOOR:1|,FLOOR:1|,FLOOR:1|,FLOOR:1|,FLOOR:1|SCENERY:56:0|,FLOOR:1|SCENERY:58:0|,WALL:16|,FLOOR:1|,FLOOR:1|,FLOOR:1|,FLOOR:1|DOOR:1|,FLOOR:1|,FLOOR:1|,FLOOR:1|,FLOOR:1|,WALL:16|,FLOOR:1|,FLOOR:1|,FLOOR:1|,WALL:16|,FLOOR:1|,FLOOR:1|,FLOOR:1|,FLOOR:1|,FLOOR:1|,FLOOR:1|,FLOOR:1|,FLOOR:1|,FLOOR:1|,FLOOR:1|,WALL:16|,FLOOR:1|,WALL:16|,FLOOR:3|OWNER:3|DEPLOY:3|,FLOOR:3|OWNER:3|DEPLOY:3|,FLOOR:3|OWNER:3|DEPLOY:3|,FLOOR:3|OWNER:3|DEPLOY:3|,FLOOR:3|OWNER:3|DEPLOY:3|,FLOOR:3|OWNER:3|DEPLOY:3|,FLOOR:3|OWNER:3|DEPLOY:3|,WALL:16|,FLOOR:2|,FLOOR:2|,
FLOOR:2|,WALL:16|,WALL:16|,WALL:16|,WALL:16|SCENERY:43:0|,FLOOR:1|DOOR:2|,WALL:16|SCENERY:43:0|,WALL:16|,WALL:16|,WALL:16|,FLOOR:1|,FLOOR:1|,FLOOR:1|,WALL:16|,FLOOR:1|,FLOOR:1|,FLOOR:1|,FLOOR:1|,WALL:16|,FLOOR:1|,FLOOR:1|,FLOOR:1|,FLOOR:1|,FLOOR:1|,WALL:16|,FLOOR:1|,FLOOR:1|,FLOOR:1|,WALL:16|,FLOOR:1|,FLOOR:1|,FLOOR:1|,FLOOR:1|,WALL:16|,FLOOR:1|,FLOOR:1|,FLOOR:1|,WALL:16|,FLOOR:1|,FLOOR:1|,FLOOR:1|,FLOOR:1|,FLOOR:1|,FLOOR:1|,FLOOR:1|,FLOOR:1|,FLOOR:1|,FLOOR:1|,WALL:16|,FLOOR:1|,WALL:16|,WALL:16|,WALL:16|,WALL:16|SCENERY:43:0|,FLOOR:1|DOOR:2|,WALL:16|SCENERY:43:0|,WALL:16|,WALL:16|,WALL:16|,FLOOR:2|,FLOOR:2|,
FLOOR:2|,WALL:16|,FLOOR:1|SCENERY:52:0|,WALL:16|,FLOOR:1|,FLOOR:1|,FLOOR:1|,WALL:16|,FLOOR:1|,FLOOR:1|,FLOOR:1|,WALL:16|,WALL:16|,WALL:16|,WALL:16|,FLOOR:1|,FLOOR:1|,WALL:16|,WALL:16|,WALL:16|,WALL:16|,WALL:16|,WALL:16|,WALL:16|,WALL:16|,WALL:16|,FLOOR:1|,WALL:16|,WALL:16|,WALL:16|,FLOOR:1|,FLOOR:1|,WALL:16|,WALL:16|,WALL:16|,FLOOR:1|,WALL:16|,WALL:16|,WALL:16|,WALL:16|,FLOOR:1|,WALL:16|,WALL:16|,WALL:16|,WALL:16|,WALL:16|,WALL:16|,WALL:16|,WALL:16|,WALL:16|,WALL:16|,FLOOR:1|,FLOOR:1|,FLOOR:1|,FLOOR:1|,FLOOR:1|,FLOOR:1|,FLOOR:1|SCENERY:23:0|,WALL:16|,FLOOR:2|,FLOOR:2|,
FLOOR:2|,WALL:16|,FLOOR:1|,FLOOR:1|,FLOOR:1|,FLOOR:1|,FLOOR:1|,WALL:16|,FLOOR:1|SCENERY:56:0|,FLOOR:1|,FLOOR:1|,FLOOR:1|,FLOOR:1|,FLOOR:1|,FLOOR:1|,FLOOR:1|,FLOOR:1|,FLOOR:1|,FLOOR:1|,FLOOR:1|,FLOOR:1|,FLOOR:1|,FLOOR:1|,FLOOR:1|,FLOOR:1|,FLOOR:1|,FLOOR:1|,FLOOR:1|,FLOOR:1|,FLOOR:1|SCENERY:8:0|,FLOOR:1|,FLOOR:1|,FLOOR:1|,FLOOR:1|,FLOOR:1|,FLOOR:1|,FLOOR:1|,FLOOR:1|,FLOOR:1|,FLOOR:1|,FLOOR:1|,FLOOR:1|,FLOOR:1|,FLOOR:1|,FLOOR:1|,FLOOR:1|,FLOOR:1|,FLOOR:1|,FLOOR:1|,FLOOR:1|,FLOOR:1|,FLOOR:1|,FLOOR:1|,FLOOR:1|,FLOOR:1|,FLOOR:1|,FLOOR:1|,FLOOR:1|,WALL:16|,FLOOR:2|,FLOOR:2|,
FLOOR:2|,WALL:16|,FLOOR:1|,WALL:16|,FLOOR:1|,FLOOR:1|,FLOOR:1|,WALL:16|,FLOOR:1|,FLOOR:1|,FLOOR:1|,FLOOR:1|,FLOOR:1|,FLOOR:1|,FLOOR:1|,FLOOR:1|,FLOOR:1|,FLOOR:1|,FLOOR:1|,FLOOR:1|,FLOOR:1|,FLOOR:1|SCENERY:53:0|,FLOOR:1|,FLOOR:1|,FLOOR:1|,FLOOR:1|,FLOOR:1|,FLOOR:1|,FLOOR:1|,FLOOR:1|,FLOOR:1|,FLOOR:1|,FLOOR:1|,FLOOR:1|,FLOOR:1|,FLOOR:1|,FLOOR:1|,FLOOR:1|,FLOOR:1|,FLOOR:1|,FLOOR:1|,FLOOR:1|,FLOOR:1|,FLOOR:1|,FLOOR:1|,FLOOR:1|,FLOOR:1|,FLOOR:1|,FLOOR:1|,FLOOR:1|,FLOOR:1|,FLOOR:1|,FLOOR:1|,FLOOR:1|,FLOOR:1|,FLOOR:1|SCENERY:53:0|,FLOOR:1|,FLOOR:1|,WALL:16|,FLOOR:2|,FLOOR:2|,
FLOOR:2|,WALL:16|,FLOOR:1|,WALL:16|,FLOOR:1|,FLOOR:1|,FLOOR:1|,WALL:16|,FLOOR:1|,FLOOR:1|,FLOOR:1|,WALL:16|,FLOOR:1|,FLOOR:1|,WALL:16|,WALL:16|,FLOOR:1|,FLOOR:1|,WALL:16|,WALL:16|,WALL:16|,WALL:16|,WALL:16|,WALL:16|,WALL:16|SCENERY:44:0|,WALL:16|,WALL:16|,WALL:16|,WALL:16|,WALL:16|,FLOOR:1|,FLOOR:1|,WALL:16|,WALL:16|,WALL:16|,WALL:16|,WALL:16|,WALL:16|,WALL:16|,WALL:16|,WALL:16|,WALL:16|,WALL:16|SCENERY:44:0|,WALL:16|,FLOOR:1|,FLOOR:1|,WALL:16|,WALL:16|,FLOOR:1|,FLOOR:1|,WALL:16|,FLOOR:1|,FLOOR:1|,FLOOR:1|,FLOOR:1|,FLOOR:1|,FLOOR:1|,FLOOR:1|,WALL:16|,FLOOR:2|,FLOOR:2|,
FLOOR:2|,WALL:16|,FLOOR:1|,WALL:16|,FLOOR:1|,FLOOR:1|,FLOOR:1|,WALL:16|,FLOOR:1|,FLOOR:1|,FLOOR:1|,WALL:16|,FLOOR:1|,FLOOR:1|,WALL:16|,FLOOR:1|,FLOOR:1|,FLOOR:1|,FLOOR:1|,FLOOR:1|,FLOOR:1|,FLOOR:1|,FLOOR:1|,FLOOR:1|,FLOOR:1|,FLOOR:1|,FLOOR:1|,FLOOR:1|,FLOOR:1|,FLOOR:1|,FLOOR:1|,FLOOR:1|,FLOOR:1|,FLOOR:1|SCENERY:54:0|,FLOOR:1|,FLOOR:1|,FLOOR:1|,FLOOR:1|,FLOOR:1|SCENERY:9:0|,FLOOR:1|,FLOOR:1|,FLOOR:1|,FLOOR:1|,FLOOR:1|,FLOOR:1|,FLOOR:1|,FLOOR:1|,WALL:16|,FLOOR:1|,FLOOR:1|,WALL:16|,FLOOR:1|,FLOOR:1|,FLOOR:1|,FLOOR:1|,FLOOR:1|SCENERY:8:0|,FLOOR:1|,FLOOR:1|,WALL:16|,FLOOR:2|,FLOOR:2|,
FLOOR:2|,WALL:16|,FLOOR:1|,WALL:16|,WALL:16|,FLOOR:1|DOOR:2|,WALL:16|,WALL:16|,WALL:16|,FLOOR:1|DOOR:2|,WALL:16|,WALL:16|,FLOOR:1|SCENERY:56:0|,FLOOR:1|,FLOOR:1|,FLOOR:1|,FLOOR:1|,FLOOR:1|,FLOOR:1|,FLOOR:1|,FLOOR:1|,FLOOR:1|,FLOOR:1|,FLOOR:1|,FLOOR:1|,FLOOR:1|,FLOOR:1|,FLOOR:1|,FLOOR:1|,FLOOR:1|,FLOOR:1|,FLOOR:1|,FLOOR:1|,FLOOR:1|,FLOOR:1|,FLOOR:1|,FLOOR:1|,FLOOR:1|,FLOOR:1|,FLOOR:1|,FLOOR:1|,FLOOR:1|,FLOOR:1|,FLOOR:1|,FLOOR:1|,FLOOR:1|,FLOOR:1|,FLOOR:1|,FLOOR:1|,FLOOR:1|,WALL:16|,WALL:16|,FLOOR:1|DOOR:2|,WALL:16|,WALL:16|,WALL:16|,WALL:16|,FLOOR:1|,WALL:16|,FLOOR:2|,FLOOR:2|,
FLOOR:2|,WALL:16|,FLOOR:1|,FLOOR:1|,FLOOR:1|,FLOOR:1|,FLOOR:1|,WALL:16|,FLOOR:1|,FLOOR:1|,FLOOR:1|,WALL:16|,FLOOR:1|,FLOOR:1|,FLOOR:1|,FLOOR:1|,FLOOR:1|,WALL:16|,WALL:16|,WALL:16|,WALL:16|,WALL:16|,FLOOR:1|,WALL:16|,FLOOR:1|,WALL:16|,WALL:16|,WALL:16|,WALL:16|,WALL:16|,WALL:16|,WALL:16|,WALL:16|,WALL:16|SCENERY:44:0|,WALL:16|,WALL:16|,WALL:16|,FLOOR:1|,WALL:16|,WALL:16|,WALL:16|,WALL:16|,WALL:16|,FLOOR:1|,WALL:16|,FLOOR:1|,FLOOR:1|,FLOOR:1|,FLOOR:1|,FLOOR:1|,WALL:16|,FLOOR:1|,FLOOR:1|,FLOOR:1|,FLOOR:1|,FLOOR:1|SCENERY:27:0|,WALL:16|,FLOOR:1|,WALL:16|,FLOOR:2|,FLOOR:2|,
FLOOR:2|,WALL:16|,FLOOR:1|,FLOOR:1|,FLOOR:1|,FLOOR:1|,FLOOR:1|,WALL:16|,FLOOR:1|,FLOOR:1|,FLOOR:1|,WALL:16|,FLOOR:1|,FLOOR:1|,WALL:16|,FLOOR:1|,FLOOR:1|,WALL:16|,FLOOR:1|SCENERY:23:0|,FLOOR:1|,FLOOR:1|,FLOOR:1|,FLOOR:1|,WALL:16|,FLOOR:1|,WALL:16|,FLOOR:1|,FLOOR:1|,FLOOR:1|,FLOOR:1|,FLOOR:1|,FLOOR:1|,FLOOR:1|,FLOOR:1|,FLOOR:1|,FLOOR:1|,WALL:16|,FLOOR:1|,WALL:16|,FLOOR:1|,FLOOR:1|SCENERY:54:0|,FLOOR:1|,FLOOR:1|,FLOOR:1|,WALL:16|,FLOOR:1|,FLOOR:1|,WALL:16|,FLOOR:1|,FLOOR:1|,WALL:16|,FLOOR:1|,FLOOR:1|,FLOOR:1|,FLOOR:1|,FLOOR:1|,WALL:16|,FLOOR:1|,WALL:16|,FLOOR:2|,FLOOR:2|,
FLOOR:2|,WALL:16|,FLOOR:1|SCENERY:26:0|,FLOOR:1|,FLOOR:1|,FLOOR:1|,FLOOR:1|,FLOOR:1|,FLOOR:1|,FLOOR:1|,FLOOR:1|,FLOOR:1|,FLOOR:1|,FLOOR:1|,WALL:16|,FLOOR:1|,FLOOR:1|,WALL:16|,FLOOR:1|,FLOOR:1|,FLOOR:1|,FLOOR:1|,FLOOR:1|,WALL:16|,FLOOR:1|,FLOOR:1|DOOR:1|,FLOOR:1|,FLOOR:1|SCENERY:53:0|,FLOOR:1|,FLOOR:1|,FLOOR:1|,FLOOR:1|,FLOOR:1|,FLOOR:1|,FLOOR:1|,FLOOR:1|,FLOOR:1|DOOR:1|,FLOOR:1|,WALL:16|,FLOOR:1|,FLOOR:1|,FLOOR:1|,FLOOR:1|,FLOOR:1|,WALL:16|,FLOOR:1|,FLOOR:1|,WALL:16|,FLOOR:1|,FLOOR:1|,WALL:16|,FLOOR:1|,FLOOR:1|,FLOOR:1|,FLOOR:1|,FLOOR:1|SCENERY:6:2|,WALL:16|,FLOOR:1|,WALL:16|,FLOOR:2|,FLOOR:2|,
FLOOR:2|,WALL:16|,FLOOR:1|,FLOOR:1|,FLOOR:1|,FLOOR:1|,FLOOR:1|,FLOOR:1|,FLOOR:1|,FLOOR:1|,FLOOR:1|SCENERY:53:0|,FLOOR:1|,FLOOR:1|,FLOOR:1|,WALL:16|,FLOOR:1|,FLOOR:1|,FLOOR:1|,FLOOR:1|,FLOOR:1|,FLOOR:1|,FLOOR:1|SCENERY:53:0|,FLOOR:1|,WALL:16|,FLOOR:1|,WALL:16|,FLOOR:1|,FLOOR:1|,FLOOR:1|,FLOOR:1|,FLOOR:1|,FLOOR:1|,FLOOR:1|,FLOOR:1|,FLOOR:1|,FLOOR:1|,WALL:16|,FLOOR:1|,WALL:16|,FLOOR:1|,FLOOR:1|,FLOOR:1|,FLOOR:1|,FLOOR:1|,FLOOR:1|,FLOOR:1|,FLOOR:1|,WALL:16|,FLOOR:1|,FLOOR:1|,WALL:16|,FLOOR:1|,FLOOR:1|,FLOOR:1|,FLOOR:1|,FLOOR:1|,WALL:16|,FLOOR:1|,WALL:16|,FLOOR:2|,FLOOR:2|,
FLOOR:2|,WALL:16|,FLOOR:1|SCENERY:26:0|,FLOOR:1|,FLOOR:1|,FLOOR:1|,FLOOR:1|SCENERY:8:0|,WALL:16|,FLOOR:1|,FLOOR:1|,FLOOR:1|,WALL:16|,FLOOR:1|,FLOOR:1|,WALL:16|,FLOOR:1|,FLOOR:1|,FLOOR:1|,FLOOR:1|,FLOOR:1|,FLOOR:1|,FLOOR:1|,FLOOR:1|,WALL:16|,FLOOR:1|,WALL:16|,WALL:16|,WALL:16|,WALL:16|,WALL:16|,FLOOR:1|,FLOOR:1|,WALL:16|,WALL:16|,WALL:16|,WALL:16|,WALL:16|,FLOOR:1|,FLOOR:1|DOOR:1|,FLOOR:1|,FLOOR:1|,FLOOR:1|,FLOOR:1|,FLOOR:1|,FLOOR:1|SCENERY:53:0|,FLOOR:1|,FLOOR:1|,WALL:16|,FLOOR:1|,FLOOR:1|,WALL:16|,FLOOR:1|,FLOOR:1|,FLOOR:1|,FLOOR:1|,FLOOR:1|SCENERY:27:0|,WALL:16|,FLOOR:1|,WALL:16|,FLOOR:2|,FLOOR:2|,
FLOOR:2|,WALL:16|,WALL:16|,WALL:16|,FLOOR:1|,WALL:16|,WALL:16|,WALL:16|,FLOOR:1|,FLOOR:1|,FLOOR:1|,WALL:16|,FLOOR:1|,FLOOR:1|,WALL:16|,FLOOR:1|,FLOOR:1|SCENERY:56:0|,FLOOR:1|,FLOOR:1|,FLOOR:1|,FLOOR:1|,FLOOR:1|,FLOOR:1|,WALL:16|,FLOOR:1|,WALL:16|,FLOOR:1|,FLOOR:1|,FLOOR:1|,FLOOR:1|,FLOOR:1|,FLOOR:1|,FLOOR:1|,FLOOR:1|,FLOOR:1|,FLOOR:1|,WALL:16|,FLOOR:1|,WALL:16|,FLOOR:1|,FLOOR:1|,FLOOR:1|,FLOOR:1|,FLOOR:1|,FLOOR:1|,FLOOR:1|,FLOOR:1|,WALL:16|,FLOOR:1|,FLOOR:1|,WALL:16|,WALL:16|,WALL:16|,WALL:16|,FLOOR:1|DOOR:2|,WALL:16|,WALL:16|,FLOOR:1|,WALL:16|,FLOOR:2|,FLOOR:2|,
FLOOR:2|,WALL:16|,FLOOR:1|,FLOOR:1|,FLOOR:1|,FLOOR:1|,FLOOR:1|SCENERY:24:0|,WALL:16|,FLOOR:1|,FLOOR:1|,FLOOR:1|,WALL:16|,FLOOR:1|,FLOOR:1|,WALL:16|,FLOOR:1|,FLOOR:1|,WALL:16|,FLOOR:1|,FLOOR:1|,FLOOR:1|,FLOOR:1|,FLOOR:1|,WALL:16|,FLOOR:1|,WALL:16|,FLOOR:1|,FLOOR:1|,FLOOR:1|,FLOOR:1|,FLOOR:1|,FLOOR:1|,FLOOR:1|,FLOOR:1|,FLOOR:1|,FLOOR:1|,WALL:16|,FLOOR:1|,WALL:16|,FLOOR:1|,FLOOR:1|,FLOOR:1|,FLOOR:1|,FLOOR:1|,WALL:16|,FLOOR:1|,FLOOR:1|,WALL:16|,FLOOR:1|,FLOOR:1|,WALL:16|,FLOOR:1|,FLOOR:1|,FLOOR:1|,FLOOR:1|,FLOOR:1|,WALL:16|,FLOOR:1|,WALL:16|,FLOOR:2|,FLOOR:2|,
FLOOR:2|,WALL:16|,FLOOR:1|,FLOOR:1|,FLOOR:1|,FLOOR:1|,FLOOR:1|,WALL:16|,FLOOR:1|,FLOOR:1|,FLOOR:1|,WALL:16|,FLOOR:1|,FLOOR:1|,WALL:16|,FLOOR:1|,FLOOR:1|,WALL:16|,FLOOR:1|,FLOOR:1|,FLOOR:1|,FLOOR:1|,FLOOR:1|SCENERY:9:0|,WALL:16|,FLOOR:1|,FLOOR:1|DOOR:1|,FLOOR:1|,FLOOR:1|,FLOOR:1|,FLOOR:1|,FLOOR:1|,FLOOR:1|,FLOOR:1|,FLOOR:1|SCENERY:53:0|,FLOOR:1|,FLOOR:1|,FLOOR:1|DOOR:1|,FLOOR:1|,WALL:16|,FLOOR:1|SCENERY:7:2|,FLOOR:1|,FLOOR:1|,FLOOR:1|,FLOOR:1|,WALL:16|,FLOOR:1|,FLOOR:1|,WALL:16|,FLOOR:1|,FLOOR:1|,WALL:16|,FLOOR:1|,FLOOR:1|,FLOOR:1|,FLOOR:1|,FLOOR:1|,WALL:16|,FLOOR:1|,WALL:16|,FLOOR:2|,FLOOR:2|,
FLOOR:2|,WALL:16|,FLOOR:1|SCENERY:4:0|,FLOOR:1|,FLOOR:1|SCENERY:53:0|,FLOOR:1|,FLOOR:1|,WALL:16|,FLOOR:1|,FLOOR:1|,FLOOR:1|,WALL:16|,FLOOR:1|,FLOOR:1|,WALL:16|,FLOOR:1|,FLOOR:1|,WALL:16|,FLOOR:1|,WALL:16|,WALL:16|,WALL:16|,WALL:16|,WALL:16|,FLOOR:1|,WALL:16|,FLOOR:1|,FLOOR:1|,FLOOR:1|,FLOOR:1|,FLOOR:1|,FLOOR:1|,FLOOR:1|,FLOOR:1|,FLOOR:1|,FLOOR:1|,WALL:16|,FLOOR:1|,WALL:16|,WALL:16|,WALL:16|,WALL:16|,WALL:16|,FLOOR:1|,WALL:16|,FLOOR:1|,FLOOR:1|,WALL:16|,FLOOR:1|,FLOOR:1|,FLOOR:1|,FLOOR:1|,FLOOR:1|,FLOOR:1|,FLOOR:1|,FLOOR:1|,WALL:16|,FLOOR:1|,WALL:16|,FLOOR:2|,FLOOR:2|,
FLOOR:2|,WALL:16|,FLOOR:1|,FLOOR:1|,FLOOR:1|,FLOOR:1|,FLOOR:1|,WALL:16|,FLOOR:1|,FLOOR:1|,FLOOR:1|,WALL:16|,FLOOR:1|,FLOOR:1|,WALL:16|,FLOOR:1|,FLOOR:1|,WALL:16|,FLOOR:1|,FLOOR:1|,FLOOR:1|,FLOOR:1|,FLOOR:1|,FLOOR:1|,FLOOR:1|,WALL:16|,FLOOR:1|SCENERY:8:0|,FLOOR:1|,FLOOR:1|,FLOOR:1|,FLOOR:1|,FLOOR:1|,FLOOR:1|,FLOOR:1|,FLOOR:1|,FLOOR:1|,WALL:16|,FLOOR:1|,FLOOR:1|,FLOOR:1|,FLOOR:1|,FLOOR:1|,FLOOR:1|,FLOOR:1|,WALL:16|,FLOOR:1|,FLOOR:1|,WALL:16|,FLOOR:1|,FLOOR:1|,FLOOR:1|,FLOOR:1|,FLOOR:1|SCENERY:53:0|,FLOOR:1|,FLOOR:1|,FLOOR:1|,WALL:16|,FLOOR:1|,WALL:16|,FLOOR:2|,FLOOR:2|,
FLOOR:2|,WALL:16|,FLOOR:1|,FLOOR:1|,FLOOR:1|,FLOOR:1|,FLOOR:1|,WALL:16|,WALL:16|,FLOOR:1|,WALL:16|SCENERY:44:0|,WALL:16|,FLOOR:1|,FLOOR:1|,WALL:16|,FLOOR:1|,FLOOR:1|,WALL:16|,FLOOR:1|,WALL:16|,WALL:16|,WALL:16|SCENERY:29:0|,FLOOR:1|DOOR:2|,WALL:16|,WALL:16|,WALL:16|,WALL:16|,WALL:16|SCENERY:44:0|,WALL:16|,WALL:16|,FLOOR:1|,FLOOR:1|,WALL:16|,WALL:16|,WALL:16|SCENERY:48:0|,WALL:16|SCENERY:44:0|,WALL:16|,WALL:16|,WALL:16|,FLOOR:1|DOOR:2|,WALL:16|SCENERY:29:0|,WALL:16|,WALL:16|,FLOOR:1|,WALL:16|,FLOOR:1|,FLOOR:1|,WALL:16|,FLOOR:1|,FLOOR:1|,WALL:16|,FLOOR:1|,FLOOR:1|,FLOOR:1|,FLOOR:1|,FLOOR:1|,WALL:16|,FLOOR:1|,WALL:16|,FLOOR:2|,FLOOR:2|,
FLOOR:2|,WALL:16|,FLOOR:1|SCENERY:7:3|,FLOOR:1|,FLOOR:1|,FLOOR:1|,FLOOR:1|,WALL:16|,FLOOR:1|,FLOOR:1|,FLOOR:1|,WALL:16|,FLOOR:1|,FLOOR:1|,WALL:16|,FLOOR:1|,FLOOR:1|,WALL:16|,FLOOR:1|,WALL:16|,FLOOR:1|SCENERY:57:0|,FLOOR:1|,FLOOR:1|,FLOOR:1|,FLOOR:1|SCENERY:24:0|,WALL:16|,FLOOR:5|SCENERY:52:0|,FLOOR:5|,FLOOR:5|,FLOOR:5|,FLOOR:5|,FLOOR:5|,FLOOR:5|,FLOOR:5|,FLOOR:5|,FLOOR:5|,WALL:16|,FLOOR:1|SCENERY:24:0|,FLOOR:1|,FLOOR:1|,FLOOR:1|,FLOOR:1|SCENERY:57:0|,WALL:16|,FLOOR:1|,WALL:16|,FLOOR:1|,FLOOR:1|,WALL:16|,FLOOR:1|,FLOOR:1|,WALL:16|,FLOOR:1|,FLOOR:1|,FLOOR:1|,FLOOR:1|,FLOOR:1|SCENERY:9:0|,WALL:16|,FLOOR:1|,WALL:16|,FLOOR:2|,FLOOR:2|,
FLOOR:2|,WALL:16|,WALL:16|,WALL:16|,FLOOR:1|,WALL:16|,WALL:16|,WALL:16|,FLOOR:1|,FLOOR:1|,FLOOR:1|,WALL:16|,FLOOR:1|,FLOOR:1|,FLOOR:1|,FLOOR:1|,FLOOR:1|,WALL:16|,FLOOR:1|,WALL:16|,FLOOR:1|SCENERY:58:0|,FLOOR:1|,FLOOR:1|,FLOOR:1|,FLOOR:1|SCENERY:39:0|,WALL:16|,FLOOR:5|,FLOOR:5|,FLOOR:5|,FLOOR:5|,FLOOR:5|,FLOOR:5|,FLOOR:5|,FLOOR:5|,FLOOR:5|,FLOOR:5|,WALL:16|,FLOOR:1|,FLOOR:1|SCENERY:41:0|,FLOOR:1|,FLOOR:1|,FLOOR:1|SCENERY:58:0|,WALL:16|,FLOOR:1|,WALL:16|,FLOOR:1|,FLOOR:1|,FLOOR:1|,FLOOR:1|,FLOOR:1|,WALL:16|,FLOOR:1|,FLOOR:1|,FLOOR:1|,WALL:16|,WALL:16|,WALL:16|,FLOOR:1|,WALL:16|,FLOOR:2|,FLOOR:2|,
FLOOR:2|,WALL:16|,FLOOR:1|,FLOOR:1|,FLOOR:1|,FLOOR:1|,FLOOR:1|SCENERY:6:1|,WALL:16|,FLOOR:1|,FLOOR:1|,FLOOR:1|,WALL:16|,FLOOR:1|,FLOOR:1|,FLOOR:1|,FLOOR:1|,FLOOR:1|,WALL:16|,FLOOR:1|,WALL:16|,WALL:16|,WALL:16|,FLOOR:1|DOOR:2|,WALL:16|,WALL:16|,WALL:16|,FLOOR:5|,FLOOR:5|,FLOOR:5|,FLOOR:5|,FLOOR:5|,FLOOR:5|,FLOOR:5|,FLOOR:5|,FLOOR:5|,FLOOR:5|,WALL:16|,WALL:16|,WALL:16|,FLOOR:1|DOOR:2|,WALL:16|,WALL:16|,WALL:16|,FLOOR:1|,WALL:16|,FLOOR:1|,FLOOR:1|,FLOOR:1|,FLOOR:1|,FLOOR:1|,WALL:16|,FLOOR:1|,FLOOR:1|,FLOOR:1|,FLOOR:1|,FLOOR:1|,FLOOR:1|,FLOOR:1|,WALL:16|,FLOOR:2|,FLOOR:2|,
FLOOR:2|,WALL:16|,FLOOR:1|,FLOOR:1|,FLOOR:1|,FLOOR:1|,FLOOR:1|,FLOOR:1|,FLOOR:1|SCENERY:53:0|,FLOOR:1|,FLOOR:1|,FLOOR:1|,FLOOR:1|,FLOOR:1|,WALL:16|,FLOOR:1|,FLOOR:1|,FLOOR:1|,FLOOR:1|,FLOOR:1|,FLOOR:1|,FLOOR:1|,FLOOR:1|,FLOOR:1|,FLOOR:1|,FLOOR:1|,FLOOR:5|,FLOOR:5|,FLOOR:5|,FLOOR:5|,FLOOR:5|,FLOOR:5|,FLOOR:5|,FLOOR:5|,FLOOR:5|,FLOOR:5|,FLOOR:1|,FLOOR:1|,FLOOR:1|,FLOOR:1|,FLOOR:1|SCENERY:53:0|,FLOOR:1|,FLOOR:1|,FLOOR:1|,FLOOR:1|,FLOOR:1|,FLOOR:1|,WALL:16|,FLOOR:1|,FLOOR:1|,FLOOR:1|,FLOOR:1|,FLOOR:1|,FLOOR:1|,FLOOR:1|,FLOOR:1|,FLOOR:1|,FLOOR:1|,WALL:16|,FLOOR:2|,FLOOR:2|,
FLOOR:2|,WALL:16|,FLOOR:1|,FLOOR:1|SCENERY:56:0|,FLOOR:1|,FLOOR:1|,FLOOR:1|,FLOOR:1|,FLOOR:1|,FLOOR:1|,FLOOR:1|,FLOOR:1|,FLOOR:1|,FLOOR:1|,WALL:16|,FLOOR:1|,FLOOR:1|,FLOOR:1|,FLOOR:1|,FLOOR:1|,FLOOR:1|,FLOOR:1|SCENERY:53:0|,FLOOR:1|,FLOOR:1|,FLOOR:1|,FLOOR:1|,FLOOR:5|,FLOOR:5|,FLOOR:5|,FLOOR:5|,FLOOR:5|,FLOOR:5|,FLOOR:5|,FLOOR:5|,FLOOR:5|,FLOOR:5|,FLOOR:1|,FLOOR:1|,FLOOR:1|,FLOOR:1|,FLOOR:1|,FLOOR:1|,FLOOR:1|,FLOOR:1|,FLOOR:1|,FLOOR:1|SCENERY:8:0|,FLOOR:1|,WALL:16|,FLOOR:1|,FLOOR:1|,FLOOR:1|,FLOOR:1|,FLOOR:1|,FLOOR:1|,FLOOR:1|,FLOOR:1|,FLOOR:1|,FLOOR:1|,WALL:16|,FLOOR:2|,FLOOR:2|,
FLOOR:2|,WALL:16|,FLOOR:1|,FLOOR:1|,FLOOR:1|,FLOOR:1|,FLOOR:1|,WALL:16|,FLOOR:1|,FLOOR:1|,FLOOR:1|,WALL:16|,FLOOR:1|,FLOOR:1|,FLOOR:1|,FLOOR:1|,FLOOR:1|,WALL:16|,FLOOR:1|,WALL:16|,WALL:16|,WALL:16|SCENERY:29:0|,FLOOR:1|DOOR:2|,WALL:16|,WALL:16|,WALL:16|,FLOOR:5|,FLOOR:5|,FLOOR:5|,FLOOR:5|,FLOOR:5|,FLOOR:5|,FLOOR:5|,FLOOR:5|,FLOOR:5|,FLOOR:5|,WALL:16|,WALL:16|,WALL:16|,FLOOR:1|DOOR:2|,WALL:16|SCENERY:29:0|,WALL:16|,WALL:16|,FLOOR:1|,WALL:16|,FLOOR:1|,FLOOR:1|,FLOOR:1|,FLOOR:1|,FLOOR:1|,WALL:16|,FLOOR:1|,FLOOR:1|,FLOOR:1|,WALL:16|,WALL:16|,FLOOR:1|DOOR:2|,WALL:16|,WALL:16|,FLOOR:2|,FLOOR:2|,
FLOOR:2|,WALL:16|,FLOOR:1|,FLOOR:1|,FLOOR:1|,FLOOR:1|,FLOOR:1|,WALL:16|,FLOOR:1|,FLOOR:1|,FLOOR:1|,WALL:16|,FLOOR:1|,FLOOR:1|SCENERY:53:0|,FLOOR:1|,FLOOR:1|,FLOOR:1|,WALL:16|,FLOOR:1|,WALL:16|,FLOOR:1|SCENERY:57:0|,FLOOR:1|SCENERY:24:0|,FLOOR:1|,FLOOR:1|,FLOOR:1|SCENERY:40:0|,WALL:16|,FLOOR:5|,FLOOR:5|,FLOOR:5|,FLOOR:5|,FLOOR:5|,FLOOR:5|,FLOOR:5|,FLOOR:5|,FLOOR:5|,FLOOR:5|,WALL:16|,FLOOR:1|,FLOOR:1|SCENERY:24:0|,FLOOR:1|,FLOOR:1|,FLOOR:1|SCENERY:57:0|,WALL:16|,FLOOR:1|,WALL:16|,FLOOR:1|,FLOOR:1|SCENERY:53:0|,FLOOR:1|,FLOOR:1|,FLOOR:1|,WALL:16|,FLOOR:1|,FLOOR:1|,FLOOR:1|,WALL:16|,FLOOR:1|,FLOOR:1|,FLOOR:1|,WALL:16|,FLOOR:2|,FLOOR:2|,
FLOOR:2|,WALL:16|,WALL:16|,WALL:16|SCENERY:49:0|,FLOOR:1|,WALL:16|,WALL:16|,WALL:16|,WALL:16|,FLOOR:1|,WALL:16|,WALL:16|,FLOOR:1|,FLOOR:1|,WALL:16|,FLOOR:1|,FLOOR:1|,WALL:16|,FLOOR:1|,WALL:16|,FLOOR:1|SCENERY:58:0|,FLOOR:1|,FLOOR:1|,FLOOR:1|,FLOOR:1|,WALL:16|,FLOOR:5|,FLOOR:5|,FLOOR:5|,FLOOR:5|,FLOOR:5|,FLOOR:5|,FLOOR:5|,FLOOR:5|,FLOOR:5|,FLOOR:5|,WALL:16|,FLOOR:1|,FLOOR:1|SCENERY:42:0|,FLOOR:1|,FLOOR:1|,FLOOR:1|SCENERY:58:0|,WALL:16|,FLOOR:1|,WALL:16|,FLOOR:1|,FLOOR:1|,WALL:16|,FLOOR:1|,FLOOR:1|,WALL:16|,FLOOR:1|,FLOOR:1|,FLOOR:1|,WALL:16|,FLOOR:1|SCENERY:6:3|,FLOOR:1|,FLOOR:1|,WALL:16|,FLOOR:2|,FLOOR:2|,
FLOOR:2|,WALL:16|,FLOOR:1|,FLOOR:1|,FLOOR:1|,FLOOR:1|,FLOOR:1|SCENERY:24:0|,WALL:16|,FLOOR:1|,FLOOR:1|,FLOOR:1|,WALL:16|,FLOOR:1|,FLOOR:1|,WALL:16|,FLOOR:1|,FLOOR:1|,WALL:16|,FLOOR:1|,WALL:16|,WALL:16|,WALL:16|,FLOOR:1|DOOR:2|,WALL:16|,WALL:16|,WALL:16|,WALL:16|,WALL:16|,WALL:16|,WALL:16|,FLOOR:1|,FLOOR:1|,WALL:16|,WALL:16|,WALL:16|,WALL:16|,WALL:16|,WALL:16|,WALL:16|,FLOOR:1|DOOR:2|,WALL:16|,WALL:16|,WALL:16|,FLOOR:1|,WALL:16|,FLOOR:1|,FLOOR:1|,WALL:16|,FLOOR:1|,FLOOR:1|,WALL:16|,FLOOR:1|,FLOOR:1|,FLOOR:1|,WALL:16|,WALL:16|,WALL:16|,FLOOR:1|DOOR:2|,WALL:16|,FLOOR:2|,FLOOR:2|,
FLOOR:2|,WALL:16|,FLOOR:1|,FLOOR:1|,FLOOR:1|,FLOOR:1|,FLOOR:1|,WALL:16|,FLOOR:1|,FLOOR:1|,FLOOR:1|,WALL:16|,FLOOR:1|,FLOOR:1|,WALL:16|,FLOOR:1|,FLOOR:1|,WALL:16|,FLOOR:1|,FLOOR:1|,FLOOR:1|,FLOOR:1|,FLOOR:1|,FLOOR:1|,FLOOR:1|,WALL:16|,FLOOR:1|RAISED_FLOOR:79|,FLOOR:1|RAISED_FLOOR:79|,FLOOR:1|RAISED_FLOOR:79|,FLOOR:1|RAISED_FLOOR:79|,FLOOR:1|,FLOOR:1|,FLOOR:1|RAISED_FLOOR:79|,FLOOR:1|RAISED_FLOOR:79|,FLOOR:1|RAISED_FLOOR:79|,FLOOR:1|RAISED_FLOOR:79|,WALL:16|,FLOOR:1|,FLOOR:1|,FLOOR:1|,FLOOR:1|,FLOOR:1|,FLOOR:1|,FLOOR:1|,WALL:16|,FLOOR:1|,FLOOR:1|,WALL:16|,FLOOR:1|,FLOOR:1|,WALL:16|,FLOOR:1|,FLOOR:1|,FLOOR:1|,FLOOR:1|,FLOOR:1|SCENERY:55:0|,WALL:16|,FLOOR:1|,WALL:16|,FLOOR:2|,FLOOR:2|,
FLOOR:2|,WALL:16|,FLOOR:1|,FLOOR:1|,FLOOR:1|,FLOOR:1|,FLOOR:1|,WALL:16|,FLOOR:1|,FLOOR:1|,FLOOR:1|,WALL:16|,FLOOR:1|,FLOOR:1|,WALL:16|,FLOOR:1|,FLOOR:1|,WALL:16|,FLOOR:1|,WALL:16|,WALL:16|,WALL:16|,WALL:16|,WALL:16|,FLOOR:1|,WALL:16|,FLOOR:1|,FLOOR:1|SCENERY:35:0|,FLOOR:1|,FLOOR:1|SCENERY:53:0|,FLOOR:1|,FLOOR:1|,FLOOR:1|,FLOOR:1|,FLOOR:1|SCENERY:35:0|,FLOOR:1|,WALL:16|,FLOOR:1|,WALL:16|,WALL:16|,WALL:16|,WALL:16|,WALL:16|,FLOOR:1|,WALL:16|,FLOOR:1|,FLOOR:1|,WALL:16|,FLOOR:1|,FLOOR:1|,WALL:16|,WALL:16|,WALL:16|,FLOOR:1|DOOR:2|,WALL:16|,WALL:16|SCENERY:49:0|,WALL:16|,FLOOR:1|,WALL:16|,FLOOR:2|,FLOOR:2|,
FLOOR:2|,WALL:16|,FLOOR:1|,FLOOR:1|,FLOOR:1|,FLOOR:1|,FLOOR:1|,WALL:16|,FLOOR:1|,FLOOR:1|SCENERY:53:0|,FLOOR:1|,WALL:16|,FLOOR:1|,FLOOR:1|,WALL:16|,FLOOR:1|,FLOOR:1|,WALL:16|,FLOOR:1|,FLOOR:1|,FLOOR:1|,FLOOR:1|SCENERY:56:0|,FLOOR:1|,WALL:16|,FLOOR:1|,FLOOR:1|DOOR:1|,FLOOR:1|,FLOOR:1|,FLOOR:1|,FLOOR:1|,FLOOR:1|,FLOOR:1|,FLOOR:1|,FLOOR:1|,FLOOR:1|,FLOOR:1|,FLOOR:1|DOOR:1|,FLOOR:1|,WALL:16|,FLOOR:1|SCENERY:6:0|,FLOOR:1|,FLOOR:1|,FLOOR:1|,FLOOR:1|,WALL:16|,FLOOR:1|,FLOOR:1|,WALL:16|,FLOOR:1|,FLOOR:1|,WALL:16|,FLOOR:1|,FLOOR:1|,FLOOR:1|,FLOOR:1|SCENERY:53:0|,FLOOR:1|,WALL:16|,FLOOR:1|,WALL:16|,FLOOR:2|,FLOOR:2|,
FLOOR:2|,WALL:16|,FLOOR:1|,FLOOR:1|SCENERY:53:0|,FLOOR:1|,FLOOR:1|,FLOOR:1|,WALL:16|,FLOOR:1|,FLOOR:1|,FLOOR:1|,WALL:16|,FLOOR:1|,FLOOR:1|,WALL:16|,FLOOR:1|,FLOOR:1|,WALL:16|,FLOOR:1|,FLOOR:1|,FLOOR:1|,FLOOR:1|,FLOOR:1|,WALL:16|,FLOOR:1|,WALL:16|,FLOOR:1|,FLOOR:1|SCENERY:35:0|,FLOOR:1|,FLOOR:1|,FLOOR:1|,FLOOR:1|,FLOOR:1|,FLOOR:1|,FLOOR:1|SCENERY:35:0|,FLOOR:1|,WALL:16|,FLOOR:1|,WALL:16|,FLOOR:1|,FLOOR:1|,FLOOR:1|,FLOOR:1|,FLOOR:1|,WALL:16|,FLOOR:1|,FLOOR:1|,WALL:16|,FLOOR:1|,FLOOR:1|,FLOOR:1|,FLOOR:1|,FLOOR:1|,FLOOR:1|,FLOOR:1|,FLOOR:1|,FLOOR:1|,FLOOR:1|,WALL:16|,FLOOR:2|,FLOOR:2|,
FLOOR:2|,WALL:16|,FLOOR:1|,FLOOR:1|,FLOOR:1|,FLOOR:1|,FLOOR:1|,WALL:16|,FLOOR:1|,FLOOR:1|,FLOOR:1|,WALL:16|,FLOOR:1|,FLOOR:1|,WALL:16|,FLOOR:1|,FLOOR:1|,FLOOR:1|,FLOOR:1|,FLOOR:1|,FLOOR:1|,FLOOR:1|,FLOOR:1|,WALL:16|,FLOOR:1|,WALL:16|,FLOOR:1|,FLOOR:1|,FLOOR:1|,FLOOR:1|,FLOOR:1|,FLOOR:1|,FLOOR:1|,FLOOR:1|,FLOOR:1|,FLOOR:1|SCENERY:8:0|,WALL:16|,FLOOR:1|,WALL:16|,FLOOR:1|,FLOOR:1|,FLOOR:1|,FLOOR:1|,FLOOR:1|,FLOOR:1|,FLOOR:1|,FLOOR:1|,WALL:16|,FLOOR:1|,FLOOR:1|,WALL:16|,FLOOR:1|,WALL:16|,WALL:16|,WALL:16|,FLOOR:1|,WALL:16|,FLOOR:1|,WALL:16|,FLOOR:2|,FLOOR:2|,
FLOOR:2|,WALL:16|,FLOOR:1|,FLOOR:1|,FLOOR:1|,FLOOR:1|,FLOOR:1|,WALL:16|,FLOOR:1|,FLOOR:1|,FLOOR:1|SCENERY:9:0|,WALL:16|,FLOOR:1|,FLOOR:1|,WALL:16|,FLOOR:1|,FLOOR:1|,FLOOR:1|,FLOOR:1|,FLOOR:1|,FLOOR:1|,FLOOR:1|,FLOOR:1|,WALL:16|,FLOOR:1|,WALL:16|,WALL:16|,WALL:16|,WALL:16|SCENERY:48:0|,WALL:16|,FLOOR:1|,FLOOR:1|,WALL:16|,WALL:16|,WALL:16|,WALL:16|,WALL:16|,FLOOR:1|,FLOOR:1|DOOR:1|,FLOOR:1|,FLOOR:1|,FLOOR:1|,FLOOR:1|,FLOOR:1|SCENERY:53:0|,FLOOR:1|,FLOOR:1|,FLOOR:1|,WALL:16|,FLOOR:1|,FLOOR:1|,WALL:16|,FLOOR:1|,FLOOR:1|,WALL:16|,FLOOR:1|,FLOOR:1|,WALL:16|,FLOOR:1|,WALL:16|,FLOOR:2|,FLOOR:2|,
FLOOR:2|,WALL:16|,WALL:16|,WALL:16|,FLOOR:1|DOOR:2|,WALL:16|,WALL:16|,WALL:16|,WALL:16|,FLOOR:1|,WALL:16|,WALL:16|,FLOOR:1|,FLOOR:1|,WALL:16|,FLOOR:1|,FLOOR:1|,FLOOR:1|,FLOOR:1|,FLOOR:1|SCENERY:53:0|,FLOOR:1|,FLOOR:1|,FLOOR:1|,WALL:16|,FLOOR:1|,WALL:16|,FLOOR:1|,FLOOR:1|,FLOOR:1|,FLOOR:1|,FLOOR:1|,FLOOR:1|,FLOOR:1|,FLOOR:1|,FLOOR:1|,FLOOR:1|,WALL:16|,FLOOR:1|,WALL:16|,FLOOR:1|,FLOOR:1|,FLOOR:1|,FLOOR:1|,FLOOR:1|,FLOOR:1|,FLOOR:1|,FLOOR:1|,WALL:16|,FLOOR:1|,FLOOR:1|,WALL:16|,FLOOR:1|,FLOOR:1|,WALL:16|,FLOOR:1|,FLOOR:1|,WALL:16|,FLOOR:1|,WALL:16|,FLOOR:2|,FLOOR:2|,
FLOOR:2|,WALL:16|,FLOOR:1|SCENERY:24:0|,FLOOR:1|,FLOOR:1|,FLOOR:1|,FLOOR:1|,WALL:16|,FLOOR:1|,FLOOR:1|,FLOOR:1|,WALL:16|,FLOOR:1|,FLOOR:1|,WALL:16|,FLOOR:1|,FLOOR:1|,WALL:16|,FLOOR:1|,FLOOR:1|,FLOOR:1|,FLOOR:1|,FLOOR:1|,WALL:16|,FLOOR:1|,FLOOR:1|DOOR:1|,FLOOR:1|,FLOOR:1|,FLOOR:1|,FLOOR:1|,FLOOR:1|,FLOOR:1|,FLOOR:1|,FLOOR:1|,FLOOR:1|,FLOOR:1|,FLOOR:1|DOOR:1|,FLOOR:1|,WALL:16|,FLOOR:1|SCENERY:56:0|,FLOOR:1|,FLOOR:1|,FLOOR:1|,FLOOR:1|,WALL:16|,FLOOR:1|,FLOOR:1|,WALL:16|,FLOOR:1|,FLOOR:1|,WALL:16|,FLOOR:1|SCENERY:56:0|,FLOOR:1|,WALL:16|,FLOOR:1|,FLOOR:1|,WALL:16|,FLOOR:1|,WALL:16|,FLOOR:2|,FLOOR:2|,
FLOOR:2|,WALL:16|,FLOOR:1|,FLOOR:1|,FLOOR:1|,FLOOR:1|,FLOOR:1|,WALL:16|,FLOOR:1|,FLOOR:1|,FLOOR:1|,WALL:16|,FLOOR:1|,FLOOR:1|,WALL:16|,FLOOR:1|,FLOOR:1|,WALL:16|,FLOOR:1|SCENERY:8:0|,FLOOR:1|,FLOOR:1|,FLOOR:1|,FLOOR:1|,WALL:16|,FLOOR:1|,WALL:16|,FLOOR:1|SCENERY:7:2|,FLOOR:1|,FLOOR:1|,FLOOR:1|,FLOOR:1|,FLOOR:1|,FLOOR:1|,FLOOR:1|,FLOOR:1|,FLOOR:1|SCENERY:4:3|,WALL:16|,FLOOR:1|,WALL:16|,FLOOR:1|,FLOOR:1|,FLOOR:1|,FLOOR:1|,FLOOR:1|,WALL:16|,FLOOR:1|,FLOOR:1|,WALL:16|,FLOOR:1|,FLOOR:1|,WALL:16|,FLOOR:1|,FLOOR:1|,WALL:16|,FLOOR:1|,FLOOR:1|,WALL:16|,FLOOR:1|,WALL:16|,FLOOR:2|,FLOOR:2|,
FLOOR:2|,WALL:16|,FLOOR:1|,FLOOR:1|,FLOOR:1|,FLOOR:1|SCENERY:53:0|,FLOOR:1|,WALL:16|,FLOOR:1|,FLOOR:1|,FLOOR:1|,WALL:16|,FLOOR:1|,FLOOR:1|,FLOOR:1|,FLOOR:1|,FLOOR:1|,WALL:16|,WALL:16|,WALL:16|,WALL:16|,WALL:16|,FLOOR:1|,WALL:16|,FLOOR:1|,WALL:16|,WALL:16|,WALL:16|,WALL:16|,WALL:16|,WALL:16|,WALL:16|,WALL:16|,WALL:16|,WALL:16|,WALL:16|,WALL:16|,FLOOR:1|,WALL:16|,WALL:16|,WALL:16|,WALL:16|,WALL:16|,FLOOR:1|,WALL:16|,FLOOR:1|,FLOOR:1|,FLOOR:1|,FLOOR:1|,FLOOR:1|,WALL:16|,WALL:16|,FLOOR:1|DOOR:2|,WALL:16|,FLOOR:1|DOOR:2|,WALL:16|,WALL:16|,FLOOR:1|,WALL:16|,FLOOR:2|,FLOOR:2|,
FLOOR:2|,WALL:16|,FLOOR:1|,FLOOR:1|,FLOOR:1|,FLOOR:1|,FLOOR:1|,FLOOR:1|,FLOOR:1|,FLOOR:1|,FLOOR:1|,FLOOR:1|,FLOOR:1|SCENERY:56:0|,FLOOR:1|,FLOOR:1|,FLOOR:1|,FLOOR:1|,FLOOR:1|,FLOOR:1|,FLOOR:1|,FLOOR:1|,FLOOR:1|,FLOOR:1|,FLOOR:1|,FLOOR:1|,FLOOR:1|,FLOOR:1|,FLOOR:1|,FLOOR:1|,FLOOR:1|,FLOOR:1|,FLOOR:1|,FLOOR:1|,FLOOR:1|,FLOOR:1|,FLOOR:1|,FLOOR:1|,FLOOR:1|,FLOOR:1|,FLOOR:1|,FLOOR:1|,FLOOR:1|,FLOOR:1|,FLOOR:1|,FLOOR:1|,FLOOR:1|,FLOOR:1|,FLOOR:1|,FLOOR:1|,FLOOR:1|,WALL:16|,FLOOR:1|,FLOOR:1|,FLOOR:1|,FLOOR:1|,FLOOR:1|SCENERY:9:0|,WALL:16|,FLOOR:1|,WALL:16|,FLOOR:2|,FLOOR:2|,
FLOOR:2|,WALL:16|,FLOOR:1|,FLOOR:1|SCENERY:8:0|,FLOOR:1|,FLOOR:1|,FLOOR:1|,FLOOR:1|,FLOOR:1|,FLOOR:1|,FLOOR:1|,FLOOR:1|,FLOOR:1|,FLOOR:1|,WALL:16|,FLOOR:1|,FLOOR:1|,FLOOR:1|,FLOOR:1|,FLOOR:1|,FLOOR:1|,FLOOR:1|,FLOOR:1|,FLOOR:1|SCENERY:53:0|,FLOOR:1|,FLOOR:1|,FLOOR:1|,FLOOR:1|,FLOOR:1|,FLOOR:1|,FLOOR:1|,FLOOR:1|,FLOOR:1|,FLOOR:1|,FLOOR:1|,FLOOR:1|,FLOOR:1|,FLOOR:1|,FLOOR:1|,FLOOR:1|SCENERY:53:0|,FLOOR:1|,FLOOR:1|,FLOOR:1|,FLOOR:1|,FLOOR:1|,FLOOR:1|,FLOOR:1|SCENERY:23:0|,WALL:16|,FLOOR:1|,FLOOR:1|,WALL:16|,FLOOR:1|,FLOOR:1|,FLOOR:1|,FLOOR:1|,FLOOR:1|,WALL:16|,FLOOR:1|,WALL:16|,FLOOR:2|,FLOOR:2|,
FLOOR:2|,WALL:16|,FLOOR:1|,FLOOR:1|,FLOOR:1|,FLOOR:1|,FLOOR:1|,WALL:16|,FLOOR:1|,FLOOR:1|,FLOOR:1|,WALL:16|,FLOOR:1|,FLOOR:1|,WALL:16|,WALL:16|,FLOOR:1|,FLOOR:1|,WALL:16|,WALL:16|,WALL:16|,WALL:16|,WALL:16|,WALL:16|,WALL:16|,WALL:16|,WALL:16|,WALL:16|,WALL:16|,WALL:16|,FLOOR:1|,FLOOR:1|,WALL:16|,WALL:16|,WALL:16|,WALL:16|,WALL:16|,WALL:16|,WALL:16|,WALL:16|,WALL:16|,WALL:16|,WALL:16|,WALL:16|,FLOOR:1|,FLOOR:1|,WALL:16|,WALL:16|,FLOOR:1|,FLOOR:1|,WALL:16|,FLOOR:1|,FLOOR:1|,FLOOR:1|SCENERY:53:0|,FLOOR:1|,FLOOR:1|,WALL:16|,FLOOR:1|,WALL:16|,FLOOR:2|,FLOOR:2|,
FLOOR:2|,WALL:16|,FLOOR:1|,FLOOR:1|,FLOOR:1|,FLOOR:1|,FLOOR:1|,WALL:16|,FLOOR:1|,FLOOR:1|SCENERY:53:0|,FLOOR:1|,WALL:16|,FLOOR:1|,FLOOR:1|,FLOOR:1|,FLOOR:1|,FLOOR:1|,FLOOR:1|,FLOOR:1|,FLOOR:1|,FLOOR:1|,FLOOR:1|,FLOOR:1|,FLOOR:1|,FLOOR:1|,FLOOR:1|,FLOOR:1|,FLOOR:1|,FLOOR:1|,FLOOR:1|,FLOOR:1|,FLOOR:1|,FLOOR:1|SCENERY:53:0|,FLOOR:1|,FLOOR:1|,FLOOR:1|,FLOOR:1|,FLOOR:1|,FLOOR:1|,FLOOR:1|,FLOOR:1|,FLOOR:1|,FLOOR:1|,FLOOR:1|,FLOOR:1|,FLOOR:1|,FLOOR:1|,FLOOR:1|,FLOOR:1|,FLOOR:1|,WALL:16|,FLOOR:1|,FLOOR:1|,FLOOR:1|,FLOOR:1|,FLOOR:1|,WALL:16|,FLOOR:1|,WALL:16|,FLOOR:2|,FLOOR:2|,
FLOOR:2|,WALL:16|,FLOOR:1|,FLOOR:1|,FLOOR:1|,FLOOR:1|,FLOOR:1|,WALL:16|,FLOOR:1|,FLOOR:1|,FLOOR:1|,WALL:16|,FLOOR:1|,FLOOR:1|,FLOOR:1|,FLOOR:1|,FLOOR:1|,FLOOR:1|,FLOOR:1|,FLOOR:1|,FLOOR:1|,FLOOR:1|,FLOOR:1|,FLOOR:1|,FLOOR:1|,FLOOR:1|,FLOOR:1|,FLOOR:1|,FLOOR:1|,FLOOR:1|,FLOOR:1|,FLOOR:1|,FLOOR:1|,FLOOR:1|,FLOOR:1|,FLOOR:1|,FLOOR:1|,FLOOR:1|,FLOOR:1|,FLOOR:1|,FLOOR:1|,FLOOR:1|,FLOOR:1|,FLOOR:1|,FLOOR:1|,FLOOR:1|,FLOOR:1|,FLOOR:1|,FLOOR:1|,FLOOR:1|,WALL:16|,FLOOR:1|,FLOOR:1|,FLOOR:1|,FLOOR:1|,FLOOR:1|,WALL:16|,FLOOR:1|SCENERY:23:0|,WALL:16|,FLOOR:2|,FLOOR:2|,
FLOOR:2|,WALL:16|,WALL:16|,WALL:16|SCENERY:43:0|,FLOOR:1|DOOR:2|,WALL:16|SCENERY:43:0|,WALL:16|,WALL:16|,WALL:16|,WALL:16|,WALL:16|,WALL:16|,WALL:16|,WALL:16|,FLOOR:1|,FLOOR:1|,WALL:16|,WALL:16|,WALL:16|,WALL:16|,WALL:16|,WALL:16|,WALL:16|,WALL:16|,WALL:16|,WALL:16|,FLOOR:1|,WALL:16|,WALL:16|,WALL:16|,FLOOR:1|,FLOOR:1|,WALL:16|,WALL:16|,WALL:16|,FLOOR:1|,WALL:16|,WALL:16|,WALL:16|,WALL:16|,WALL:16|,WALL:16|SCENERY:49:0|,WALL:16|,WALL:16|,WALL:16|,WALL:16|,WALL:16|,FLOOR:1|,WALL:16|,WALL:16|,WALL:16|,WALL:16|,WALL:16|SCENERY:43:0|,FLOOR:1|DOOR:2|,WALL:16|SCENERY:43:0|,WALL:16|,WALL:16|,WALL:16|,WALL:16|,FLOOR:2|,FLOOR:2|,
FLOOR:2|,WALL:16|,FLOOR:3|OWNER:2|DEPLOY:2|,FLOOR:3|OWNER:2|DEPLOY:2|,FLOOR:3|OWNER:2|DEPLOY:2|,FLOOR:3|OWNER:2|DEPLOY:2|,FLOOR:3|OWNER:2|DEPLOY:2|,FLOOR:3|OWNER:2|DEPLOY:2|,FLOOR:3|OWNER:2|DEPLOY:2|,WALL:16|,FLOOR:1|,FLOOR:1|,FLOOR:1|,FLOOR:1|,FLOOR:1|,FLOOR:1|,WALL:16|,FLOOR:1|,FLOOR:1|,FLOOR:1|,WALL:16|,FLOOR:1|,FLOOR:1|,FLOOR:1|,FLOOR:1|,FLOOR:1|,FLOOR:1|,FLOOR:1|,WALL:16|,FLOOR:1|,FLOOR:1|,FLOOR:1|,FLOOR:1|,WALL:16|,FLOOR:1|,FLOOR:1|,FLOOR:1|,WALL:16|,FLOOR:1|SCENERY:7:3|,FLOOR:1|,FLOOR:1|,FLOOR:1|,FLOOR:1|,WALL:16|,FLOOR:1|,FLOOR:1|,WALL:16|,FLOOR:1|,FLOOR:1|,FLOOR:1|,WALL:16|,FLOOR:3|OWNER:4|DEPLOY:4|,FLOOR:3|OWNER:4|DEPLOY:4|,FLOOR:3|OWNER:4|DEPLOY:4|,FLOOR:3|OWNER:4|DEPLOY:4|,FLOOR:3|OWNER:4|DEPLOY:4|,FLOOR:3|OWNER:4|DEPLOY:4|,FLOOR:3|OWNER:4|DEPLOY:4|,WALL:16|,FLOOR:2|,FLOOR:2|,
FLOOR:2|,WALL:16|,FLOOR:3|OWNER:2|DEPLOY:2|,FLOOR:3|OWNER:2|DEPLOY:2|,FLOOR:3|OWNER:2|DEPLOY:2|,FLOOR:3|OWNER:2|DEPLOY:2|,FLOOR:3|OWNER:2|DEPLOY:2|,FLOOR:3|OWNER:2|DEPLOY:2|,FLOOR:3|OWNER:2|DEPLOY:2|,WALL:16|,FLOOR:1|SCENERY:26:0|,FLOOR:1|,FLOOR:1|,FLOOR:1|,FLOOR:1|,FLOOR:1|,WALL:16|,FLOOR:1|,FLOOR:1|,FLOOR:1|,WALL:16|,WALL:16|,FLOOR:1|DOOR:2|,WALL:16|,WALL:16|,FLOOR:1|,FLOOR:1|,FLOOR:1|,WALL:16|,FLOOR:1|,FLOOR:1|,FLOOR:1|,FLOOR:1|,WALL:16|,FLOOR:1|,FLOOR:1|,FLOOR:1|,FLOOR:1|DOOR:1|,FLOOR:1|,FLOOR:1|,FLOOR:1|,FLOOR:1|SCENERY:53:0|,FLOOR:1|,FLOOR:1|DOOR:1|,FLOOR:1|,FLOOR:1|,WALL:16|,FLOOR:1|,FLOOR:1|,FLOOR:1|,WALL:16|,FLOOR:3|OWNER:4|DEPLOY:4|,FLOOR:3|OWNER:4|DEPLOY:4|,FLOOR:3|OWNER:4|DEPLOY:4|SCENERY:8:0|,FLOOR:3|OWNER:4|DEPLOY:4|,FLOOR:3|OWNER:4|DEPLOY:4|,FLOOR:3|OWNER:4|DEPLOY:4|,FLOOR:3|OWNER:4|DEPLOY:4|,WALL:16|,FLOOR:2|,FLOOR:2|,
FLOOR:2|,WALL:16|,FLOOR:3|OWNER:2|DEPLOY:2|,FLOOR:3|OWNER:2|DEPLOY:2|,FLOOR:3|OWNER:2|DEPLOY:2|,FLOOR:3|OWNER:2|DEPLOY:2|,FLOOR:3|OWNER:2|DEPLOY:2|,FLOOR:3|OWNER:2|DEPLOY:2|,FLOOR:3|OWNER:2|DEPLOY:2|,WALL:16|,FLOOR:1|,FLOOR:1|,FLOOR:1|,FLOOR:1|SCENERY:53:0|,FLOOR:1|,FLOOR:1|,FLOOR:1|DOOR:1|,FLOOR:1|,FLOOR:1|,FLOOR:1|,WALL:16|,FLOOR:1|,FLOOR:1|,FLOOR:1|SCENERY:57:0|,WALL:16|,FLOOR:1|,FLOOR:1|,FLOOR:1|SCENERY:53:0|,FLOOR:1|DOOR:1|,FLOOR:1|,FLOOR:1|,FLOOR:1|,FLOOR:1|,FLOOR:1|,FLOOR:1|,FLOOR:1|,FLOOR:1|,WALL:16|,FLOOR:1|,FLOOR:1|,FLOOR:1|,FLOOR:1|,FLOOR:1|,WALL:16|,FLOOR:1|,FLOOR:1|,WALL:16|,WALL:16|,WALL:16|,FLOOR:1|,WALL:16|,FLOOR:3|OWNER:4|DEPLOY:4|,FLOOR:3|OWNER:4|DEPLOY:4|,FLOOR:3|OWNER:4|DEPLOY:4|,FLOOR:3|OWNER:4|DEPLOY:4|,FLOOR:3|OWNER:4|DEPLOY:4|,FLOOR:3|OWNER:4|DEPLOY:4|,FLOOR:3|OWNER:4|DEPLOY:4|,WALL:16|,FLOOR:2|,FLOOR:2|,
FLOOR:2|,WALL:16|,FLOOR:3|OWNER:2|DEPLOY:2|,FLOOR:3|OWNER:2|DEPLOY:2|,FLOOR:3|OWNER:2|DEPLOY:2|,FLOOR:3|OWNER:2|DEPLOY:2|,FLOOR:3|OWNER:2|DEPLOY:2|,FLOOR:3|OWNER:2|DEPLOY:2|,FLOOR:3|OWNER:2|DEPLOY:2|,FLOOR:1|DOOR:1|,FLOOR:1|,FLOOR:1|,FLOOR:1|,FLOOR:1|,FLOOR:1|,FLOOR:1|,WALL:16|,FLOOR:1|,FLOOR:1|,FLOOR:1|,FLOOR:1|DOOR:1|,FLOOR:1|,FLOOR:1|,FLOOR:1|SCENERY:58:0|,WALL:16|,FLOOR:1|,FLOOR:1|,FLOOR:1|,WALL:16|,FLOOR:1|,FLOOR:1|,FLOOR:1|,FLOOR:1|,FLOOR:1|,FLOOR:1|,FLOOR:1|,FLOOR:1|,WALL:16|,WALL:16|,WALL:16|,FLOOR:1|DOOR:2|,WALL:16|,WALL:16|,WALL:16|,FLOOR:1|,FLOOR:1|,FLOOR:1|,FLOOR:1|,FLOOR:1|,FLOOR:1|,FLOOR:1|DOOR:1|,FLOOR:3|OWNER:4|DEPLOY:4|,FLOOR:3|OWNER:4|DEPLOY:4|,FLOOR:3|OWNER:4|DEPLOY:4|,FLOOR:3|OWNER:4|DEPLOY:4|,FLOOR:3|OWNER:4|DEPLOY:4|,FLOOR:3|OWNER:4|DEPLOY:4|,FLOOR:3|OWNER:4|DEPLOY:4|,WALL:16|,FLOOR:2|,FLOOR:2|,
FLOOR:2|,WALL:16|,FLOOR:3|OWNER:2|DEPLOY:2|,FLOOR:3|OWNER:2|DEPLOY:2|,FLOOR:3|OWNER:2|DEPLOY:2|,FLOOR:3|OWNER:2|DEPLOY:2|,FLOOR:3|OWNER:2|DEPLOY:2|,FLOOR:3|OWNER:2|DEPLOY:2|,FLOOR:3|OWNER:2|DEPLOY:2|,WALL:16|,FLOOR:1|,FLOOR:1|,FLOOR:1|SCENERY:9:0|,FLOOR:1|,FLOOR:1|,FLOOR:1|SCENERY:23:0|,WALL:16|,FLOOR:1|,FLOOR:1|,FLOOR:1|,WALL:16|,FLOOR:1|,FLOOR:1|,FLOOR:1|,WALL:16|,FLOOR:1|,FLOOR:1|,FLOOR:1|,WALL:16|,FLOOR:1|,FLOOR:1|,FLOOR:1|,FLOOR:1|,WALL:16|,FLOOR:1|,FLOOR:1|SCENERY:53:0|,FLOOR:1|,WALL:16|,FLOOR:1|,FLOOR:1|,FLOOR:1|,FLOOR:1|,FLOOR:1|,FLOOR:1|,FLOOR:1|,FLOOR:1|,FLOOR:1|,FLOOR:1|,FLOOR:1|,FLOOR:1|,WALL:16|,FLOOR:3|OWNER:4|DEPLOY:4|,FLOOR:3|OWNER:4|DEPLOY:4|,FLOOR:3|OWNER:4|DEPLOY:4|,FLOOR:3|OWNER:4|DEPLOY:4|,FLOOR:3|OWNER:4|DEPLOY:4|,FLOOR:3|OWNER:4|DEPLOY:4|,FLOOR:3|OWNER:4|DEPLOY:4|,WALL:16|,FLOOR:2|,FLOOR:2|,
FLOOR:2|,WALL:16|,FLOOR:3|OWNER:2|DEPLOY:2|,FLOOR:3|OWNER:2|DEPLOY:2|,FLOOR:3|OWNER:2|DEPLOY:2|,FLOOR:3|OWNER:2|DEPLOY:2|,FLOOR:3|OWNER:2|DEPLOY:2|,FLOOR:3|OWNER:2|DEPLOY:2|,FLOOR:3|OWNER:2|DEPLOY:2|,WALL:16|,WALL:16|,WALL:16|,WALL:16|,FLOOR:1|,FLOOR:1|,WALL:16|,WALL:16|,WALL:16|,WALL:16|,WALL:16|,WALL:16|,WALL:16|,WALL:16|,WALL:16|,WALL:16|,WALL:16|,FLOOR:1|,WALL:16|,WALL:16|,WALL:16|,FLOOR:1|,FLOOR:1|,WALL:16|,WALL:16|,WALL:16|,FLOOR:1|,WALL:16|,WALL:16|,WALL:16|,WALL:16|,WALL:16|,WALL:16|,WALL:16|,WALL:16|,WALL:16|,WALL:16|,WALL:16|,WALL:16|,WALL:16|,FLOOR:1|,WALL:16|,FLOOR:3|OWNER:4|DEPLOY:4|,FLOOR:3|OWNER:4|DEPLOY:4|,FLOOR:3|OWNER:4|DEPLOY:4|,FLOOR:3|OWNER:4|DEPLOY:4|,FLOOR:3|OWNER:4|DEPLOY:4|,FLOOR:3|OWNER:4|DEPLOY:4|,FLOOR:3|OWNER:4|DEPLOY:4|,WALL:16|,FLOOR:2|,FLOOR:2|,
FLOOR:2|,WALL:16|,FLOOR:3|OWNER:2|DEPLOY:2|,FLOOR:3|OWNER:2|DEPLOY:2|,FLOOR:3|OWNER:2|DEPLOY:2|,FLOOR:3|OWNER:2|DEPLOY:2|,FLOOR:3|OWNER:2|DEPLOY:2|,FLOOR:3|OWNER:2|DEPLOY:2|,FLOOR:3|OWNER:2|DEPLOY:2|,WALL:16|,FLOOR:1|,FLOOR:1|,FLOOR:1|,FLOOR:1|,FLOOR:1|,FLOOR:1|,FLOOR:1|,FLOOR:1|,FLOOR:1|,FLOOR:1|,FLOOR:1|SCENERY:53:0|,FLOOR:1|,FLOOR:1|,FLOOR:1|,FLOOR:1|,FLOOR:1|,FLOOR:1|,FLOOR:1|,FLOOR:1|,FLOOR:1|,FLOOR:1|,FLOOR:1|,FLOOR:1|,FLOOR:1|,FLOOR:1|,FLOOR:1|,FLOOR:1|,FLOOR:1|,FLOOR:1|,FLOOR:1|,FLOOR:1|,FLOOR:1|,FLOOR:1|,FLOOR:1|,FLOOR:1|,FLOOR:1|,FLOOR:1|,FLOOR:1|,FLOOR:1|,FLOOR:1|,WALL:16|,FLOOR:3|OWNER:4|DEPLOY:4|,FLOOR:3|OWNER:4|DEPLOY:4|,FLOOR:3|OWNER:4|DEPLOY:4|,FLOOR:3|OWNER:4|DEPLOY:4|,FLOOR:3|OWNER:4|DEPLOY:4|,FLOOR:3|OWNER:4|DEPLOY:4|,FLOOR:3|OWNER:4|DEPLOY:4|,WALL:16|,FLOOR:2|,FLOOR:2|,
FLOOR:2|,WALL:16|,WALL:16|,WALL:16|,WALL:16|,WALL:16|,WALL:16|,WALL:16|,WALL:16|,WALL:16|,WALL:16|,WALL:16|,WALL:16|,WALL:16|,WALL:16|,WALL:16|,WALL:16|,WALL:16|,WALL:16|,WALL:16|,WALL:16|,WALL:16|,WALL:16|,WALL:16|,WALL:16|,WALL:16|,WALL:16|,WALL:16|,WALL:16|,WALL:16|,WALL:16|,WALL:16|,WALL:16|,WALL:16|,WALL:16|,WALL:16|,WALL:16|,WALL:16|,WALL:16|,WALL:16|,WALL:16|,WALL:16|,WALL:16|,WALL:16|,WALL:16|,WALL:16|,WALL:16|,WALL:16|,WALL:16|,WALL:16|,WALL:16|,WALL:16|,WALL:16|,WALL:16|,WALL:16|,WALL:16|,WALL:16|,WALL:16|,WALL:16|,FLOOR:2|,FLOOR:2|,
FLOOR:2|,FLOOR:2|,FLOOR:2|,FLOOR:2|,FLOOR:2|,FLOOR:2|,FLOOR:2|,FLOOR:2|,FLOOR:2|,FLOOR:2|,FLOOR:2|,FLOOR:2|,FLOOR:2|,FLOOR:2|,FLOOR:2|,FLOOR:2|,FLOOR:2|,FLOOR:2|,FLOOR:2|,FLOOR:2|,FLOOR:2|,FLOOR:2|,FLOOR:2|,FLOOR:2|,FLOOR:2|,FLOOR:2|,FLOOR:2|,FLOOR:2|,FLOOR:2|,FLOOR:2|,FLOOR:2|,FLOOR:2|,FLOOR:2|,FLOOR:2|,FLOOR:2|,FLOOR:2|,FLOOR:2|,FLOOR:2|,FLOOR:2|,FLOOR:2|,FLOOR:2|,FLOOR:2|,FLOOR:2|,FLOOR:2|,FLOOR:2|,FLOOR:2|,FLOOR:2|,FLOOR:2|,FLOOR:2|,FLOOR:2|,FLOOR:2|,FLOOR:2|,FLOOR:2|,FLOOR:2|,FLOOR:2|,FLOOR:2|,FLOOR:2|,FLOOR:2|,FLOOR:2|,FLOOR:2|,FLOOR:2|,

