62,1.87
FLOOR:7|DEPLOY:1|,FLOOR:7|DEPLOY:1|,FLOOR:7|DEPLOY:1|,FLOOR:7|DEPLOY:1|,FLOOR:7|DEPLOY:1|,FLOOR:7|DEPLOY:1|,FLOOR:7|,FLOOR:7|,FLOOR:7|,FLOOR:7|,FLOOR:7|,FLOOR:7|,FLOOR:7|,FLOOR:7|,FLOOR:7|,FLOOR:7|,FLOOR:7|,FLOOR:7|,FLOOR:7|,FLOOR:7|,FLOOR:7|,FLOOR:7|,FLOOR:7|,FLOOR:7|,FLOOR:7|,FLOOR:7|,FLOOR:7|,FLOOR:7|,FLOOR:7|,FLOOR:6|,FLOOR:6|,FLOOR:6|,FLOOR:6|RAISED_FLOOR:33|,FLOOR:6|,FLOOR:7|SCENERY:10:0|,FLOOR:7|,FLOOR:7|,FLOOR:7|,FLOOR:7|,FLOOR:7|,FLOOR:7|,FLOOR:7|,FLOOR:7|,FLOOR:7|,FLOOR:7|,FLOOR:7|,FLOOR:7|,FLOOR:7|,FLOOR:7|,FLOOR:7|,FLOOR:7|,FLOOR:7|,FLOOR:7|,FLOOR:7|,FLOOR:7|,FLOOR:7|DEPLOY:1|,FLOOR:7|DEPLOY:1|,FLOOR:7|DEPLOY:1|,FLOOR:7|DEPLOY:1|,FLOOR:7|DEPLOY:1|,FLOOR:7|DEPLOY:1|,FLOOR:7|DEPLOY:1|,
FLOOR:7|DEPLOY:1|,FLOOR:7|DEPLOY:1|,FLOOR:7|DEPLOY:1|,FLOOR:7|DEPLOY:1|,FLOOR:7|DEPLOY:1|,FLOOR:7|DEPLOY:1|,FLOOR:7|,FLOOR:7|,FLOOR:7|,FLOOR:7|,FLOOR:7|,FLOOR:7|,FLOOR:7|,FLOOR:7|,FLOOR:7|,FLOOR:7|,FLOOR:7|,FLOOR:7|,FLOOR:7|,FLOOR:7|,FLOOR:7|,FLOOR:7|,FLOOR:7|,FLOOR:7|,FLOOR:7|,FLOOR:7|,FLOOR:7|,FLOOR:7|,FLOOR:7|,FLOOR:6|,FLOOR:6|,FLOOR:6|,FLOOR:6|RAISED_FLOOR:33|,FLOOR:6|,FLOOR:7|SCENERY:10:0|,FLOOR:7|,FLOOR:7|,FLOOR:7|,FLOOR:7|,FLOOR:7|,FLOOR:7|,FLOOR:7|,FLOOR:7|,FLOOR:7|,FLOOR:7|,FLOOR:7|,FLOOR:7|,FLOOR:7|,FLOOR:7|,FLOOR:7|,FLOOR:7|,FLOOR:7|,FLOOR:7|,FLOOR:7|,FLOOR:7|,FLOOR:7|DEPLOY:1|,FLOOR:7|DEPLOY:1|,FLOOR:7|DEPLOY:1|,FLOOR:7|DEPLOY:1|,FLOOR:7|DEPLOY:1|,FLOOR:7|DEPLOY:1|,FLOOR:7|DEPLOY:1|,
FLOOR:7|DEPLOY:1|,WALL:17|,WALL:17|,WALL:17|,WALL:17|,WALL:17|,FLOOR:7|,FLOOR:7|,FLOOR:7|,FLOOR:7|,FLOOR:7|,FLOOR:7|,FLOOR:7|,FLOOR:7|,FLOOR:7|,FLOOR:7|,FLOOR:7|,FLOOR:7|,FLOOR:7|,FLOOR:7|,FLOOR:7|,FLOOR:7|,FLOOR:7|,WALL:17|,WALL:17|,WALL:17|,WALL:17|,WALL:17|,FLOOR:7|,FLOOR:6|,FLOOR:6|,FLOOR:6|,FLOOR:6|RAISED_FLOOR:33|,FLOOR:6|,FLOOR:7|SCENERY:10:0|,FLOOR:7|,FLOOR:7|,FLOOR:7|,FLOOR:7|,FLOOR:7|,FLOOR:7|,FLOOR:7|,FLOOR:7|,FLOOR:7|,FLOOR:7|,FLOOR:7|,FLOOR:7|,FLOOR:7|,FLOOR:7|,FLOOR:7|,FLOOR:7|,FLOOR:7|,FLOOR:7|,FLOOR:7|,FLOOR:7|,FLOOR:7|,FLOOR:7|,FLOOR:7|,FLOOR:7|,FLOOR:7|,FLOOR:7|DEPLOY:1|,FLOOR:7|DEPLOY:1|,
FLOOR:7|DEPLOY:1|,WALL:17|,FLOOR:10|SCENERY:7:3|,FLOOR:10|,FLOOR:10|,WALL:17|,FLOOR:7|,FLOOR:7|,FLOOR:7|,FLOOR:7|,FLOOR:7|,FLOOR:7|,FLOOR:7|,FLOOR:7|,FLOOR:7|,FLOOR:7|,FLOOR:7|,FLOOR:7|,FLOOR:7|,FLOOR:7|,FLOOR:7|,FLOOR:7|,FLOOR:7|,WALL:17|,FLOOR:10|,FLOOR:10|,FLOOR:10|,WALL:17|,FLOOR:7|,FLOOR:6|,FLOOR:6|,FLOOR:6|,FLOOR:6|RAISED_FLOOR:33|,FLOOR:6|,FLOOR:7|SCENERY:10:0|,FLOOR:7|,FLOOR:7|,FLOOR:7|,FLOOR:7|,FLOOR:7|,FLOOR:7|,FLOOR:7|,FLOOR:7|,FLOOR:7|,FLOOR:7|,FLOOR:7|,FLOOR:7|,FLOOR:7|,FLOOR:7|,FLOOR:7|,FLOOR:7|,FLOOR:7|,FLOOR:7|,FLOOR:7|,WALL:17|,WALL:17|,WALL:17|,WALL:17|,WALL:17|,FLOOR:7|,FLOOR:7|DEPLOY:1|,FLOOR:7|DEPLOY:1|,
FLOOR:7|DEPLOY:1|,WALL:17|,FLOOR:10|,FLOOR:10|SCENERY:35:0|,FLOOR:10|,FLOOR:10|DOOR:1|,FLOOR:9|,FLOOR:9|,FLOOR:9|,FLOOR:9|,FLOOR:9|,FLOOR:9|,FLOOR:9|,FLOOR:9|,FLOOR:9|,FLOOR:9|,FLOOR:9|,FLOOR:9|,FLOOR:9|,FLOOR:9|,FLOOR:9|,FLOOR:9|,FLOOR:9|,FLOOR:10|DOOR:1|,FLOOR:10|,FLOOR:10|SCENERY:35:0|,FLOOR:10|,FLOOR:10|DOOR:1|,FLOOR:9|,FLOOR:6|,FLOOR:6|,FLOOR:6|,FLOOR:6|RAISED_FLOOR:33|,FLOOR:6|,FLOOR:9|,FLOOR:9|,FLOOR:9|,FLOOR:9|,FLOOR:9|,FLOOR:9|,FLOOR:9|,FLOOR:9|,FLOOR:9|,FLOOR:9|,FLOOR:9|,FLOOR:9|,FLOOR:9|,FLOOR:9|,FLOOR:9|,FLOOR:9|,FLOOR:9|,FLOOR:7|,FLOOR:7|,FLOOR:7|,FLOOR:7|,FLOOR:6|,FLOOR:6|,FLOOR:6|,WALL:17|,FLOOR:7|,FLOOR:7|DEPLOY:1|,FLOOR:7|DEPLOY:1|,
FLOOR:7|DEPLOY:1|,WALL:17|,FLOOR:10|,FLOOR:10|,FLOOR:10|,WALL:17|,FLOOR:7|,FLOOR:7|,FLOOR:7|,FLOOR:7|,FLOOR:7|,FLOOR:7|,FLOOR:7|,FLOOR:7|,FLOOR:7|,FLOOR:7|,FLOOR:7|,FLOOR:7|,FLOOR:7|,FLOOR:7|,FLOOR:7|,FLOOR:7|,FLOOR:7|,WALL:17|,FLOOR:10|,FLOOR:10|,FLOOR:10|,WALL:17|,FLOOR:7|,FLOOR:6|,FLOOR:6|,FLOOR:6|,FLOOR:6|RAISED_FLOOR:33|,FLOOR:6|,FLOOR:7|SCENERY:10:0|,FLOOR:7|,FLOOR:7|,FLOOR:7|,FLOOR:7|,FLOOR:7|,FLOOR:7|,FLOOR:7|,FLOOR:7|,FLOOR:7|,FLOOR:7|,FLOOR:7|,FLOOR:7|,FLOOR:7|,FLOOR:7|,FLOOR:7|,FLOOR:9|,FLOOR:7|,FLOOR:7|,FLOOR:7|,FLOOR:7|,FLOOR:6|,FLOOR:6|,FLOOR:6|,WALL:17|,FLOOR:7|,FLOOR:7|DEPLOY:1|,FLOOR:7|DEPLOY:1|,
FLOOR:7|DEPLOY:1|,WALL:17|,WALL:17|,FLOOR:10|DOOR:2|,WALL:17|,WALL:17|,FLOOR:7|,FLOOR:7|,FLOOR:7|,FLOOR:7|,FLOOR:7|,FLOOR:7|,FLOOR:7|,FLOOR:7|,FLOOR:7|,FLOOR:7|,FLOOR:7|,FLOOR:7|,FLOOR:7|,FLOOR:7|,FLOOR:7|,FLOOR:7|,FLOOR:7|,WALL:17|SCENERY:31:0|,WALL:17|SCENERY:31:0|,WALL:17|SCENERY:31:0|,WALL:17|SCENERY:31:0|,WALL:17|SCENERY:31:0|,FLOOR:7|,FLOOR:6|,FLOOR:6|,FLOOR:6|,FLOOR:6|RAISED_FLOOR:33|,FLOOR:6|,FLOOR:7|SCENERY:10:0|,FLOOR:7|,FLOOR:7|,FLOOR:7|,FLOOR:7|,FLOOR:7|,FLOOR:7|,FLOOR:7|,FLOOR:7|,FLOOR:7|,FLOOR:7|,FLOOR:7|,FLOOR:7|,FLOOR:7|,FLOOR:7|,FLOOR:7|,FLOOR:9|,FLOOR:9|,FLOOR:9|,FLOOR:9|,FLOOR:9|,FLOOR:9|,FLOOR:6|,FLOOR:6|,WALL:17|,FLOOR:7|,FLOOR:7|DEPLOY:1|,FLOOR:7|DEPLOY:1|,
FLOOR:7|,FLOOR:7|,FLOOR:7|,FLOOR:7|,FLOOR:7|,FLOOR:7|,FLOOR:7|,FLOOR:7|,FLOOR:7|,FLOOR:7|,FLOOR:7|,FLOOR:7|,FLOOR:7|,FLOOR:7|,FLOOR:7|,FLOOR:7|,FLOOR:7|,FLOOR:7|,FLOOR:7|,FLOOR:7|,FLOOR:7|,FLOOR:7|,FLOOR:7|,FLOOR:7|,FLOOR:7|,FLOOR:7|,FLOOR:7|,FLOOR:7|,FLOOR:7|,FLOOR:6|,FLOOR:6|,FLOOR:6|,FLOOR:6|RAISED_FLOOR:33|,FLOOR:6|,FLOOR:7|SCENERY:10:0|,FLOOR:7|,FLOOR:7|,FLOOR:7|,FLOOR:7|,FLOOR:7|,FLOOR:7|,FLOOR:7|,FLOOR:7|,FLOOR:7|,FLOOR:7|,FLOOR:7|,FLOOR:7|,FLOOR:7|,FLOOR:7|,FLOOR:7|,FLOOR:9|,FLOOR:7|,FLOOR:7|,FLOOR:7|,FLOOR:9|,FLOOR:7|,FLOOR:7|,FLOOR:7|,WALL:17|,FLOOR:7|,FLOOR:7|,FLOOR:7|,
FLOOR:7|,FLOOR:7|,FLOOR:7|,FLOOR:7|,FLOOR:7|,FLOOR:7|,FLOOR:7|,FLOOR:7|,FLOOR:7|,FLOOR:7|,FLOOR:7|,FLOOR:7|,FLOOR:7|,FLOOR:7|,FLOOR:7|,FLOOR:7|,FLOOR:7|,FLOOR:7|,FLOOR:7|,FLOOR:7|,FLOOR:7|,FLOOR:7|,FLOOR:7|,FLOOR:7|,FLOOR:7|,FLOOR:7|,FLOOR:7|,FLOOR:7|,FLOOR:7|,FLOOR:6|,FLOOR:6|,FLOOR:6|,FLOOR:6|RAISED_FLOOR:33|,FLOOR:6|,FLOOR:7|SCENERY:10:0|,FLOOR:7|,FLOOR:7|,FLOOR:7|,FLOOR:7|,FLOOR:7|,FLOOR:7|,FLOOR:7|,FLOOR:7|,FLOOR:7|,FLOOR:7|,FLOOR:7|,FLOOR:7|,FLOOR:7|,FLOOR:7|,FLOOR:7|,FLOOR:9|,FLOOR:7|,FLOOR:7|,FLOOR:7|,FLOOR:9|,FLOOR:7|,FLOOR:7|,FLOOR:7|,FLOOR:7|,FLOOR:7|,FLOOR:7|,FLOOR:7|,
FLOOR:7|,FLOOR:7|,FLOOR:7|,FLOOR:7|,FLOOR:7|,FLOOR:7|,FLOOR:7|,FLOOR:7|,WALL:17|,WALL:17|,FLOOR:10|DOOR:2|,WALL:17|,WALL:17|,WALL:17|,WALL:17|,WALL:17|,WALL:17|,WALL:17|,WALL:17|,WALL:17|,WALL:17|,WALL:17|,WALL:17|,WALL:17|,WALL:17|,WALL:17|,WALL:17|,WALL:17|,WALL:17|,FLOOR:6|,FLOOR:6|,FLOOR:6|,FLOOR:6|RAISED_FLOOR:33|,FLOOR:6|,WALL:17|,WALL:17|,WALL:17|,WALL:17|,WALL:17|,WALL:17|,WALL:17|,WALL:17|,WALL:17|,WALL:17|,WALL:17|,WALL:17|,WALL:17|,WALL:17|,WALL:17|,WALL:17|,FLOOR:10|DOOR:2|,WALL:17|,WALL:17|,FLOOR:7|,FLOOR:9|,FLOOR:7|,FLOOR:7|,FLOOR:7|,FLOOR:7|,FLOOR:7|,FLOOR:7|,FLOOR:7|,
FLOOR:7|,FLOOR:7|,FLOOR:7|,FLOOR:7|,FLOOR:7|,FLOOR:7|,FLOOR:7|,FLOOR:7|,WALL:17|,FLOOR:10|SCENERY:56:0|,FLOOR:10|,FLOOR:10|,WALL:17|,FLOOR:10|SCENERY:24:0|,FLOOR:10|,FLOOR:10|SCENERY:40:0|,FLOOR:10|,FLOOR:10|,FLOOR:10|,FLOOR:10|,FLOOR:10|,FLOOR:10|SCENERY:5:1|,FLOOR:10|,FLOOR:10|,FLOOR:10|,WALL:17|,FLOOR:6|,FLOOR:6|,FLOOR:6|,FLOOR:6|,FLOOR:6|,FLOOR:6|,FLOOR:6|RAISED_FLOOR:33|,FLOOR:6|,FLOOR:10|,FLOOR:10|,FLOOR:10|,WALL:17|,FLOOR:10|SCENERY:28:0|,FLOOR:10|SCENERY:28:0|,WALL:17|,FLOOR:10|,FLOOR:10|,FLOOR:10|,FLOOR:10|,FLOOR:10|,FLOOR:10|,FLOOR:10|,WALL:17|,FLOOR:10|,FLOOR:10|,FLOOR:10|,WALL:17|,FLOOR:7|,FLOOR:9|,FLOOR:7|,FLOOR:7|,FLOOR:7|,FLOOR:7|,FLOOR:7|,FLOOR:7|,FLOOR:7|,
FLOOR:7|,FLOOR:7|,FLOOR:7|,FLOOR:7|,FLOOR:7|,FLOOR:7|,FLOOR:7|,FLOOR:7|,FLOOR:10|DOOR:1|,FLOOR:10|,FLOOR:10|,FLOOR:10|,FLOOR:10|DOOR:1|,FLOOR:10|,FLOOR:10|,FLOOR:10|,FLOOR:10|,FLOOR:10|,FLOOR:10|,FLOOR:10|,FLOOR:10|,FLOOR:10|,FLOOR:10|,FLOOR:10|,FLOOR:10|,WALL:17|,FLOOR:6|,FLOOR:6|,FLOOR:6|,FLOOR:6|,FLOOR:6|,FLOOR:6|,FLOOR:6|RAISED_FLOOR:33|,FLOOR:6|,FLOOR:10|,FLOOR:10|,FLOOR:10|,WALL:17|,FLOOR:10|,FLOOR:10|,WALL:17|,FLOOR:10|,FLOOR:10|,FLOOR:10|,FLOOR:10|,FLOOR:10|,FLOOR:10|,FLOOR:10|,FLOOR:10|DOOR:1|,FLOOR:10|,FLOOR:10|,FLOOR:10|,FLOOR:10|DOOR:1|,FLOOR:9|,FLOOR:9|,FLOOR:9|,FLOOR:9|,FLOOR:7|,FLOOR:7|,FLOOR:7|,FLOOR:7|,FLOOR:7|,
FLOOR:7|,FLOOR:7|,FLOOR:7|,FLOOR:7|,FLOOR:7|,FLOOR:7|,FLOOR:7|,FLOOR:7|,WALL:17|,FLOOR:10|,FLOOR:10|,FLOOR:10|,WALL:17|,FLOOR:10|,FLOOR:10|,WALL:17|,WALL:17|SCENERY:29:0|,WALL:17|,FLOOR:10|DOOR:2|,WALL:17|,WALL:17|,WALL:17|,FLOOR:10|,FLOOR:10|,FLOOR:10|,WALL:17|,FLOOR:6|,FLOOR:6|,FLOOR:6|,FLOOR:6|,FLOOR:6|,FLOOR:6|,FLOOR:6|RAISED_FLOOR:33|,FLOOR:6|,FLOOR:10|,FLOOR:10|,FLOOR:10|,FLOOR:10|DOOR:1|,FLOOR:10|,FLOOR:10|,WALL:17|,FLOOR:10|,FLOOR:10|,FLOOR:10|DEPLOY:2|,FLOOR:10|DEPLOY:2|,FLOOR:10|DEPLOY:2|,FLOOR:10|,FLOOR:10|,WALL:17|,FLOOR:10|SCENERY:56:0|,FLOOR:10|,FLOOR:10|,WALL:17|,FLOOR:7|,FLOOR:7|,FLOOR:7|,FLOOR:9|,FLOOR:7|,FLOOR:7|,FLOOR:7|,FLOOR:7|,FLOOR:7|,
FLOOR:7|,FLOOR:7|,FLOOR:7|,FLOOR:7|,FLOOR:7|SCENERY:10:0|,FLOOR:7|SCENERY:10:0|,FLOOR:7|,FLOOR:7|,WALL:17|,WALL:17|,FLOOR:10|DOOR:2|,WALL:17|,WALL:17|,FLOOR:10|,FLOOR:10|,WALL:17|,FLOOR:10|,FLOOR:10|,FLOOR:10|,FLOOR:10|,FLOOR:10|SCENERY:1:0|,WALL:17|,FLOOR:10|,FLOOR:10|,FLOOR:10|,WALL:17|,FLOOR:6|,FLOOR:6|,FLOOR:6|,FLOOR:6|,FLOOR:6|,FLOOR:6|,FLOOR:6|RAISED_FLOOR:33|,FLOOR:6|,FLOOR:10|,FLOOR:10|DEPLOY:2|,FLOOR:10|,WALL:17|,FLOOR:10|,FLOOR:10|,WALL:17|,FLOOR:10|,FLOOR:10|,FLOOR:10|DEPLOY:2|,FLOOR:10|DEPLOY:2|,FLOOR:10|DEPLOY:2|,FLOOR:10|,FLOOR:10|,WALL:17|,WALL:17|,FLOOR:10|DOOR:2|,WALL:17|,WALL:17|,FLOOR:7|,FLOOR:7|,FLOOR:7|,FLOOR:9|,FLOOR:7|,FLOOR:7|,FLOOR:7|,FLOOR:7|,FLOOR:7|,
FLOOR:31|,FLOOR:31|,FLOOR:31|,FLOOR:31|,FLOOR:63|,FLOOR:7|SCENERY:10:0|,FLOOR:7|,FLOOR:7|,WALL:17|,FLOOR:10|,FLOOR:10|,FLOOR:10|,FLOOR:10|,FLOOR:10|,FLOOR:10|,WALL:17|,FLOOR:10|,FLOOR:10|DEPLOY:2|,FLOOR:10|DEPLOY:2|,FLOOR:10|DEPLOY:2|,FLOOR:10|,WALL:17|,FLOOR:10|,FLOOR:10|,FLOOR:10|,WALL:17|,FLOOR:6|,FLOOR:6|RAISED_FLOOR:35|,FLOOR:6|RAISED_FLOOR:35|,FLOOR:6|RAISED_FLOOR:35|,FLOOR:6|RAISED_FLOOR:35|,FLOOR:6|RAISED_FLOOR:35|,FLOOR:6|RAISED_FLOOR:23|,FLOOR:6|,FLOOR:10|,FLOOR:10|DEPLOY:2|,FLOOR:10|,WALL:17|,FLOOR:10|DOOR:2|,WALL:17|,WALL:17|,FLOOR:10|,FLOOR:10|,FLOOR:10|DEPLOY:2|,FLOOR:10|DEPLOY:2|,FLOOR:10|DEPLOY:2|,FLOOR:10|,FLOOR:10|,WALL:17|,FLOOR:10|,FLOOR:10|,FLOOR:10|,WALL:17|,FLOOR:7|,FLOOR:7|,FLOOR:7|,FLOOR:9|,FLOOR:7|,FLOOR:7|,FLOOR:7|,FLOOR:7|,FLOOR:7|,
FLOOR:31|,FLOOR:31|,FLOOR:31|,FLOOR:31|,FLOOR:63|,FLOOR:7|SCENERY:10:0|,FLOOR:7|,FLOOR:7|,WALL:17|,FLOOR:10|,FLOOR:10|,FLOOR:10|,FLOOR:10|,FLOOR:10|,FLOOR:10|,WALL:17|,FLOOR:10|,FLOOR:10|,FLOOR:10|,FLOOR:10|,FLOOR:10|,WALL:17|,FLOOR:10|,FLOOR:10|,FLOOR:10|SCENERY:6:2|,WALL:17|,FLOOR:6|,FLOOR:6|,FLOOR:6|,FLOOR:6|,FLOOR:6|,FLOOR:6|,FLOOR:6|,FLOOR:6|,FLOOR:10|,FLOOR:10|DEPLOY:2|,FLOOR:10|,WALL:17|,FLOOR:10|,FLOOR:10|,WALL:17|,FLOOR:10|,FLOOR:10|,FLOOR:10|,FLOOR:10|,FLOOR:10|,FLOOR:10|,FLOOR:10|,WALL:17|,FLOOR:10|,FLOOR:10|,FLOOR:10|SCENERY:53:0|,WALL:17|,FLOOR:7|,FLOOR:7|,FLOOR:7|,FLOOR:9|,FLOOR:7|,FLOOR:7|,FLOOR:7|,FLOOR:7|,FLOOR:7|,
FLOOR:64|,FLOOR:64|,FLOOR:64|,FLOOR:64|,FLOOR:63|,FLOOR:7|SCENERY:10:0|,FLOOR:7|,FLOOR:7|,WALL:17|,FLOOR:10|,FLOOR:10|,WALL:17|,WALL:17|,FLOOR:10|DOOR:2|,WALL:17|,WALL:17|,FLOOR:10|,FLOOR:10|SCENERY:3:0|,WALL:17|,FLOOR:10|,FLOOR:10|,WALL:17|,FLOOR:10|,FLOOR:10|,FLOOR:10|,WALL:17|,FLOOR:6|,FLOOR:6|,FLOOR:6|,FLOOR:6|,FLOOR:6|,FLOOR:6|,FLOOR:6|,FLOOR:6|,FLOOR:10|,FLOOR:10|,FLOOR:10|,FLOOR:10|DOOR:1|,FLOOR:10|,FLOOR:10|,WALL:17|,FLOOR:10|,FLOOR:10|,FLOOR:10|,FLOOR:10|,FLOOR:10|,FLOOR:10|,FLOOR:10|,WALL:17|,FLOOR:10|,FLOOR:10|,FLOOR:10|,WALL:17|,FLOOR:7|,FLOOR:7|,FLOOR:7|,FLOOR:9|,FLOOR:7|,FLOOR:7|,FLOOR:7|,FLOOR:7|,FLOOR:7|,
FLOOR:31|,FLOOR:31|,FLOOR:31|,FLOOR:31|,FLOOR:63|,FLOOR:7|SCENERY:10:0|,FLOOR:7|,FLOOR:7|,WALL:17|,FLOOR:10|,FLOOR:10|,WALL:17|,FLOOR:10|,FLOOR:10|,FLOOR:10|,FLOOR:10|,FLOOR:10|,FLOOR:10|,WALL:17|,FLOOR:10|,FLOOR:10|,FLOOR:10|DOOR:1|,FLOOR:10|,FLOOR:10|,FLOOR:10|,WALL:17|,FLOOR:6|,FLOOR:6|,FLOOR:6|,FLOOR:6|,FLOOR:6|,FLOOR:6|,FLOOR:6|,FLOOR:6|,FLOOR:10|,FLOOR:10|,FLOOR:10|,WALL:17|,FLOOR:10|,FLOOR:10|SCENERY:1:0|,WALL:17|,FLOOR:10|,FLOOR:10|,FLOOR:10|,FLOOR:10|,FLOOR:10|,FLOOR:10|,FLOOR:10|,WALL:17|,FLOOR:10|,FLOOR:10|,FLOOR:10|,WALL:17|,FLOOR:7|,FLOOR:7|,FLOOR:7|,FLOOR:9|,FLOOR:7|,FLOOR:7|,FLOOR:7|,FLOOR:7|,FLOOR:7|,
FLOOR:64|,FLOOR:64|,FLOOR:64|,FLOOR:64|,FLOOR:63|,FLOOR:7|SCENERY:10:0|,FLOOR:7|,FLOOR:7|,WALL:17|,FLOOR:10|,FLOOR:10|,WALL:17|,FLOOR:10|,FLOOR:10|DEPLOY:2|,FLOOR:10|DEPLOY:2|,FLOOR:10|DEPLOY:2|,FLOOR:10|,FLOOR:10|,WALL:17|,FLOOR:10|,FLOOR:10|,WALL:17|,FLOOR:10|,FLOOR:10|,FLOOR:10|,WALL:17|,WALL:17|,WALL:17|,WALL:17|,WALL:17|,WALL:17|,WALL:17|,WALL:17|,WALL:17|,WALL:17|,FLOOR:10|DOOR:2|,WALL:17|,WALL:17|,WALL:17|,WALL:17|,WALL:17|,WALL:17|,WALL:17|,WALL:17|,FLOOR:10|,WALL:17|,WALL:17|SCENERY:43:0|,WALL:17|,WALL:17|,FLOOR:10|,FLOOR:10|,FLOOR:10|,WALL:17|,FLOOR:7|,FLOOR:7|,FLOOR:7|,FLOOR:9|,FLOOR:7|,FLOOR:7|,FLOOR:7|,FLOOR:7|,FLOOR:7|,
FLOOR:31|,FLOOR:31|,FLOOR:31|,FLOOR:31|,FLOOR:63|,FLOOR:7|SCENERY:10:0|,FLOOR:7|,FLOOR:7|,WALL:17|,FLOOR:10|,FLOOR:10|,WALL:17|,FLOOR:10|,FLOOR:10|,FLOOR:10|,FLOOR:10|SCENERY:25:0|,FLOOR:10|SCENERY:25:0|,FLOOR:10|SCENERY:25:0|,WALL:17|,FLOOR:10|,FLOOR:10|,WALL:17|,FLOOR:10|,FLOOR:10|,FLOOR:10|,WALL:17|,FLOOR:10|,FLOOR:10|,FLOOR:10|,FLOOR:10|,FLOOR:10|,FLOOR:10|,FLOOR:10|,FLOOR:10|,FLOOR:10|,FLOOR:10|,FLOOR:10|,WALL:17|,FLOOR:10|,FLOOR:10|,FLOOR:10|,FLOOR:10|,FLOOR:10|,WALL:17|,FLOOR:10|,FLOOR:10|,FLOOR:10|,FLOOR:10|,FLOOR:10|,FLOOR:10|,FLOOR:10|,FLOOR:10|,WALL:17|,FLOOR:7|,FLOOR:7|,FLOOR:7|,FLOOR:9|,FLOOR:7|,FLOOR:7|,FLOOR:7|,FLOOR:7|,FLOOR:7|,
FLOOR:64|,FLOOR:64|,FLOOR:64|,FLOOR:64|,FLOOR:63|,FLOOR:7|SCENERY:10:0|,FLOOR:7|,FLOOR:7|,WALL:17|,FLOOR:10|,FLOOR:10|,WALL:17|,WALL:17|,WALL:17|,WALL:17|,WALL:17|,WALL:17|,WALL:17|,WALL:17|,WALL:17|,WALL:17|,WALL:17|,FLOOR:10|,FLOOR:10|,FLOOR:10|,WALL:17|,FLOOR:10|,WALL:17|,WALL:17|,WALL:17|,FLOOR:10|DOOR:2|,WALL:17|,WALL:17|,WALL:17|,WALL:17|,FLOOR:10|DOOR:2|,WALL:17|,WALL:17|,FLOOR:10|,FLOOR:10|,FLOOR:10|,FLOOR:10|,FLOOR:10|,WALL:17|,FLOOR:10|,FLOOR:10|,FLOOR:10|,FLOOR:10|,FLOOR:10|,FLOOR:10|,FLOOR:10|,FLOOR:10|SCENERY:7:1|,WALL:17|,FLOOR:7|,FLOOR:7|,FLOOR:7|,FLOOR:9|,FLOOR:7|,FLOOR:7|,FLOOR:7|,FLOOR:7|,FLOOR:7|,
FLOOR:31|,FLOOR:31|,FLOOR:31|,FLOOR:31|,FLOOR:63|,FLOOR:7|SCENERY:10:0|,FLOOR:7|,FLOOR:7|,WALL:17|,FLOOR:10|,FLOOR:10|,FLOOR:10|,FLOOR:10|,FLOOR:10|,FLOOR:10|,FLOOR:10|,FLOOR:10|,FLOOR:10|,FLOOR:10|,FLOOR:10|,FLOOR:10|,FLOOR:10|,FLOOR:10|,FLOOR:10|,FLOOR:10|,FLOOR:10|DOOR:1|,FLOOR:10|,WALL:17|,FLOOR:10|,FLOOR:10|,FLOOR:10|,FLOOR:10|,FLOOR:10|,WALL:17|,FLOOR:10|,FLOOR:10|,FLOOR:10|,WALL:17|,FLOOR:10|,FLOOR:10|DEPLOY:2|,FLOOR:10|DEPLOY:2|,FLOOR:10|DEPLOY:2|,FLOOR:10|,FLOOR:10|DOOR:1|,FLOOR:10|,FLOOR:10|,FLOOR:10|DEPLOY:2|,FLOOR:10|DEPLOY:2|,FLOOR:10|DEPLOY:2|,FLOOR:10|,FLOOR:10|,FLOOR:10|,WALL:17|,FLOOR:7|,FLOOR:7|,FLOOR:7|,FLOOR:9|,FLOOR:7|,FLOOR:7|,FLOOR:7|,FLOOR:7|,FLOOR:7|,
FLOOR:64|,FLOOR:64|,FLOOR:64|,FLOOR:64|,FLOOR:63|,FLOOR:7|SCENERY:10:0|,FLOOR:7|,FLOOR:7|,WALL:17|,FLOOR:10|,FLOOR:10|,FLOOR:10|,FLOOR:10|,FLOOR:10|,FLOOR:10|,FLOOR:10|,FLOOR:10|,FLOOR:10|,FLOOR:10|,FLOOR:10|,FLOOR:10|,FLOOR:10|,FLOOR:10|,FLOOR:10|,FLOOR:10|,WALL:17|,FLOOR:10|,WALL:17|,FLOOR:10|,FLOOR:10|DEPLOY:2|,FLOOR:10|DEPLOY:2|,FLOOR:10|DEPLOY:2|,FLOOR:10|,WALL:17|,FLOOR:10|,FLOOR:10|,FLOOR:10|,WALL:17|,FLOOR:10|,FLOOR:10|DEPLOY:2|,FLOOR:10|DEPLOY:2|,FLOOR:10|DEPLOY:2|,FLOOR:10|,WALL:17|,FLOOR:10|,FLOOR:10|,FLOOR:10|DEPLOY:2|,FLOOR:10|DEPLOY:2|,FLOOR:10|DEPLOY:2|,FLOOR:10|,FLOOR:10|,FLOOR:10|,WALL:17|,FLOOR:7|,FLOOR:7|,FLOOR:7|,FLOOR:9|,FLOOR:7|,FLOOR:7|,FLOOR:7|,FLOOR:7|,FLOOR:7|,
FLOOR:31|,FLOOR:31|,FLOOR:31|,FLOOR:31|,FLOOR:63|,FLOOR:7|SCENERY:10:0|,FLOOR:7|,FLOOR:7|,WALL:17|,WALL:17|,WALL:17|,WALL:17|,WALL:17|,WALL:17|,WALL:17|,WALL:17|,WALL:17|,FLOOR:10|DOOR:2|,WALL:17|,WALL:17|,WALL:17|,WALL:17|,WALL:17|,WALL:17|,WALL:17|,WALL:17|,FLOOR:10|,WALL:17|,FLOOR:10|,FLOOR:10|DEPLOY:2|,FLOOR:10|DEPLOY:2|,FLOOR:10|DEPLOY:2|,FLOOR:10|,WALL:17|,FLOOR:10|,FLOOR:10|,FLOOR:10|,WALL:17|,FLOOR:10|,FLOOR:10|,FLOOR:10|,FLOOR:10|,FLOOR:10|,WALL:17|,FLOOR:10|,FLOOR:10|,FLOOR:10|,FLOOR:10|,FLOOR:10|,FLOOR:10|,FLOOR:10|,FLOOR:10|,WALL:17|,FLOOR:7|,FLOOR:7|,FLOOR:7|,FLOOR:9|,FLOOR:7|,FLOOR:7|,FLOOR:7|,FLOOR:7|,FLOOR:7|,
FLOOR:7|,FLOOR:7|,FLOOR:7|,FLOOR:7|,FLOOR:7|SCENERY:10:0|,FLOOR:7|SCENERY:10:0|,FLOOR:7|,FLOOR:7|,WALL:17|,FLOOR:10|,FLOOR:10|,FLOOR:10|,FLOOR:10|,FLOOR:10|,FLOOR:10|,FLOOR:10|,FLOOR:10|,FLOOR:10|,FLOOR:10|,FLOOR:10|,FLOOR:10|,FLOOR:10|,FLOOR:10|,WALL:17|,FLOOR:10|,FLOOR:10|,FLOOR:10|,WALL:17|,FLOOR:10|,FLOOR:10|,FLOOR:10|,FLOOR:10|,FLOOR:10|,WALL:17|,FLOOR:10|,FLOOR:10|,FLOOR:10|,WALL:17|,FLOOR:10|,FLOOR:10|,FLOOR:10|,FLOOR:10|,FLOOR:10|,WALL:17|,FLOOR:10|,FLOOR:10|,FLOOR:10|,FLOOR:10|,FLOOR:10|,FLOOR:10|,FLOOR:10|,FLOOR:10|,WALL:17|,FLOOR:7|,WALL:17|,WALL:17|,FLOOR:10|DOOR:2|,WALL:17|,WALL:17|,FLOOR:7|,FLOOR:7|,FLOOR:7|,
FLOOR:7|,FLOOR:7|,FLOOR:7|,FLOOR:7|,FLOOR:7|,FLOOR:7|,FLOOR:7|,FLOOR:7|,WALL:17|,FLOOR:10|,FLOOR:10|,FLOOR:10|,FLOOR:10|,FLOOR:10|,FLOOR:10|,FLOOR:10|,FLOOR:10|DEPLOY:2|,FLOOR:10|DEPLOY:2|,FLOOR:10|DEPLOY:2|,FLOOR:10|,FLOOR:10|,FLOOR:10|,FLOOR:10|,WALL:17|,FLOOR:10|,WALL:17|,WALL:17|,WALL:17|,WALL:17|SCENERY:29:0|,WALL:17|,FLOOR:10|DOOR:2|,WALL:17|,WALL:17|,WALL:17|,FLOOR:10|,FLOOR:10|,FLOOR:10|,WALL:17|,WALL:17|,WALL:17|,FLOOR:10|DOOR:2|,WALL:17|,WALL:17|,WALL:17|,WALL:17|,WALL:17|,WALL:17|,WALL:17|,WALL:17|,FLOOR:10|,FLOOR:10|,FLOOR:10|,WALL:17|,FLOOR:7|,WALL:17|,FLOOR:10|,FLOOR:10|,FLOOR:10|SCENERY:27:0|,WALL:17|,FLOOR:7|,FLOOR:7|,FLOOR:7|,
FLOOR:7|,FLOOR:7|,FLOOR:7|,FLOOR:7|,FLOOR:7|,FLOOR:7|,FLOOR:7|,FLOOR:7|,WALL:17|,FLOOR:10|,FLOOR:10|,FLOOR:10|,FLOOR:10|,FLOOR:10|,FLOOR:10|,FLOOR:10|,FLOOR:10|DEPLOY:2|,FLOOR:10|DEPLOY:2|,FLOOR:10|DEPLOY:2|,FLOOR:10|,FLOOR:10|,FLOOR:10|,FLOOR:10|,WALL:17|,FLOOR:10|,WALL:17|,FLOOR:10|SCENERY:23:0|,FLOOR:10|,FLOOR:10|,FLOOR:10|,FLOOR:10|,FLOOR:10|,FLOOR:10|,FLOOR:10|,FLOOR:10|,FLOOR:10|,FLOOR:10|,FLOOR:10|,FLOOR:10|,FLOOR:10|,FLOOR:10|,FLOOR:10|,FLOOR:10|,FLOOR:10|,FLOOR:10|SCENERY:1:0|,FLOOR:10|,FLOOR:10|,FLOOR:10|,FLOOR:10|,FLOOR:10|,FLOOR:10|,FLOOR:10|,WALL:17|,WALL:17|,WALL:17|,FLOOR:10|,FLOOR:10|,FLOOR:10|SCENERY:27:0|,WALL:17|,FLOOR:7|,FLOOR:7|,FLOOR:7|,
FLOOR:7|,FLOOR:7|,FLOOR:7|,FLOOR:7|,FLOOR:7|,FLOOR:7|,FLOOR:7|,FLOOR:7|,WALL:17|,FLOOR:10|,FLOOR:10|,FLOOR:10|,FLOOR:10|,FLOOR:10|,FLOOR:10|,FLOOR:10|,FLOOR:10|DEPLOY:2|,FLOOR:10|DEPLOY:2|,FLOOR:10|DEPLOY:2|,FLOOR:10|,FLOOR:10|,FLOOR:10|,FLOOR:10|,WALL:17|,FLOOR:10|,WALL:17|,FLOOR:10|,FLOOR:10|DEPLOY:2|,FLOOR:10|,FLOOR:10|,FLOOR:10|,FLOOR:10|,FLOOR:10|,FLOOR:10|,FLOOR:10|,FLOOR:10|,FLOOR:10|,FLOOR:10|,FLOOR:10|,FLOOR:10|,FLOOR:10|,FLOOR:10|,FLOOR:10|,FLOOR:10|,FLOOR:10|,FLOOR:10|,FLOOR:10|,FLOOR:10|,FLOOR:10|,FLOOR:10|,FLOOR:10|,FLOOR:10|,FLOOR:10|,FLOOR:10|,FLOOR:10|,FLOOR:10|,FLOOR:10|,FLOOR:10|SCENERY:27:0|,WALL:17|,FLOOR:7|,FLOOR:7|,FLOOR:7|,
FLOOR:7|,FLOOR:7|,FLOOR:7|,FLOOR:7|,FLOOR:7|,FLOOR:7|,FLOOR:7|,FLOOR:7|,WALL:17|,FLOOR:10|,FLOOR:10|,FLOOR:10|,FLOOR:10|,FLOOR:10|,FLOOR:10|,FLOOR:10|,FLOOR:10|,FLOOR:10|,FLOOR:10|,FLOOR:10|,FLOOR:10|,FLOOR:10|,FLOOR:10|,WALL:17|,FLOOR:10|,WALL:17|,FLOOR:10|,FLOOR:10|DEPLOY:2|,FLOOR:10|,FLOOR:10|,FLOOR:10|,FLOOR:10|SCENERY:1:0|,FLOOR:10|,FLOOR:10|,FLOOR:10|,FLOOR:10|,FLOOR:10|,FLOOR:10|,FLOOR:10|,FLOOR:10|,FLOOR:10|,FLOOR:10|,FLOOR:10|,FLOOR:10|,FLOOR:10|,FLOOR:10|,FLOOR:10|,FLOOR:10|,FLOOR:10|,FLOOR:10|,FLOOR:10|,FLOOR:10|,WALL:17|,WALL:17|,WALL:17|,FLOOR:10|,FLOOR:10|,FLOOR:10|,WALL:17|,FLOOR:7|,FLOOR:7|,FLOOR:7|,
FLOOR:6|,FLOOR:6|,FLOOR:6|,FLOOR:6|,FLOOR:6|,FLOOR:6|,FLOOR:6|,FLOOR:6|,FLOOR:6|,FLOOR:6|,FLOOR:6|,FLOOR:6|,FLOOR:6|,FLOOR:6|,FLOOR:6|,FLOOR:6|,FLOOR:6|,FLOOR:6|,FLOOR:6|,FLOOR:6|,FLOOR:6|,FLOOR:6|,FLOOR:6|,WALL:17|,FLOOR:10|,WALL:17|,FLOOR:10|,FLOOR:10|,FLOOR:10|RAISED_FLOOR:81|,WALL:17|,WALL:17|,WALL:17|,WALL:17|,WALL:17|,WALL:17|,FLOOR:10|RAISED_FLOOR:79|DOOR:2|,WALL:17|,WALL:17|,WALL:17|,WALL:17|,WALL:17|,WALL:17|,WALL:17|,WALL:17|,WALL:17|,WALL:17|,WALL:17|,WALL:17|,WALL:17|,FLOOR:10|RAISED_FLOOR:80|,FLOOR:10|,FLOOR:10|,WALL:17|,FLOOR:7|,WALL:17|,FLOOR:10|,FLOOR:10|,FLOOR:10|SCENERY:27:0|,WALL:17|,FLOOR:7|,FLOOR:7|,FLOOR:7|,
FLOOR:6|,FLOOR:6|,FLOOR:6|,FLOOR:6|,FLOOR:6|,FLOOR:6|,FLOOR:6|,FLOOR:6|,FLOOR:6|,FLOOR:6|,FLOOR:6|,FLOOR:6|,FLOOR:6|,FLOOR:6|,FLOOR:6|,FLOOR:6|,FLOOR:6|,FLOOR:6|,FLOOR:6|,FLOOR:6|,FLOOR:6|,FLOOR:6|,FLOOR:6|,WALL:17|,FLOOR:10|,WALL:17|,FLOOR:10|,FLOOR:10|,FLOOR:10|RAISED_FLOOR:81|,WALL:17|,FLOOR:60|,COMP:60|OWNER:2|,FLOOR:60|SCENERY:24:0|,WALL:17|,FLOOR:10|,FLOOR:10|,FLOOR:10|,FLOOR:10|,FLOOR:10|,FLOOR:10|,FLOOR:10|,FLOOR:10|,FLOOR:10|SCENERY:3:3|,FLOOR:10|,FLOOR:10|,FLOOR:10|SCENERY:6:1|,FLOOR:60|,FLOOR:60|SCENERY:24:0|,WALL:17|,FLOOR:10|RAISED_FLOOR:80|,FLOOR:10|,FLOOR:10|,WALL:17|,FLOOR:7|,WALL:17|,WALL:17|,FLOOR:10|DOOR:2|,WALL:17|,WALL:17|,FLOOR:7|,FLOOR:7|,FLOOR:7|,
FLOOR:6|RAISED_FLOOR:35|,FLOOR:6|RAISED_FLOOR:35|,FLOOR:6|RAISED_FLOOR:35|,FLOOR:6|RAISED_FLOOR:35|,FLOOR:6|RAISED_FLOOR:35|,FLOOR:6|RAISED_FLOOR:35|,FLOOR:6|RAISED_FLOOR:35|,FLOOR:6|RAISED_FLOOR:35|,FLOOR:6|RAISED_FLOOR:35|,FLOOR:6|RAISED_FLOOR:35|,FLOOR:6|RAISED_FLOOR:35|,FLOOR:6|RAISED_FLOOR:35|,FLOOR:6|RAISED_FLOOR:35|,FLOOR:6|RAISED_FLOOR:35|,FLOOR:6|RAISED_FLOOR:35|,FLOOR:6|RAISED_FLOOR:35|,FLOOR:6|RAISED_FLOOR:35|,FLOOR:6|RAISED_FLOOR:35|,FLOOR:6|,FLOOR:6|,FLOOR:6|,FLOOR:6|,FLOOR:6|,FLOOR:10|DOOR:1|,FLOOR:10|,FLOOR:10|DOOR:1|,FLOOR:10|,FLOOR:10|,FLOOR:10|RAISED_FLOOR:81|,WALL:17|,FLOOR:60|,FLOOR:60|,FLOOR:60|,WALL:17|,FLOOR:10|,FLOOR:10|,FLOOR:10|,FLOOR:10|,FLOOR:10|,FLOOR:10|,FLOOR:10|,FLOOR:10|,FLOOR:10|,FLOOR:10|,FLOOR:10|,FLOOR:10|DEPLOY:2|,FLOOR:60|,COMP:60|OWNER:2|,WALL:17|,FLOOR:10|RAISED_FLOOR:80|,FLOOR:10|,FLOOR:10|,WALL:17|,FLOOR:7|,FLOOR:7|,FLOOR:7|,FLOOR:9|,FLOOR:7|,FLOOR:7|,FLOOR:7|,FLOOR:7|,FLOOR:7|,
FLOOR:6|,FLOOR:6|,FLOOR:6|,FLOOR:6|,FLOOR:6|,FLOOR:6|,FLOOR:6|,FLOOR:6|,FLOOR:6|,FLOOR:6|,FLOOR:6|,FLOOR:6|,FLOOR:6|,FLOOR:6|,FLOOR:6|,FLOOR:6|,FLOOR:6|,FLOOR:6|,FLOOR:6|,FLOOR:6|,FLOOR:6|,FLOOR:6|,FLOOR:6|,WALL:17|,FLOOR:10|,WALL:17|,FLOOR:10|,FLOOR:10|,FLOOR:10|RAISED_FLOOR:81|,WALL:17|,FLOOR:60|,FLOOR:60|,FLOOR:60|SCENERY:6:2|,WALL:17|,FLOOR:10|,FLOOR:10|,FLOOR:10|,FLOOR:10|,FLOOR:10|,FLOOR:10|,FLOOR:10|,FLOOR:10|,FLOOR:10|,FLOOR:10|,FLOOR:10|,FLOOR:10|DEPLOY:2|,FLOOR:60|,FLOOR:60|,WALL:17|,FLOOR:10|RAISED_FLOOR:80|,FLOOR:10|,FLOOR:10|,WALL:17|,FLOOR:7|,FLOOR:7|,FLOOR:7|,FLOOR:9|,FLOOR:7|,FLOOR:7|,FLOOR:7|,FLOOR:7|,FLOOR:7|,
FLOOR:6|,FLOOR:6|,FLOOR:6|,FLOOR:6|,FLOOR:6|,FLOOR:6|,FLOOR:6|,FLOOR:6|,FLOOR:6|,FLOOR:6|,FLOOR:6|,FLOOR:6|,FLOOR:6|,FLOOR:6|,FLOOR:6|,FLOOR:6|,FLOOR:6|,FLOOR:6|,FLOOR:6|,FLOOR:6|,FLOOR:6|,FLOOR:6|,FLOOR:6|,WALL:17|,FLOOR:10|,WALL:17|,FLOOR:10|,FLOOR:10|,FLOOR:10|RAISED_FLOOR:81|,WALL:17|,WALL:17|,FLOOR:10|DOOR:2|,WALL:17|,WALL:17|,FLOOR:10|,FLOOR:10|,WALL:17|,WALL:17|,WALL:17|,WALL:17|,WALL:17|,WALL:17|,WALL:17|,WALL:17|,FLOOR:10|,FLOOR:10|,FLOOR:10|,FLOOR:10|,WALL:17|,FLOOR:10|RAISED_FLOOR:80|,FLOOR:10|,FLOOR:10|,WALL:17|,FLOOR:7|,FLOOR:7|,FLOOR:7|,FLOOR:9|,FLOOR:7|,FLOOR:7|,FLOOR:7|,FLOOR:7|,FLOOR:7|,
FLOOR:7|,FLOOR:7|,FLOOR:7|,FLOOR:7|,FLOOR:7|,FLOOR:7|,FLOOR:9|,FLOOR:7|,WALL:17|,FLOOR:10|,FLOOR:10|,FLOOR:10|,FLOOR:10|,FLOOR:10|,FLOOR:10|,FLOOR:10|,FLOOR:10|,FLOOR:10|,FLOOR:10|,FLOOR:10|,FLOOR:10|,FLOOR:10|,FLOOR:10|,WALL:17|,FLOOR:10|,WALL:17|,FLOOR:10|,FLOOR:10|,FLOOR:10|RAISED_FLOOR:81|,WALL:17|,FLOOR:10|,FLOOR:10|,FLOOR:10|SCENERY:4:1|,WALL:17|,FLOOR:10|,FLOOR:10|,FLOOR:10|,FLOOR:10|,WALL:17|,FLOOR:10|,FLOOR:60|SCENERY:6:1|,COMP:60|OWNER:2|,FLOOR:60|,WALL:17|,WALL:17|,FLOOR:10|DOOR:2|,WALL:17|,WALL:17|,WALL:17|,FLOOR:10|RAISED_FLOOR:80|,FLOOR:10|,FLOOR:10|,WALL:17|,FLOOR:7|,FLOOR:7|,FLOOR:7|,FLOOR:9|,FLOOR:7|,FLOOR:7|,FLOOR:7|,FLOOR:7|,FLOOR:7|,
FLOOR:7|,FLOOR:7|,FLOOR:7|,FLOOR:7|,FLOOR:7|,FLOOR:7|,FLOOR:9|,FLOOR:7|,WALL:17|,FLOOR:10|,FLOOR:10|,FLOOR:10|,FLOOR:10|,FLOOR:10|,FLOOR:10|,FLOOR:10|,FLOOR:10|,FLOOR:10|,FLOOR:10|,FLOOR:10|,FLOOR:10|,FLOOR:10|,FLOOR:10|,WALL:17|,FLOOR:10|,WALL:17|,FLOOR:10|,FLOOR:10|,FLOOR:10|RAISED_FLOOR:81|,WALL:17|,FLOOR:10|SCENERY:3:2|,FLOOR:10|,FLOOR:10|,FLOOR:10|DOOR:1|,FLOOR:10|,FLOOR:10|,FLOOR:10|,FLOOR:10|,WALL:17|,FLOOR:10|,FLOOR:60|,FLOOR:60|,FLOOR:60|,WALL:17|,FLOOR:10|,FLOOR:10|,FLOOR:10|,FLOOR:10|SCENERY:9:0|,WALL:17|,FLOOR:10|RAISED_FLOOR:80|,FLOOR:10|,FLOOR:10|,WALL:17|,FLOOR:7|,FLOOR:7|,FLOOR:7|,FLOOR:9|,FLOOR:7|,FLOOR:7|,FLOOR:7|,FLOOR:7|,FLOOR:7|,
FLOOR:7|,FLOOR:7|,FLOOR:7|,FLOOR:7|,FLOOR:7|,FLOOR:7|,FLOOR:9|,FLOOR:7|,WALL:17|,FLOOR:10|,FLOOR:10|,FLOOR:10|,FLOOR:10|,FLOOR:10|,FLOOR:10|,FLOOR:10|,FLOOR:10|,FLOOR:10|,FLOOR:10|,FLOOR:10|,WALL:17|,FLOOR:10|DOOR:2|,WALL:17|,WALL:17|,FLOOR:10|,WALL:17|,FLOOR:10|,FLOOR:10|,FLOOR:10|RAISED_FLOOR:81|,WALL:17|,FLOOR:10|,FLOOR:10|,FLOOR:10|,WALL:17|,FLOOR:10|,FLOOR:10|,FLOOR:10|,FLOOR:10|,WALL:17|,FLOOR:10|,FLOOR:10|,FLOOR:10|,FLOOR:10|,WALL:17|,FLOOR:10|,FLOOR:10|,FLOOR:10|,FLOOR:10|,WALL:17|,FLOOR:10|RAISED_FLOOR:80|,FLOOR:10|,FLOOR:10|,WALL:17|,FLOOR:7|,FLOOR:7|,FLOOR:7|,FLOOR:9|,FLOOR:7|,FLOOR:7|,FLOOR:7|,FLOOR:7|,FLOOR:7|,
FLOOR:7|,FLOOR:7|,FLOOR:6|,FLOOR:6|,FLOOR:6|,FLOOR:6|,FLOOR:9|,FLOOR:7|,WALL:17|,FLOOR:10|,FLOOR:10|,FLOOR:10|,FLOOR:10|,FLOOR:10|,FLOOR:10|,FLOOR:10|,FLOOR:10|,FLOOR:10|,FLOOR:10|,FLOOR:10|,WALL:17|,FLOOR:57|,FLOOR:57|,WALL:17|,FLOOR:10|,WALL:17|,FLOOR:10|,FLOOR:10|RAISED_FLOOR:81|,WALL:17|,WALL:17|,FLOOR:10|,FLOOR:10|,FLOOR:10|,WALL:17|,WALL:17|SCENERY:29:0|,WALL:17|,FLOOR:10|,FLOOR:10|,WALL:17|,FLOOR:10|,FLOOR:10|DEPLOY:2|,FLOOR:10|DEPLOY:2|,FLOOR:10|,WALL:17|,FLOOR:10|,FLOOR:60|,FLOOR:60|,FLOOR:60|SCENERY:4:2|,WALL:17|,FLOOR:10|RAISED_FLOOR:80|,FLOOR:10|,FLOOR:10|,WALL:17|,FLOOR:7|,FLOOR:7|,FLOOR:7|,FLOOR:9|,FLOOR:7|,FLOOR:7|,FLOOR:7|,FLOOR:7|,FLOOR:7|,
FLOOR:7|,WALL:17|,FLOOR:6|,FLOOR:6|,FLOOR:6|,FLOOR:6|,FLOOR:9|,FLOOR:7|,WALL:17|,FLOOR:10|SCENERY:2:0|,FLOOR:10|SCENERY:4:3|,FLOOR:10|SCENERY:4:3|,FLOOR:10|SCENERY:4:3|,FLOOR:10|,FLOOR:10|,FLOOR:10|,FLOOR:10|,FLOOR:10|,FLOOR:10|,FLOOR:10|,WALL:17|,FLOOR:57|,FLOOR:57|,WALL:17|,FLOOR:10|,WALL:17|,FLOOR:10|,FLOOR:10|RAISED_FLOOR:81|,WALL:17|,FLOOR:10|,FLOOR:10|,FLOOR:10|DEPLOY:2|,FLOOR:10|,FLOOR:10|,FLOOR:10|,FLOOR:10|,FLOOR:10|,FLOOR:10|,FLOOR:10|,FLOOR:10|,FLOOR:10|DEPLOY:2|,FLOOR:10|DEPLOY:2|,FLOOR:10|,WALL:17|,FLOOR:10|,FLOOR:60|,COMP:10|OWNER:2|,FLOOR:60|,WALL:17|,FLOOR:10|RAISED_FLOOR:80|,FLOOR:10|,FLOOR:10|,WALL:17|,FLOOR:7|,FLOOR:7|,FLOOR:7|,FLOOR:9|,FLOOR:7|,FLOOR:7|,FLOOR:7|,FLOOR:7|,FLOOR:7|,
FLOOR:7|,FLOOR:7|SCENERY:10:0|,FLOOR:6|,FLOOR:6|,FLOOR:6|,FLOOR:6|,FLOOR:9|,FLOOR:7|,WALL:17|,WALL:17|,WALL:17|,WALL:17|,WALL:17|,WALL:17|,WALL:17|SCENERY:43:0|,WALL:17|,WALL:17|,FLOOR:10|DOOR:2|,WALL:17|,WALL:17|,WALL:17|,FLOOR:57|,FLOOR:57|,WALL:17|,FLOOR:10|,FLOOR:10|DOOR:1|,FLOOR:10|,FLOOR:10|RAISED_FLOOR:81|,FLOOR:10|DOOR:1|,FLOOR:10|,FLOOR:10|,FLOOR:10|DEPLOY:2|,FLOOR:10|,FLOOR:10|,FLOOR:10|,FLOOR:10|,FLOOR:10|,FLOOR:10|,FLOOR:10|,FLOOR:10|,FLOOR:10|,FLOOR:10|,FLOOR:10|,WALL:17|,WALL:17|,WALL:17|,WALL:17|,WALL:17|,WALL:17|,FLOOR:10|RAISED_FLOOR:80|,FLOOR:10|,FLOOR:10|,WALL:17|,FLOOR:7|,FLOOR:7|,FLOOR:7|,FLOOR:9|,FLOOR:9|,FLOOR:7|,FLOOR:7|,FLOOR:7|,FLOOR:7|,
FLOOR:7|,FLOOR:7|SCENERY:10:0|,FLOOR:6|,FLOOR:6|,FLOOR:6|,FLOOR:6|,FLOOR:9|,FLOOR:7|,WALL:17|,FLOOR:10|,FLOOR:10|,FLOOR:10|,WALL:17|,FLOOR:10|,FLOOR:10|,FLOOR:10|,FLOOR:10|,FLOOR:10|,FLOOR:10|,FLOOR:10|,WALL:17|,FLOOR:57|,FLOOR:57|,WALL:17|,FLOOR:10|,WALL:17|,FLOOR:10|,FLOOR:10|RAISED_FLOOR:81|,WALL:17|,FLOOR:10|,FLOOR:10|,FLOOR:10|,FLOOR:10|,FLOOR:10|,FLOOR:10|,FLOOR:10|,FLOOR:10|,FLOOR:10|,FLOOR:10|,WALL:17|,FLOOR:60|,FLOOR:60|,FLOOR:10|,FLOOR:10|,FLOOR:10|,FLOOR:10|,FLOOR:10|,FLOOR:10|,WALL:17|,FLOOR:10|RAISED_FLOOR:80|,FLOOR:10|DEPLOY:2|,FLOOR:10|,WALL:17|,FLOOR:7|,FLOOR:7|,FLOOR:7|,FLOOR:7|,FLOOR:9|,FLOOR:7|,FLOOR:7|,FLOOR:7|,FLOOR:7|,
FLOOR:7|,FLOOR:7|SCENERY:10:0|,FLOOR:6|,FLOOR:6|,FLOOR:6|,FLOOR:6|,FLOOR:9|,FLOOR:7|,WALL:17|,FLOOR:10|,FLOOR:10|DEPLOY:2|,FLOOR:10|,WALL:17|,FLOOR:10|,FLOOR:10|,FLOOR:10|,FLOOR:10|DEPLOY:2|,FLOOR:10|DEPLOY:2|,FLOOR:10|,FLOOR:10|,FLOOR:10|DOOR:1|,FLOOR:57|,FLOOR:57|,WALL:17|,FLOOR:10|,WALL:17|,FLOOR:10|,FLOOR:10|RAISED_FLOOR:81|,WALL:17|,WALL:17|,FLOOR:10|,FLOOR:10|,FLOOR:10|,WALL:17|,WALL:17|,FLOOR:10|,FLOOR:10|,FLOOR:10|,FLOOR:10|,WALL:17|,COMP:60|OWNER:2|,FLOOR:60|,FLOOR:10|,FLOOR:10|,FLOOR:10|,FLOOR:10|,FLOOR:10|,FLOOR:10|,FLOOR:10|DOOR:1|,FLOOR:10|RAISED_FLOOR:80|,FLOOR:10|DEPLOY:2|,FLOOR:10|,WALL:17|,FLOOR:7|,FLOOR:7|,FLOOR:7|,FLOOR:7|,FLOOR:9|,FLOOR:7|,FLOOR:7|,FLOOR:7|,FLOOR:7|,
FLOOR:7|,WALL:17|,FLOOR:6|,FLOOR:6|,FLOOR:6|,FLOOR:6|,FLOOR:9|,FLOOR:7|,WALL:17|,FLOOR:10|,FLOOR:10|DEPLOY:2|,FLOOR:10|,FLOOR:10|,FLOOR:10|,FLOOR:10|,FLOOR:10|,FLOOR:10|DEPLOY:2|,FLOOR:10|DEPLOY:2|,FLOOR:10|,FLOOR:10|,WALL:17|,WALL:17|,WALL:17|,WALL:17|,FLOOR:10|,WALL:17|,FLOOR:10|,FLOOR:10|,FLOOR:10|RAISED_FLOOR:81|,WALL:17|,FLOOR:10|,FLOOR:10|,FLOOR:10|,WALL:17|,FLOOR:10|,FLOOR:10|,FLOOR:10|,FLOOR:10|,FLOOR:10|SCENERY:3:0|,WALL:17|,FLOOR:60|SCENERY:26:0|,FLOOR:60|SCENERY:6:3|,FLOOR:10|,FLOOR:10|,FLOOR:10|,FLOOR:10|,FLOOR:10|,FLOOR:10|,WALL:17|,FLOOR:10|RAISED_FLOOR:80|,FLOOR:10|,FLOOR:10|,WALL:17|,FLOOR:7|,FLOOR:7|,FLOOR:7|,FLOOR:7|,FLOOR:9|,FLOOR:7|,FLOOR:7|,FLOOR:7|,FLOOR:7|,
FLOOR:7|,FLOOR:7|SCENERY:10:0|,FLOOR:6|,FLOOR:6|,FLOOR:6|,FLOOR:6|,FLOOR:9|,FLOOR:7|,WALL:17|,FLOOR:10|,FLOOR:10|,FLOOR:10|,FLOOR:10|,FLOOR:10|,FLOOR:10|,FLOOR:10|,FLOOR:10|,FLOOR:10|,FLOOR:10|,FLOOR:10|,FLOOR:10|,FLOOR:10|,FLOOR:10|,FLOOR:10|,FLOOR:10|,WALL:17|,FLOOR:10|,FLOOR:10|DEPLOY:2|,FLOOR:10|RAISED_FLOOR:81|,WALL:17|,FLOOR:10|,FLOOR:10|,FLOOR:10|,WALL:17|,FLOOR:60|SCENERY:26:0|,FLOOR:60|,FLOOR:10|,FLOOR:10|,FLOOR:10|,WALL:17|,WALL:17|,WALL:17|,WALL:17|,WALL:17|,WALL:17|SCENERY:29:0|,WALL:17|,FLOOR:10|DOOR:2|,WALL:17|,WALL:17|,FLOOR:10|RAISED_FLOOR:80|,FLOOR:10|,FLOOR:10|,WALL:17|,FLOOR:7|,FLOOR:7|,FLOOR:7|,FLOOR:7|,FLOOR:9|,FLOOR:7|,FLOOR:7|,FLOOR:7|,FLOOR:7|,
FLOOR:7|,FLOOR:7|SCENERY:10:0|,FLOOR:6|,FLOOR:6|,FLOOR:6|,FLOOR:6|,FLOOR:9|,FLOOR:7|,WALL:17|,WALL:17|,WALL:17|,FLOOR:10|,FLOOR:10|,FLOOR:10|,FLOOR:10|,FLOOR:6|,FLOOR:6|,FLOOR:6|,FLOOR:6|,FLOOR:6|,FLOOR:10|,FLOOR:10|,FLOOR:10|,FLOOR:10|,FLOOR:10|,WALL:17|,FLOOR:10|,FLOOR:10|DEPLOY:2|,FLOOR:10|RAISED_FLOOR:81|,WALL:17|,FLOOR:10|,FLOOR:10|,FLOOR:10|,WALL:17|,COMP:60|OWNER:2|,FLOOR:60|,FLOOR:10|,FLOOR:10|,FLOOR:10|,FLOOR:10|SCENERY:6:1|,FLOOR:10|SCENERY:9:0|,WALL:17|,FLOOR:10|SCENERY:39:0|,FLOOR:10|,FLOOR:10|,FLOOR:10|,FLOOR:10|,FLOOR:10|,WALL:17|,FLOOR:10|RAISED_FLOOR:80|,FLOOR:10|,FLOOR:10|,WALL:17|,FLOOR:7|,FLOOR:7|,FLOOR:7|,FLOOR:7|,FLOOR:9|,FLOOR:7|,FLOOR:7|,FLOOR:7|,FLOOR:7|,
FLOOR:7|,FLOOR:7|SCENERY:10:0|,FLOOR:6|,FLOOR:6|,FLOOR:6|,FLOOR:6|,FLOOR:9|,FLOOR:7|,WALL:17|,FLOOR:10|,FLOOR:10|,FLOOR:10|,FLOOR:10|DEPLOY:2|,FLOOR:10|DEPLOY:2|,FLOOR:10|,FLOOR:6|,FLOOR:6|,FLOOR:6|,FLOOR:6|,FLOOR:6|,FLOOR:10|,FLOOR:10|DEPLOY:2|,FLOOR:10|DEPLOY:2|,FLOOR:10|DEPLOY:2|,FLOOR:10|,WALL:17|,FLOOR:10|,FLOOR:10|,FLOOR:10|RAISED_FLOOR:81|,WALL:17|,FLOOR:10|,FLOOR:10|,FLOOR:10|,WALL:17|,FLOOR:60|SCENERY:6:0|,FLOOR:60|,FLOOR:10|,FLOOR:10|,FLOOR:10|,FLOOR:10|,FLOOR:10|,WALL:17|,FLOOR:10|,FLOOR:10|,FLOOR:10|,FLOOR:10|,FLOOR:10|DEPLOY:2|,FLOOR:10|,WALL:17|,FLOOR:10|RAISED_FLOOR:80|,FLOOR:10|,FLOOR:10|,WALL:17|,FLOOR:7|,FLOOR:7|,FLOOR:7|,FLOOR:7|,FLOOR:9|,FLOOR:7|,FLOOR:7|,FLOOR:7|,FLOOR:7|,
FLOOR:7|,WALL:17|,FLOOR:6|,FLOOR:6|,FLOOR:6|,FLOOR:6|,FLOOR:9|,FLOOR:7|,WALL:17|,FLOOR:10|,FLOOR:10|,FLOOR:10|,FLOOR:10|DEPLOY:2|,FLOOR:10|DEPLOY:2|,FLOOR:10|,FLOOR:6|,FLOOR:6|,FLOOR:6|,FLOOR:6|,FLOOR:6|,FLOOR:10|,FLOOR:10|DEPLOY:2|,FLOOR:10|DEPLOY:2|,FLOOR:10|DEPLOY:2|,FLOOR:10|,WALL:17|,FLOOR:10|,FLOOR:10|,FLOOR:10|RAISED_FLOOR:81|,WALL:17|,FLOOR:10|,FLOOR:10|,FLOOR:10|,WALL:17|,WALL:17|,WALL:17|,WALL:17|,WALL:17|,WALL:17|,WALL:17|,WALL:17|,WALL:17|,FLOOR:10|,FLOOR:10|,FLOOR:10|,FLOOR:10|,FLOOR:10|DEPLOY:2|,FLOOR:10|,WALL:17|,FLOOR:10|RAISED_FLOOR:80|,FLOOR:10|,FLOOR:10|,WALL:17|,FLOOR:7|,FLOOR:7|,FLOOR:7|,FLOOR:7|,FLOOR:9|,FLOOR:7|,FLOOR:7|,FLOOR:7|,FLOOR:7|,
FLOOR:7|,FLOOR:7|SCENERY:10:0|,FLOOR:6|,FLOOR:6|,FLOOR:6|,FLOOR:6|,FLOOR:9|,FLOOR:7|,WALL:17|,FLOOR:10|,FLOOR:10|,FLOOR:10|,FLOOR:10|,FLOOR:10|,FLOOR:10|,FLOOR:6|,FLOOR:6|,FLOOR:6|,FLOOR:6|,FLOOR:6|,FLOOR:10|,FLOOR:10|,FLOOR:10|,FLOOR:10|,FLOOR:10|,WALL:17|,WALL:17|,FLOOR:10|,WALL:17|,WALL:17|,FLOOR:10|,FLOOR:10|,FLOOR:10|,FLOOR:10|,FLOOR:10|,FLOOR:10|,FLOOR:10|,FLOOR:10|,FLOOR:10|,FLOOR:10|,FLOOR:10|,FLOOR:10|,FLOOR:10|,FLOOR:10|,FLOOR:10|,FLOOR:10|,FLOOR:10|,FLOOR:10|SCENERY:3:1|,WALL:17|,FLOOR:10|RAISED_FLOOR:80|,FLOOR:10|,FLOOR:10|,WALL:17|,FLOOR:7|,FLOOR:7|,FLOOR:7|,FLOOR:7|,FLOOR:9|,FLOOR:7|,FLOOR:7|,FLOOR:7|,FLOOR:7|,
FLOOR:7|,FLOOR:7|SCENERY:10:0|,FLOOR:6|,FLOOR:6|,FLOOR:6|,FLOOR:6|,FLOOR:9|,FLOOR:7|,WALL:17|,FLOOR:10|,FLOOR:10|,FLOOR:10|,FLOOR:10|,FLOOR:10|,FLOOR:10|,FLOOR:6|,FLOOR:6|RAISED_FLOOR:33|,FLOOR:6|,FLOOR:6|,FLOOR:6|,FLOOR:10|,FLOOR:10|,FLOOR:10|,FLOOR:10|,FLOOR:10|,WALL:17|,FLOOR:10|,FLOOR:10|,FLOOR:10|RAISED_FLOOR:81|,WALL:17|,FLOOR:10|,FLOOR:10|,FLOOR:10|,WALL:17|,WALL:17|,WALL:17|,WALL:17|,WALL:17|SCENERY:43:0|,WALL:17|,WALL:17|,WALL:17|,WALL:17|,FLOOR:60|SCENERY:6:0|,FLOOR:60|,WALL:17|,WALL:17|,FLOOR:10|DOOR:2|,WALL:17|,WALL:17|,FLOOR:10|RAISED_FLOOR:80|,FLOOR:10|,FLOOR:10|,WALL:17|,FLOOR:7|,FLOOR:7|,FLOOR:7|,FLOOR:7|,FLOOR:9|,FLOOR:7|,FLOOR:7|,FLOOR:7|,FLOOR:7|,
FLOOR:7|,FLOOR:7|SCENERY:10:0|,FLOOR:6|,FLOOR:6|,FLOOR:6|,FLOOR:6|,FLOOR:9|,FLOOR:7|,WALL:17|,WALL:17|,FLOOR:10|DOOR:2|,WALL:17|,WALL:17|,FLOOR:10|,FLOOR:10|,FLOOR:6|,FLOOR:6|RAISED_FLOOR:33|,FLOOR:6|,FLOOR:6|,FLOOR:6|,FLOOR:10|,WALL:17|,WALL:17|,WALL:17|,FLOOR:10|,WALL:17|,FLOOR:10|SCENERY:39:0|,FLOOR:10|,FLOOR:10|RAISED_FLOOR:81|,WALL:17|,FLOOR:10|,FLOOR:10|,FLOOR:10|,WALL:17|,FLOOR:10|RAISED_FLOOR:79|SCENERY:40:0|,FLOOR:10|RAISED_FLOOR:79|,FLOOR:10|RAISED_FLOOR:79|,FLOOR:10|RAISED_FLOOR:79|,FLOOR:10|RAISED_FLOOR:79|,FLOOR:10|RAISED_FLOOR:79|,FLOOR:10|RAISED_FLOOR:79|SCENERY:41:0|,WALL:17|,FLOOR:60|SCENERY:4:3|,COMP:60|OWNER:2|,WALL:17|,FLOOR:10|RAISED_FLOOR:79|,FLOOR:10|RAISED_FLOOR:79|,FLOOR:10|RAISED_FLOOR:79|,WALL:17|,WALL:17|,FLOOR:10|DOOR:2|,WALL:17|,WALL:17|,WALL:17|,WALL:17|,WALL:17|,WALL:17|,FLOOR:9|,FLOOR:7|,FLOOR:7|,FLOOR:7|,FLOOR:7|,
FLOOR:7|,WALL:17|,FLOOR:6|,FLOOR:6|,FLOOR:6|,FLOOR:6|,FLOOR:9|,FLOOR:7|,WALL:17|,FLOOR:15|SCENERY:36:0|,FLOOR:15|,FLOOR:15|SCENERY:34:0|,WALL:17|,FLOOR:10|,FLOOR:10|,FLOOR:6|,FLOOR:6|RAISED_FLOOR:33|,FLOOR:6|,FLOOR:6|,FLOOR:6|,FLOOR:10|,WALL:17|,FLOOR:10|,WALL:17|,FLOOR:10|,WALL:17|,WALL:17|,FLOOR:10|DOOR:2|,WALL:17|,WALL:17|,WALL:17|,FLOOR:10|DOOR:2|,WALL:17|,WALL:17|,FLOOR:10|,FLOOR:10|,FLOOR:10|DEPLOY:2|,FLOOR:10|DEPLOY:2|,FLOOR:10|DEPLOY:2|,FLOOR:10|,FLOOR:10|,WALL:17|,WALL:17|,WALL:17|,WALL:17|,FLOOR:10|,FLOOR:10|DEPLOY:2|,FLOOR:10|,WALL:17|,FLOOR:56|,FLOOR:56|,FLOOR:56|,WALL:17|,FLOOR:10|,FLOOR:10|,FLOOR:10|,WALL:17|,FLOOR:9|,FLOOR:7|,FLOOR:7|,FLOOR:7|,FLOOR:7|,
FLOOR:7|,FLOOR:7|,FLOOR:6|,FLOOR:6|,FLOOR:6|,FLOOR:6|,FLOOR:9|,FLOOR:7|,FLOOR:15|DOOR:1|,FLOOR:15|,FLOOR:15|,FLOOR:15|,FLOOR:10|DOOR:1|,FLOOR:10|,FLOOR:10|,FLOOR:6|,FLOOR:6|RAISED_FLOOR:33|,FLOOR:6|,FLOOR:6|,FLOOR:6|,FLOOR:10|,FLOOR:10|DOOR:1|,FLOOR:10|SCENERY:5:2|,WALL:17|,FLOOR:10|,FLOOR:10|,FLOOR:10|,FLOOR:10|,FLOOR:10|RAISED_FLOOR:79|,FLOOR:10|RAISED_FLOOR:79|,FLOOR:10|RAISED_FLOOR:79|,FLOOR:10|RAISED_FLOOR:79|,FLOOR:10|RAISED_FLOOR:79|,FLOOR:10|RAISED_FLOOR:79|,FLOOR:10|,FLOOR:10|,FLOOR:10|DEPLOY:2|,FLOOR:10|DEPLOY:2|,FLOOR:10|DEPLOY:2|,FLOOR:10|,FLOOR:10|,FLOOR:10|RAISED_FLOOR:79|,FLOOR:10|RAISED_FLOOR:79|,FLOOR:10|RAISED_FLOOR:79|,FLOOR:10|RAISED_FLOOR:79|,FLOOR:10|,FLOOR:10|DEPLOY:2|,FLOOR:10|,FLOOR:10|DOOR:1|,FLOOR:56|,FLOOR:56|,FLOOR:56|,FLOOR:10|DOOR:1|,FLOOR:10|,FLOOR:10|,FLOOR:10|,FLOOR:10|DOOR:1|,FLOOR:9|,FLOOR:7|,FLOOR:7|,FLOOR:7|,FLOOR:7|,
FLOOR:7|,FLOOR:7|,FLOOR:7|,FLOOR:7|,FLOOR:7|,FLOOR:7|,FLOOR:9|,FLOOR:7|,WALL:17|,FLOOR:15|,FLOOR:15|,FLOOR:15|,WALL:17|,FLOOR:10|,FLOOR:10|,FLOOR:6|,FLOOR:6|RAISED_FLOOR:33|,FLOOR:6|,FLOOR:6|,FLOOR:6|,FLOOR:10|,WALL:17|,FLOOR:10|,WALL:17|,FLOOR:10|,FLOOR:10|,FLOOR:10|,FLOOR:10|,FLOOR:10|,FLOOR:10|,FLOOR:10|,FLOOR:10|,FLOOR:10|SCENERY:2:0|,WALL:17|,FLOOR:10|,FLOOR:10|,FLOOR:10|,FLOOR:10|,FLOOR:10|,FLOOR:10|,FLOOR:10|,WALL:17|,FLOOR:10|,FLOOR:10|,FLOOR:10|,FLOOR:10|,FLOOR:10|,FLOOR:10|,WALL:17|,FLOOR:56|,FLOOR:56|,FLOOR:56|,WALL:17|,FLOOR:10|,FLOOR:10|,FLOOR:10|,WALL:17|,FLOOR:9|,FLOOR:7|,FLOOR:7|,FLOOR:7|,FLOOR:7|,
FLOOR:7|,FLOOR:7|,FLOOR:7|,FLOOR:7|,FLOOR:7|,FLOOR:7|,FLOOR:9|,FLOOR:7|,WALL:17|,WALL:17|,FLOOR:15|DOOR:2|,WALL:17|,WALL:17|,WALL:17|,WALL:17|,FLOOR:6|,FLOOR:6|RAISED_FLOOR:33|,FLOOR:6|,FLOOR:6|,FLOOR:6|,WALL:17|,WALL:17|,WALL:17|,WALL:17|,WALL:17|,WALL:17|,WALL:17|,WALL:17|,WALL:17|,WALL:17|,WALL:17|,WALL:17|,WALL:17|,WALL:17|,WALL:17|,WALL:17|,WALL:17|,FLOOR:10|DOOR:2|,WALL:17|,WALL:17|,WALL:17|,WALL:17|,WALL:17|,WALL:17|,WALL:17|,WALL:17|,WALL:17|,WALL:17|,WALL:17|,WALL:17|,FLOOR:10|DOOR:2|,WALL:17|,WALL:17|,FLOOR:10|,FLOOR:10|,FLOOR:10|,WALL:17|,FLOOR:9|,FLOOR:7|,FLOOR:7|,FLOOR:7|,FLOOR:7|,
FLOOR:7|,FLOOR:7|,FLOOR:7|,FLOOR:7|,FLOOR:7|,FLOOR:7|,FLOOR:9|,FLOOR:7|,FLOOR:7|,FLOOR:7|,FLOOR:7|,FLOOR:7|,FLOOR:7|,FLOOR:7|,FLOOR:7|SCENERY:10:0|,FLOOR:6|,FLOOR:6|RAISED_FLOOR:33|,FLOOR:6|,FLOOR:6|,FLOOR:6|,FLOOR:7|SCENERY:10:0|,FLOOR:7|,FLOOR:7|,FLOOR:7|,FLOOR:7|,FLOOR:7|,FLOOR:7|,FLOOR:7|,FLOOR:7|,FLOOR:7|,FLOOR:7|,FLOOR:7|,FLOOR:7|,FLOOR:7|,FLOOR:7|,WALL:17|,FLOOR:61|,FLOOR:61|,FLOOR:61|,WALL:17|,FLOOR:7|,FLOOR:7|,FLOOR:7|,FLOOR:7|,FLOOR:7|,FLOOR:7|,WALL:17|,FLOOR:10|SCENERY:41:0|,FLOOR:10|,FLOOR:10|,FLOOR:10|,FLOOR:10|,FLOOR:10|,FLOOR:10|,FLOOR:10|,FLOOR:10|,WALL:17|,FLOOR:9|,FLOOR:7|,FLOOR:7|,FLOOR:7|,FLOOR:7|,
FLOOR:7|DEPLOY:1|,FLOOR:7|,FLOOR:7|,FLOOR:7|,FLOOR:7|,FLOOR:7|,FLOOR:9|,FLOOR:7|,FLOOR:7|,FLOOR:7|,FLOOR:7|,FLOOR:7|,FLOOR:7|,FLOOR:7|,FLOOR:7|SCENERY:10:0|,FLOOR:6|,FLOOR:6|RAISED_FLOOR:33|,FLOOR:6|,FLOOR:6|,FLOOR:6|,FLOOR:7|SCENERY:10:0|,FLOOR:7|,FLOOR:7|,FLOOR:7|,FLOOR:7|,FLOOR:7|,FLOOR:7|,FLOOR:7|,FLOOR:7|,FLOOR:7|,FLOOR:7|,FLOOR:7|,FLOOR:7|,FLOOR:7|,FLOOR:7|,WALL:17|,FLOOR:61|,FLOOR:61|,FLOOR:61|,WALL:17|,FLOOR:7|,FLOOR:7|,FLOOR:7|,FLOOR:7|,FLOOR:7|,FLOOR:7|,WALL:17|,FLOOR:10|,FLOOR:10|,FLOOR:10|,FLOOR:10|,FLOOR:10|,FLOOR:10|,FLOOR:10|,FLOOR:10|,FLOOR:10|,WALL:17|,FLOOR:9|,FLOOR:7|,FLOOR:7|,FLOOR:7|,FLOOR:7|,
FLOOR:7|DEPLOY:1|,WALL:17|,WALL:17|,WALL:17|,WALL:17|,WALL:17|,FLOOR:9|,FLOOR:7|,FLOOR:7|,FLOOR:7|,FLOOR:7|,FLOOR:7|,FLOOR:7|,FLOOR:7|,FLOOR:7|SCENERY:10:0|,FLOOR:6|,FLOOR:6|RAISED_FLOOR:33|,FLOOR:6|,FLOOR:6|,FLOOR:6|,FLOOR:7|SCENERY:10:0|,FLOOR:7|,FLOOR:7|,FLOOR:7|,FLOOR:7|,FLOOR:7|,FLOOR:7|,FLOOR:7|,FLOOR:7|,FLOOR:7|,FLOOR:7|,FLOOR:7|,FLOOR:7|,FLOOR:7|,FLOOR:7|,WALL:17|,FLOOR:61|,FLOOR:61|,FLOOR:61|,WALL:17|,FLOOR:7|,FLOOR:7|,FLOOR:7|,FLOOR:7|,FLOOR:7|,FLOOR:7|,WALL:17|,FLOOR:10|,FLOOR:10|,FLOOR:10|,FLOOR:10|,FLOOR:10|,FLOOR:10|,FLOOR:10|,FLOOR:10|,FLOOR:10|SCENERY:2:0|,WALL:17|,FLOOR:9|,FLOOR:7|,FLOOR:7|,FLOOR:7|DEPLOY:1|,FLOOR:7|DEPLOY:1|,
FLOOR:7|DEPLOY:1|,WALL:17|,FLOOR:10|,FLOOR:10|,FLOOR:10|,WALL:17|,FLOOR:9|,FLOOR:7|,FLOOR:7|,FLOOR:7|,FLOOR:7|,FLOOR:7|,FLOOR:7|,FLOOR:7|,FLOOR:7|SCENERY:10:0|,FLOOR:6|,FLOOR:6|RAISED_FLOOR:33|,FLOOR:6|,FLOOR:6|,FLOOR:6|,FLOOR:7|SCENERY:10:0|,FLOOR:7|,FLOOR:7|,FLOOR:7|,FLOOR:7|,FLOOR:7|,FLOOR:7|,FLOOR:7|,FLOOR:7|,FLOOR:7|,FLOOR:7|,FLOOR:7|,FLOOR:7|,WALL:17|,WALL:17|,WALL:17|,FLOOR:61|,FLOOR:61|,FLOOR:61|,WALL:17|,WALL:17|,WALL:17|,FLOOR:7|,FLOOR:7|,FLOOR:7|,FLOOR:7|,WALL:17|,WALL:17|,WALL:17|,WALL:17|,FLOOR:10|DOOR:2|,WALL:17|,WALL:17|,WALL:17|,WALL:17|,WALL:17|,WALL:17|,FLOOR:9|,FLOOR:7|,FLOOR:7|,FLOOR:7|DEPLOY:1|,FLOOR:7|DEPLOY:1|,
FLOOR:7|DEPLOY:1|,WALL:17|,FLOOR:10|,FLOOR:10|SCENERY:35:0|,FLOOR:10|,FLOOR:10|DOOR:1|,FLOOR:9|,FLOOR:9|,FLOOR:9|,FLOOR:9|,FLOOR:9|,FLOOR:9|,FLOOR:9|,FLOOR:9|,FLOOR:9|,FLOOR:6|,FLOOR:6|RAISED_FLOOR:33|,FLOOR:6|,FLOOR:6|,FLOOR:6|,FLOOR:9|,FLOOR:9|,FLOOR:9|,FLOOR:9|,FLOOR:9|,FLOOR:9|,FLOOR:9|,FLOOR:9|,FLOOR:9|,FLOOR:9|,FLOOR:9|,FLOOR:9|,FLOOR:9|,FLOOR:10|DOOR:1|,FLOOR:61|,FLOOR:61|,FLOOR:61|,FLOOR:61|,FLOOR:61|,FLOOR:61|,FLOOR:61|,FLOOR:10|DOOR:1|,FLOOR:9|,FLOOR:9|,FLOOR:9|,FLOOR:9|,FLOOR:9|,FLOOR:9|,FLOOR:9|,FLOOR:9|,FLOOR:9|,FLOOR:9|,FLOOR:9|,FLOOR:9|,FLOOR:9|,FLOOR:9|,FLOOR:9|,FLOOR:9|,FLOOR:7|,FLOOR:7|,FLOOR:7|DEPLOY:1|,FLOOR:7|DEPLOY:1|,
FLOOR:7|DEPLOY:1|,WALL:17|,FLOOR:10|SCENERY:7:3|,FLOOR:10|,FLOOR:10|,WALL:17|,FLOOR:7|,FLOOR:7|,FLOOR:7|,FLOOR:7|,FLOOR:7|,FLOOR:7|,FLOOR:7|,FLOOR:7|,FLOOR:7|SCENERY:10:0|,FLOOR:6|,FLOOR:6|RAISED_FLOOR:33|,FLOOR:6|,FLOOR:6|,FLOOR:6|,FLOOR:7|SCENERY:10:0|,FLOOR:7|,FLOOR:7|,FLOOR:7|,FLOOR:7|,FLOOR:7|,FLOOR:7|,FLOOR:7|,FLOOR:7|,FLOOR:7|,FLOOR:7|,FLOOR:7|,FLOOR:7|,WALL:17|SCENERY:32:0|,WALL:17|SCENERY:32:0|,WALL:17|SCENERY:32:0|,WALL:17|SCENERY:32:0|,WALL:17|SCENERY:32:0|,WALL:17|SCENERY:32:0|,WALL:17|SCENERY:32:0|,WALL:17|SCENERY:32:0|,WALL:17|SCENERY:32:0|,FLOOR:7|,FLOOR:7|,FLOOR:7|,FLOOR:7|,FLOOR:7|,FLOOR:7|,FLOOR:7|,FLOOR:7|,FLOOR:7|,FLOOR:7|,FLOOR:7|,FLOOR:7|,FLOOR:7|,FLOOR:7|,FLOOR:7|,FLOOR:7|,FLOOR:7|,FLOOR:7|,FLOOR:7|DEPLOY:1|,FLOOR:7|DEPLOY:1|,
FLOOR:7|DEPLOY:1|,WALL:17|,WALL:17|,WALL:17|,WALL:17|,WALL:17|,FLOOR:7|,FLOOR:7|,FLOOR:7|,FLOOR:7|,FLOOR:7|,FLOOR:7|,FLOOR:7|,FLOOR:7|,FLOOR:7|SCENERY:10:0|,FLOOR:6|,FLOOR:6|RAISED_FLOOR:33|,FLOOR:6|,FLOOR:6|,FLOOR:6|,FLOOR:7|SCENERY:10:0|,FLOOR:7|,FLOOR:7|,FLOOR:7|,FLOOR:7|,FLOOR:7|,FLOOR:7|,FLOOR:7|,FLOOR:7|,FLOOR:7|,FLOOR:7|,FLOOR:7|,FLOOR:7|,FLOOR:7|,FLOOR:7|,FLOOR:7|,FLOOR:7|,FLOOR:7|,FLOOR:7|,FLOOR:7|,FLOOR:7|,FLOOR:7|,FLOOR:7|,FLOOR:7|,FLOOR:7|,FLOOR:7|,FLOOR:7|,FLOOR:7|,FLOOR:7|,FLOOR:7|,FLOOR:7|,FLOOR:7|,FLOOR:7|,FLOOR:7|,FLOOR:7|,FLOOR:7|,FLOOR:7|,FLOOR:7|,FLOOR:7|,FLOOR:7|DEPLOY:1|,FLOOR:7|DEPLOY:1|,FLOOR:7|DEPLOY:1|,
FLOOR:7|DEPLOY:1|,FLOOR:7|DEPLOY:1|,FLOOR:7|DEPLOY:1|,FLOOR:7|DEPLOY:1|,FLOOR:7|DEPLOY:1|,FLOOR:7|DEPLOY:1|,FLOOR:7|,FLOOR:7|,FLOOR:7|,FLOOR:7|,FLOOR:7|,FLOOR:7|,FLOOR:7|,FLOOR:7|,FLOOR:7|SCENERY:10:0|,FLOOR:6|,FLOOR:6|RAISED_FLOOR:33|,FLOOR:6|,FLOOR:6|,FLOOR:6|,FLOOR:7|SCENERY:10:0|,FLOOR:7|,FLOOR:7|,FLOOR:7|,FLOOR:7|,FLOOR:7|,FLOOR:7|,FLOOR:7|,FLOOR:7|,FLOOR:7|,FLOOR:7|,FLOOR:7|,FLOOR:7|,FLOOR:7|,FLOOR:7|,FLOOR:7|,FLOOR:7|,FLOOR:7|,FLOOR:7|,FLOOR:7|,FLOOR:7|,FLOOR:7|,FLOOR:7|,FLOOR:7|,FLOOR:7|,FLOOR:7|,FLOOR:7|,FLOOR:7|,FLOOR:7|,FLOOR:7|,FLOOR:7|,FLOOR:7|,FLOOR:7|,FLOOR:7|,FLOOR:7|,FLOOR:7|DEPLOY:1|,FLOOR:7|DEPLOY:1|,FLOOR:7|DEPLOY:1|,FLOOR:7|DEPLOY:1|,FLOOR:7|DEPLOY:1|,FLOOR:7|DEPLOY:1|,FLOOR:7|DEPLOY:1|,

