79,1
FLOOR:31|,FLOOR:31|,FLOOR:31|,FLOOR:31|,FLOOR:31|,FLOOR:31|,FLOOR:31|,FLOOR:31|,FLOOR:31|,FLOOR:31|,FLOOR:31|,FLOOR:31|,FLOOR:31|,FLOOR:31|,FLOOR:31|,FLOOR:31|,FLOOR:31|,FLOOR:31|,FLOOR:31|,FLOOR:31|,FLOOR:31|,FLOOR:31|,FLOOR:31|,FLOOR:31|,FLOOR:31|,FLOOR:31|,FLOOR:31|,FLOOR:31|,FLOOR:31|,FLOOR:31|,FLOOR:31|,FLOOR:31|,FLOOR:31|,FLOOR:31|,FLOOR:31|,FLOOR:31|,FLOOR:31|,FLOOR:31|,FLOOR:31|,FLOOR:31|,FLOOR:31|,FLOOR:31|,FLOOR:31|,FLOOR:31|,FLOOR:31|,FLOOR:31|,FLOOR:31|,FLOOR:31|,FLOOR:31|,FLOOR:31|,FLOOR:31|,FLOOR:31|,FLOOR:31|,FLOOR:31|,FLOOR:31|,FLOOR:31|,FLOOR:31|,FLOOR:31|,FLOOR:31|,FLOOR:31|,FLOOR:31|,FLOOR:31|,FLOOR:31|,FLOOR:31|,FLOOR:31|,FLOOR:31|,FLOOR:31|,FLOOR:31|,FLOOR:31|,FLOOR:31|,FLOOR:31|,FLOOR:31|,FLOOR:31|,FLOOR:31|,FLOOR:31|,FLOOR:31|,FLOOR:31|,FLOOR:31|,FLOOR:31|,
FLOOR:31|,FLOOR:31|,FLOOR:31|,FLOOR:31|,FLOOR:31|,FLOOR:31|,FLOOR:31|,FLOOR:31|,FLOOR:31|,FLOOR:31|,FLOOR:31|,FLOOR:31|,FLOOR:31|,FLOOR:31|,FLOOR:31|,FLOOR:31|,FLOOR:31|,FLOOR:31|,FLOOR:31|,FLOOR:31|,FLOOR:31|,FLOOR:31|,FLOOR:31|,FLOOR:31|,FLOOR:31|,FLOOR:31|,FLOOR:31|,FLOOR:31|,FLOOR:31|,FLOOR:31|,FLOOR:31|,FLOOR:31|,FLOOR:31|,FLOOR:31|,FLOOR:31|,FLOOR:31|,FLOOR:31|,FLOOR:31|,FLOOR:31|,FLOOR:31|,FLOOR:31|,FLOOR:31|,FLOOR:31|,FLOOR:31|,FLOOR:31|,FLOOR:31|,FLOOR:31|,FLOOR:31|,FLOOR:31|,FLOOR:31|,FLOOR:31|,FLOOR:31|,FLOOR:31|,FLOOR:31|,FLOOR:31|,FLOOR:31|,FLOOR:31|,FLOOR:31|,FLOOR:31|,FLOOR:31|,FLOOR:31|,FLOOR:31|,FLOOR:31|,FLOOR:31|,FLOOR:31|,FLOOR:31|,FLOOR:31|,FLOOR:31|,FLOOR:31|,FLOOR:31|,FLOOR:31|,FLOOR:31|,FLOOR:31|,FLOOR:31|,FLOOR:31|,FLOOR:31|,FLOOR:31|,FLOOR:31|,FLOOR:31|,
FLOOR:31|,FLOOR:31|,FLOOR:31|,FLOOR:31|,FLOOR:31|,FLOOR:31|,FLOOR:31|,FLOOR:31|,FLOOR:31|,FLOOR:31|,FLOOR:31|,FLOOR:31|,FLOOR:31|,FLOOR:31|,FLOOR:31|,FLOOR:31|,FLOOR:31|,FLOOR:31|,FLOOR:31|,FLOOR:31|,FLOOR:31|,FLOOR:31|,FLOOR:31|,FLOOR:31|,FLOOR:31|,FLOOR:31|,FLOOR:31|,FLOOR:31|,FLOOR:31|,FLOOR:31|,FLOOR:31|,FLOOR:31|,FLOOR:31|,FLOOR:31|,FLOOR:31|,FLOOR:31|,FLOOR:31|,FLOOR:31|,FLOOR:31|,FLOOR:31|,FLOOR:31|,FLOOR:31|,FLOOR:31|,FLOOR:31|,FLOOR:31|,FLOOR:31|,FLOOR:31|,FLOOR:31|,FLOOR:31|,FLOOR:31|,FLOOR:31|,FLOOR:31|,FLOOR:31|,FLOOR:31|,FLOOR:31|,FLOOR:31|,FLOOR:31|,FLOOR:31|,FLOOR:31|,FLOOR:31|,FLOOR:31|,FLOOR:31|,FLOOR:31|,FLOOR:31|,FLOOR:31|,FLOOR:31|,FLOOR:31|,FLOOR:31|,FLOOR:31|,FLOOR:31|,FLOOR:31|,FLOOR:31|,FLOOR:31|,FLOOR:31|,FLOOR:31|,FLOOR:31|,FLOOR:31|,FLOOR:31|,FLOOR:31|,
FLOOR:31|,FLOOR:31|,FLOOR:31|,FLOOR:31|,FLOOR:31|,FLOOR:31|,FLOOR:31|,FLOOR:31|,FLOOR:31|,FLOOR:31|,FLOOR:31|,FLOOR:31|,FLOOR:31|,FLOOR:31|,FLOOR:31|,FLOOR:31|,FLOOR:31|,FLOOR:31|,FLOOR:31|,FLOOR:31|,FLOOR:31|,FLOOR:31|,FLOOR:31|,FLOOR:31|,FLOOR:31|,FLOOR:31|,FLOOR:31|,FLOOR:31|,FLOOR:31|,FLOOR:31|,FLOOR:31|,FLOOR:31|,FLOOR:31|,FLOOR:31|,FLOOR:31|,FLOOR:31|,FLOOR:31|,FLOOR:31|,FLOOR:31|,FLOOR:31|,FLOOR:31|,FLOOR:31|,FLOOR:31|,FLOOR:31|,FLOOR:31|,FLOOR:31|,FLOOR:31|,FLOOR:31|,FLOOR:31|,FLOOR:31|,FLOOR:31|,FLOOR:31|,FLOOR:31|,FLOOR:31|,FLOOR:31|,FLOOR:31|,FLOOR:31|,FLOOR:31|,FLOOR:31|,FLOOR:31|,FLOOR:31|,FLOOR:31|,FLOOR:31|,FLOOR:31|,FLOOR:31|,FLOOR:31|,FLOOR:31|,FLOOR:31|,FLOOR:31|,FLOOR:31|,FLOOR:31|,FLOOR:31|,FLOOR:31|,FLOOR:31|,FLOOR:31|,FLOOR:31|,FLOOR:31|,FLOOR:31|,FLOOR:31|,
FLOOR:31|,FLOOR:31|,FLOOR:31|,FLOOR:31|,FLOOR:31|,FLOOR:31|,FLOOR:31|,FLOOR:31|,FLOOR:31|,FLOOR:31|,FLOOR:31|,FLOOR:31|,FLOOR:31|,FLOOR:31|,FLOOR:31|,FLOOR:31|,FLOOR:31|,FLOOR:31|,FLOOR:31|,FLOOR:31|,FLOOR:31|,FLOOR:31|,FLOOR:31|,FLOOR:31|,FLOOR:31|,FLOOR:31|,FLOOR:31|,FLOOR:31|,FLOOR:31|,FLOOR:31|,FLOOR:31|,FLOOR:31|,FLOOR:31|,FLOOR:31|,FLOOR:31|,FLOOR:31|,FLOOR:31|,FLOOR:31|,FLOOR:31|,FLOOR:31|,FLOOR:31|,FLOOR:31|,FLOOR:31|,FLOOR:31|,FLOOR:31|,FLOOR:31|,FLOOR:31|,FLOOR:31|,FLOOR:31|,FLOOR:31|,FLOOR:31|,FLOOR:31|,FLOOR:31|,FLOOR:31|,FLOOR:31|,FLOOR:31|,FLOOR:31|,FLOOR:31|,FLOOR:31|,FLOOR:31|,FLOOR:31|,FLOOR:31|,FLOOR:31|,FLOOR:31|,FLOOR:31|,FLOOR:31|,FLOOR:31|,FLOOR:31|,FLOOR:31|,FLOOR:31|,FLOOR:31|,FLOOR:31|,FLOOR:31|,FLOOR:31|,FLOOR:31|,FLOOR:31|,FLOOR:31|,FLOOR:31|,FLOOR:31|,
FLOOR:31|,FLOOR:31|,FLOOR:31|,FLOOR:31|,FLOOR:31|,FLOOR:31|,FLOOR:31|,FLOOR:31|,FLOOR:31|,FLOOR:31|,FLOOR:31|,FLOOR:31|,FLOOR:31|,FLOOR:31|,FLOOR:31|,FLOOR:31|,FLOOR:31|,FLOOR:31|,FLOOR:31|,FLOOR:31|,FLOOR:31|,FLOOR:31|,FLOOR:31|,FLOOR:31|,FLOOR:31|,FLOOR:31|,FLOOR:31|,FLOOR:31|,FLOOR:31|,FLOOR:31|,FLOOR:31|,FLOOR:31|,FLOOR:31|,FLOOR:31|,FLOOR:31|,FLOOR:31|,FLOOR:31|,FLOOR:31|,FLOOR:31|,FLOOR:31|,FLOOR:31|,FLOOR:31|,FLOOR:31|,FLOOR:31|,FLOOR:31|,FLOOR:31|,FLOOR:31|,FLOOR:31|,FLOOR:31|,FLOOR:31|,FLOOR:31|,FLOOR:31|,FLOOR:31|,FLOOR:31|,FLOOR:31|,FLOOR:31|,FLOOR:31|,FLOOR:31|,FLOOR:31|,FLOOR:31|,FLOOR:31|,FLOOR:31|,FLOOR:31|,FLOOR:31|,FLOOR:31|,FLOOR:31|,FLOOR:31|,FLOOR:31|,FLOOR:31|,FLOOR:31|,FLOOR:31|,FLOOR:31|,FLOOR:31|,FLOOR:31|,FLOOR:31|,FLOOR:31|,FLOOR:31|,FLOOR:31|,FLOOR:31|,
FLOOR:31|,FLOOR:31|,FLOOR:31|,FLOOR:31|,FLOOR:31|,FLOOR:31|,FLOOR:31|,FLOOR:31|,FLOOR:31|,FLOOR:31|,FLOOR:31|,FLOOR:31|,FLOOR:31|,FLOOR:31|,FLOOR:31|,FLOOR:31|,FLOOR:31|,FLOOR:31|,FLOOR:31|,FLOOR:31|,FLOOR:31|,FLOOR:31|,FLOOR:31|,FLOOR:31|,FLOOR:31|,FLOOR:31|,FLOOR:31|,FLOOR:31|,FLOOR:31|,FLOOR:31|,FLOOR:31|,FLOOR:31|,FLOOR:31|,FLOOR:31|,FLOOR:31|,FLOOR:31|,FLOOR:31|,FLOOR:31|,FLOOR:31|,FLOOR:31|,FLOOR:31|,FLOOR:31|,FLOOR:31|,FLOOR:31|,FLOOR:31|,FLOOR:31|,FLOOR:31|,FLOOR:31|,FLOOR:31|,FLOOR:31|,FLOOR:31|,FLOOR:31|,FLOOR:31|,FLOOR:31|,FLOOR:31|,FLOOR:31|,FLOOR:31|,FLOOR:31|,FLOOR:31|,FLOOR:31|,FLOOR:31|,FLOOR:31|,FLOOR:31|,FLOOR:31|,FLOOR:31|,FLOOR:31|,FLOOR:31|,FLOOR:31|,FLOOR:31|,FLOOR:31|,FLOOR:31|,FLOOR:31|,FLOOR:31|,FLOOR:31|,FLOOR:31|,FLOOR:31|,FLOOR:31|,FLOOR:31|,FLOOR:31|,
FLOOR:31|,FLOOR:31|,FLOOR:31|,FLOOR:31|,FLOOR:31|,FLOOR:31|,FLOOR:31|,FLOOR:31|,FLOOR:31|,FLOOR:31|,FLOOR:31|,FLOOR:31|,FLOOR:31|,FLOOR:31|,FLOOR:31|,FLOOR:31|,FLOOR:31|,FLOOR:31|,FLOOR:31|,FLOOR:31|,FLOOR:31|,FLOOR:31|,FLOOR:31|,FLOOR:31|,FLOOR:31|,FLOOR:31|,FLOOR:31|,FLOOR:31|,FLOOR:31|,FLOOR:31|,FLOOR:31|,FLOOR:31|,FLOOR:31|,FLOOR:31|,FLOOR:31|,FLOOR:31|,FLOOR:31|,FLOOR:31|,FLOOR:31|,FLOOR:31|,FLOOR:31|,FLOOR:31|,FLOOR:31|,FLOOR:31|,FLOOR:31|,FLOOR:31|,FLOOR:31|,FLOOR:31|,FLOOR:31|,FLOOR:31|,FLOOR:31|,FLOOR:31|,FLOOR:31|,FLOOR:31|,FLOOR:31|,FLOOR:31|,FLOOR:31|,FLOOR:31|,FLOOR:31|,FLOOR:31|,FLOOR:31|,FLOOR:31|,FLOOR:31|,FLOOR:31|,FLOOR:31|,FLOOR:31|,FLOOR:31|,FLOOR:31|,FLOOR:31|,FLOOR:31|,FLOOR:31|,FLOOR:31|,FLOOR:31|,FLOOR:31|,FLOOR:31|,FLOOR:31|,FLOOR:31|,FLOOR:31|,FLOOR:31|,
FLOOR:31|,FLOOR:31|,FLOOR:31|,FLOOR:31|,FLOOR:31|,FLOOR:31|,FLOOR:31|,FLOOR:31|,FLOOR:31|,FLOOR:31|,FLOOR:31|,FLOOR:31|,FLOOR:31|,FLOOR:31|,FLOOR:31|,FLOOR:31|,FLOOR:31|,FLOOR:31|,FLOOR:31|,FLOOR:31|,FLOOR:31|,FLOOR:31|,FLOOR:31|,FLOOR:31|,FLOOR:31|,FLOOR:31|,FLOOR:31|,FLOOR:31|,FLOOR:31|,FLOOR:31|,FLOOR:31|,FLOOR:31|,FLOOR:31|,FLOOR:31|,FLOOR:31|,FLOOR:31|,FLOOR:31|,FLOOR:31|,FLOOR:31|,FLOOR:31|,FLOOR:31|,FLOOR:31|,FLOOR:31|,FLOOR:31|,FLOOR:31|,FLOOR:31|,FLOOR:31|,FLOOR:31|,FLOOR:31|,FLOOR:31|,FLOOR:31|,FLOOR:31|,FLOOR:31|,FLOOR:31|,FLOOR:31|,FLOOR:31|,FLOOR:31|,FLOOR:31|,FLOOR:31|,FLOOR:31|,FLOOR:31|,FLOOR:31|,FLOOR:31|,FLOOR:31|,FLOOR:31|,FLOOR:31|,FLOOR:31|,FLOOR:31|,FLOOR:31|,FLOOR:31|,FLOOR:31|,FLOOR:31|,FLOOR:31|,FLOOR:31|,FLOOR:31|,FLOOR:31|,FLOOR:31|,FLOOR:31|,FLOOR:31|,
FLOOR:31|,FLOOR:31|,FLOOR:31|,FLOOR:31|,FLOOR:31|,FLOOR:31|,FLOOR:31|,FLOOR:31|,FLOOR:31|,FLOOR:31|,FLOOR:31|,FLOOR:31|,FLOOR:31|,FLOOR:31|,FLOOR:31|,FLOOR:31|,FLOOR:31|,FLOOR:31|,FLOOR:31|,FLOOR:31|,FLOOR:31|,FLOOR:31|,FLOOR:31|,FLOOR:31|,FLOOR:31|,FLOOR:31|,FLOOR:31|,FLOOR:31|,FLOOR:31|,FLOOR:31|,FLOOR:31|,FLOOR:31|,FLOOR:31|,FLOOR:31|,FLOOR:31|,FLOOR:31|,FLOOR:31|,FLOOR:31|,FLOOR:31|,FLOOR:31|,FLOOR:31|,FLOOR:31|,FLOOR:31|,FLOOR:31|,FLOOR:31|,FLOOR:31|,FLOOR:31|,FLOOR:31|,FLOOR:31|,FLOOR:31|,FLOOR:31|,FLOOR:31|,FLOOR:31|,FLOOR:31|,FLOOR:31|,FLOOR:31|,FLOOR:31|,FLOOR:31|,FLOOR:31|,FLOOR:31|,FLOOR:31|,FLOOR:31|,FLOOR:31|,FLOOR:31|,FLOOR:31|,FLOOR:31|,FLOOR:31|,FLOOR:31|,FLOOR:31|,FLOOR:31|,FLOOR:31|,FLOOR:31|,FLOOR:31|,FLOOR:31|,FLOOR:31|,FLOOR:31|,FLOOR:31|,FLOOR:31|,FLOOR:31|,
FLOOR:31|,FLOOR:31|,FLOOR:31|,FLOOR:31|,FLOOR:31|,FLOOR:31|,FLOOR:31|,FLOOR:31|,FLOOR:31|,FLOOR:31|,FLOOR:31|,FLOOR:31|,FLOOR:31|,FLOOR:31|,FLOOR:31|,FLOOR:31|,FLOOR:31|,FLOOR:31|,FLOOR:31|,FLOOR:31|,FLOOR:31|,FLOOR:31|,FLOOR:31|,FLOOR:31|,FLOOR:31|,FLOOR:31|,FLOOR:31|,FLOOR:31|,FLOOR:31|,FLOOR:31|,FLOOR:31|,FLOOR:31|,FLOOR:31|,FLOOR:31|,FLOOR:31|,FLOOR:31|,FLOOR:31|,FLOOR:31|,FLOOR:31|,FLOOR:31|,FLOOR:31|,FLOOR:31|,FLOOR:31|,FLOOR:31|,FLOOR:31|,FLOOR:31|,FLOOR:31|,FLOOR:31|,FLOOR:31|,FLOOR:31|,FLOOR:31|,FLOOR:31|,FLOOR:31|,FLOOR:31|,FLOOR:31|,FLOOR:31|,FLOOR:31|,FLOOR:31|,FLOOR:31|,FLOOR:31|,FLOOR:31|,FLOOR:31|,FLOOR:31|,FLOOR:31|,FLOOR:31|,FLOOR:31|,FLOOR:31|,FLOOR:31|,FLOOR:31|,FLOOR:31|,FLOOR:31|,FLOOR:31|,FLOOR:31|,FLOOR:31|,FLOOR:31|,FLOOR:31|,FLOOR:31|,FLOOR:31|,FLOOR:31|,
FLOOR:31|,FLOOR:31|,FLOOR:31|,FLOOR:31|,FLOOR:31|,FLOOR:31|,FLOOR:31|,FLOOR:31|,FLOOR:31|,FLOOR:31|SCENERY:37:0|,WALL:25|,WALL:25|,WALL:25|,WALL:25|,WALL:25|,WALL:25|,WALL:25|,WALL:25|,WALL:25|,WALL:25|,WALL:25|,WALL:25|,WALL:25|,WALL:25|,WALL:25|,WALL:25|,WALL:25|,WALL:25|,WALL:25|,WALL:25|,FLOOR:31|,FLOOR:31|,FLOOR:31|,FLOOR:31|,FLOOR:31|,FLOOR:31|,FLOOR:31|,FLOOR:31|,FLOOR:31|,FLOOR:31|,FLOOR:31|,FLOOR:31|,FLOOR:31|,FLOOR:31|,FLOOR:31|,FLOOR:31|,FLOOR:31|,WALL:25|,WALL:25|,WALL:25|,WALL:25|,WALL:25|,WALL:25|,WALL:25|,WALL:25|,WALL:25|,WALL:25|,WALL:25|,WALL:25|,WALL:25|,WALL:25|,WALL:25|,WALL:25|,WALL:25|,WALL:25|,WALL:25|,WALL:25|,WALL:25|,WALL:25|,WALL:25|,WALL:25|,WALL:25|,FLOOR:31|,FLOOR:31|,FLOOR:31|,FLOOR:31|,FLOOR:31|,FLOOR:31|,FLOOR:31|,
FLOOR:31|,FLOOR:31|,FLOOR:31|,FLOOR:31|,FLOOR:31|,FLOOR:31|,FLOOR:31|,FLOOR:31|,FLOOR:31|,FLOOR:31|,WALL:25|,FLOOR:3|SCENERY:13:0|,FLOOR:3|SCENERY:13:0|,FLOOR:3|SCENERY:13:0|,FLOOR:3|SCENERY:13:0|,FLOOR:3|,FLOOR:3|,FLOOR:3|,FLOOR:3|SCENERY:13:0|,FLOOR:3|SCENERY:13:0|,FLOOR:3|SCENERY:13:0|,FLOOR:3|,FLOOR:3|SCENERY:13:0|,FLOOR:3|,FLOOR:3|,FLOOR:3|SCENERY:13:0|,FLOOR:3|,FLOOR:3|SCENERY:13:0|,FLOOR:3|SCENERY:13:0|,WALL:25|,FLOOR:31|,FLOOR:31|,FLOOR:31|,FLOOR:31|,FLOOR:31|,FLOOR:31|,FLOOR:31|,FLOOR:31|,FLOOR:31|,FLOOR:31|,FLOOR:31|,FLOOR:31|,FLOOR:31|,FLOOR:31|SCENERY:37:0|,FLOOR:31|SCENERY:38:0|,FLOOR:31|SCENERY:38:0|,FLOOR:31|SCENERY:38:0|,WALL:25|,FLOOR:3|,FLOOR:3|,FLOOR:3|,FLOOR:3|,FLOOR:3|,FLOOR:3|,FLOOR:3|,FLOOR:3|,FLOOR:3|,FLOOR:3|,FLOOR:3|,FLOOR:3|,FLOOR:3|,FLOOR:3|,FLOOR:3|,FLOOR:3|,FLOOR:3|,FLOOR:3|,FLOOR:3|,FLOOR:3|,FLOOR:3|,FLOOR:3|,FLOOR:3|,WALL:25|,FLOOR:31|,FLOOR:31|,FLOOR:31|,FLOOR:31|,FLOOR:31|,FLOOR:31|,FLOOR:31|,
FLOOR:31|,FLOOR:31|,FLOOR:31|,FLOOR:31|,FLOOR:31|,FLOOR:31|,FLOOR:31|SCENERY:37:0|,FLOOR:31|SCENERY:38:0|,FLOOR:31|SCENERY:38:0|,FLOOR:31|SCENERY:38:0|,WALL:25|,FLOOR:3|SCENERY:13:0|,FLOOR:3|SCENERY:13:0|,FLOOR:3|,FLOOR:3|,FLOOR:3|,FLOOR:3|SCENERY:55:0|,FLOOR:3|,FLOOR:3|,FLOOR:3|,FLOOR:3|,FLOOR:3|,FLOOR:3|,FLOOR:3|,FLOOR:3|,FLOOR:3|,FLOOR:3|,FLOOR:3|,FLOOR:3|SCENERY:13:0|,WALL:25|,FLOOR:31|SCENERY:38:0|,FLOOR:31|SCENERY:38:0|,FLOOR:31|SCENERY:38:0|,FLOOR:31|SCENERY:36:0|,FLOOR:31|,FLOOR:31|,FLOOR:31|,FLOOR:31|,FLOOR:31|,FLOOR:31|,FLOOR:31|,FLOOR:31|,FLOOR:31|,FLOOR:31|,FLOOR:31|,FLOOR:31|,FLOOR:31|,WALL:25|,FLOOR:3|,WALL:25|,WALL:25|SCENERY:29:0|,FLOOR:3|DOOR:2|,WALL:25|,WALL:25|,WALL:25|,WALL:25|,WALL:25|,WALL:25|,WALL:25|,WALL:25|,WALL:25|,WALL:25|,WALL:25|SCENERY:29:0|,WALL:25|,WALL:25|,WALL:25|,FLOOR:3|DOOR:2|,WALL:25|,WALL:25|,WALL:25|,FLOOR:3|,WALL:25|,FLOOR:31|,FLOOR:31|,FLOOR:31|,FLOOR:31|,FLOOR:31|,FLOOR:31|,FLOOR:31|,
FLOOR:31|,FLOOR:31|,FLOOR:31|,FLOOR:31|,FLOOR:31|,FLOOR:31|,FLOOR:31|,FLOOR:31|,FLOOR:31|,FLOOR:31|,WALL:25|,FLOOR:3|SCENERY:13:0|,FLOOR:3|,FLOOR:3|RAISED_FLOOR:43|,FLOOR:3|RAISED_FLOOR:48|SCENERY:55:0|,FLOOR:3|RAISED_FLOOR:48|SCENERY:55:0|,FLOOR:3|RAISED_FLOOR:48|,FLOOR:3|RAISED_FLOOR:48|SCENERY:55:0|,FLOOR:3|RAISED_FLOOR:48|SCENERY:55:0|,FLOOR:3|RAISED_FLOOR:48|,FLOOR:3|RAISED_FLOOR:48|SCENERY:55:0|,FLOOR:3|RAISED_FLOOR:48|,FLOOR:3|RAISED_FLOOR:48|SCENERY:55:0|,FLOOR:3|RAISED_FLOOR:48|,FLOOR:3|RAISED_FLOOR:48|,FLOOR:3|RAISED_FLOOR:48|SCENERY:55:0|,FLOOR:3|RAISED_FLOOR:48|SCENERY:55:0|,FLOOR:3|RAISED_FLOOR:42|SCENERY:55:0|,FLOOR:3|SCENERY:13:0|,WALL:25|,FLOOR:31|,FLOOR:31|,FLOOR:31|,FLOOR:31|,FLOOR:31|,FLOOR:31|,FLOOR:31|,FLOOR:31|,FLOOR:31|,FLOOR:31|,FLOOR:31|,FLOOR:31|,FLOOR:31|,FLOOR:31|,FLOOR:31|,FLOOR:31|,FLOOR:31|,WALL:25|,FLOOR:3|,WALL:25|,FLOOR:3|SCENERY:25:0|,FLOOR:3|,WALL:25|,FLOOR:3|RAISED_FLOOR:43|,FLOOR:3|RAISED_FLOOR:48|,FLOOR:3|RAISED_FLOOR:48|,FLOOR:3|RAISED_FLOOR:48|,FLOOR:3|RAISED_FLOOR:48|,FLOOR:3|RAISED_FLOOR:48|,FLOOR:3|RAISED_FLOOR:48|,FLOOR:3|RAISED_FLOOR:48|,FLOOR:3|RAISED_FLOOR:42|,FLOOR:3|SCENERY:25:0|,WALL:25|,FLOOR:3|SCENERY:57:0|,FLOOR:3|SCENERY:41:0|,FLOOR:3|,FLOOR:3|SCENERY:41:0|,FLOOR:3|SCENERY:57:0|,WALL:25|,FLOOR:3|,WALL:25|,FLOOR:31|,FLOOR:31|,FLOOR:31|,FLOOR:31|,FLOOR:31|,FLOOR:31|,FLOOR:31|,
FLOOR:31|DEPLOY:1|,FLOOR:31|DEPLOY:1|,FLOOR:31|,FLOOR:31|,FLOOR:31|,FLOOR:31|,WALL:25|,WALL:25|,WALL:25|,WALL:25|SCENERY:29:0|,WALL:25|,FLOOR:3|,FLOOR:3|,FLOOR:3|RAISED_FLOOR:46|,FLOOR:3|SCENERY:55:0|,WALL:16|,FLOOR:3|,WALL:16|,FLOOR:3|,WALL:16|,FLOOR:3|,WALL:16|,FLOOR:3|,WALL:16|,FLOOR:3|,WALL:16|SCENERY:19:0|,WALL:16|SCENERY:18:0|,FLOOR:3|RAISED_FLOOR:47|SCENERY:55:0|,FLOOR:3|,WALL:25|,WALL:25|,WALL:25|,WALL:25|,WALL:25|,WALL:25|,WALL:25|,WALL:25|,WALL:25|,WALL:25|,WALL:25|,WALL:25|,WALL:25|,WALL:25|,WALL:25|,WALL:25|,WALL:25|,WALL:25|,WALL:25|,FLOOR:3|,WALL:25|,FLOOR:3|SCENERY:17:0|,FLOOR:3|DEPLOY:2|SCENERY:55:0|,FLOOR:3|DOOR:1|,FLOOR:3|RAISED_FLOOR:46|,WALL:54|,WALL:54|,FLOOR:3|,FLOOR:3|,COMP:3|OWNER:2|,WALL:54|SCENERY:19:0|,WALL:54|SCENERY:18:0|,FLOOR:3|RAISED_FLOOR:47|,FLOOR:3|,WALL:25|,FLOOR:3|SCENERY:58:0|,FLOOR:3|DEPLOY:2|,FLOOR:3|DEPLOY:2|,FLOOR:3|DEPLOY:2|,FLOOR:3|SCENERY:58:0|,WALL:25|,FLOOR:3|,WALL:25|,FLOOR:31|,FLOOR:31|,FLOOR:31|,FLOOR:31|,FLOOR:31|,FLOOR:31|,FLOOR:31|,
FLOOR:31|DEPLOY:1|,FLOOR:31|DEPLOY:1|,FLOOR:31|,FLOOR:31|,FLOOR:31|,FLOOR:31|,FLOOR:3|DOOR:1|,FLOOR:3|SCENERY:55:0|,FLOOR:3|,FLOOR:3|,FLOOR:3|DOOR:1|,FLOOR:3|SCENERY:55:0|,FLOOR:3|SCENERY:55:0|,FLOOR:3|RAISED_FLOOR:46|,WALL:16|SCENERY:37:0|,WALL:16|SCENERY:38:0|,WALL:16|SCENERY:38:0|,WALL:16|SCENERY:38:0|,WALL:16|SCENERY:38:0|,WALL:16|SCENERY:38:0|,WALL:16|SCENERY:38:0|,WALL:16|SCENERY:38:0|,WALL:16|SCENERY:38:0|,WALL:16|SCENERY:38:0|,WALL:16|SCENERY:38:0|,WALL:16|SCENERY:38:0|,WALL:16|SCENERY:36:0|,FLOOR:3|RAISED_FLOOR:47|,FLOOR:3|,FLOOR:3|RAISED_FLOOR:80|,FLOOR:3|,FLOOR:3|,FLOOR:3|,FLOOR:3|,FLOOR:3|,FLOOR:3|,FLOOR:3|,FLOOR:3|,FLOOR:3|,FLOOR:3|,FLOOR:3|,FLOOR:3|,FLOOR:3|,FLOOR:3|,FLOOR:3|,FLOOR:3|,FLOOR:3|,FLOOR:3|,FLOOR:3|,WALL:25|,FLOOR:3|SCENERY:17:0|,FLOOR:3|DEPLOY:2|,WALL:25|,FLOOR:3|RAISED_FLOOR:46|,FLOOR:3|,FLOOR:3|,FLOOR:3|SCENERY:55:0|,COMP:3|OWNER:2|,WALL:54|SCENERY:37:0|,WALL:54|SCENERY:38:0|,WALL:54|SCENERY:36:0|,FLOOR:3|RAISED_FLOOR:47|,FLOOR:3|,WALL:25|,FLOOR:3|SCENERY:26:0|,FLOOR:3|,FLOOR:3|,FLOOR:3|,FLOOR:3|SCENERY:27:0|,WALL:25|,FLOOR:3|,WALL:25|,WALL:25|,FLOOR:31|,FLOOR:31|,FLOOR:31|,FLOOR:31|,FLOOR:31|,FLOOR:31|,
FLOOR:31|DEPLOY:1|,FLOOR:31|DEPLOY:1|,FLOOR:31|,FLOOR:31|,FLOOR:31|,FLOOR:31|,FLOOR:3|DOOR:1|,FLOOR:3|SCENERY:55:0|,FLOOR:3|SCENERY:55:0|,FLOOR:3|,FLOOR:3|DOOR:1|,FLOOR:3|SCENERY:55:0|,FLOOR:3|SCENERY:55:0|,FLOOR:3|RAISED_FLOOR:46|,WALL:16|,WALL:16|,WALL:16|,WALL:16|,WALL:16|,WALL:16|,WALL:16|,WALL:16|,WALL:16|,WALL:16|,WALL:16|,WALL:16|,WALL:16|,FLOOR:3|RAISED_FLOOR:47|,FLOOR:3|,WALL:25|,WALL:25|,WALL:25|,WALL:25|,WALL:25|,WALL:25|,WALL:25|,WALL:25|,WALL:25|,WALL:25|,FLOOR:3|DOOR:2|,WALL:25|,WALL:25|SCENERY:29:0|,WALL:25|SCENERY:29:0|,WALL:25|,WALL:25|,FLOOR:3|DOOR:2|,WALL:25|SCENERY:29:0|,WALL:25|,FLOOR:3|,WALL:25|,FLOOR:3|SCENERY:17:0|,FLOOR:3|DEPLOY:2|,WALL:25|,FLOOR:3|RAISED_FLOOR:46|,WALL:54|,WALL:54|,FLOOR:3|,WALL:54|SCENERY:37:0|,WALL:54|SCENERY:38:0|,WALL:54|SCENERY:38:0|,WALL:54|SCENERY:36:0|,FLOOR:3|RAISED_FLOOR:47|,FLOOR:3|,WALL:25|,WALL:25|SCENERY:29:0|,WALL:25|SCENERY:29:0|,WALL:25|,WALL:25|SCENERY:29:0|,WALL:25|,WALL:25|,FLOOR:3|,FLOOR:3|,WALL:25|,FLOOR:31|,FLOOR:31|,FLOOR:31|,FLOOR:31|,FLOOR:31|,FLOOR:31|,
FLOOR:31|DEPLOY:1|,FLOOR:31|DEPLOY:1|,FLOOR:31|,FLOOR:31|,FLOOR:31|,FLOOR:31|,FLOOR:3|DOOR:1|,FLOOR:3|SCENERY:55:0|,FLOOR:3|,FLOOR:3|,FLOOR:3|DOOR:1|,FLOOR:3|SCENERY:55:0|,FLOOR:3|,FLOOR:3|RAISED_FLOOR:46|,FLOOR:3|,WALL:16|,FLOOR:3|,WALL:16|,FLOOR:3|SCENERY:55:0|,WALL:16|,FLOOR:3|SCENERY:55:0|,WALL:16|,FLOOR:3|SCENERY:55:0|,WALL:16|,FLOOR:3|,WALL:16|SCENERY:19:0|,WALL:16|SCENERY:18:0|,FLOOR:3|RAISED_FLOOR:47|,FLOOR:3|,WALL:25|,FLOOR:3|,FLOOR:3|,FLOOR:3|,FLOOR:3|,FLOOR:3|,FLOOR:3|,FLOOR:3|,FLOOR:3|,FLOOR:3|,FLOOR:3|,WALL:25|,FLOOR:3|SCENERY:24:0|,FLOOR:3|SCENERY:25:0|,FLOOR:3|SCENERY:25:0|,FLOOR:3|SCENERY:41:0|,FLOOR:3|,FLOOR:3|SCENERY:25:0|,WALL:25|,FLOOR:3|,WALL:25|,FLOOR:3|SCENERY:17:0|,FLOOR:3|DEPLOY:2|,WALL:25|,FLOOR:3|RAISED_FLOOR:46|SCENERY:55:0|,FLOOR:3|,FLOOR:3|,FLOOR:3|,COMP:3|OWNER:2|SCENERY:55:0|,WALL:54|SCENERY:37:0|,WALL:54|SCENERY:38:0|,WALL:54|SCENERY:36:0|,FLOOR:3|RAISED_FLOOR:47|,FLOOR:3|,WALL:25|,FLOOR:3|SCENERY:25:0|,FLOOR:3|SCENERY:25:0|,FLOOR:3|,FLOOR:3|,FLOOR:3|SCENERY:27:0|,WALL:25|,FLOOR:3|,FLOOR:3|,WALL:25|,FLOOR:31|SCENERY:38:0|,FLOOR:31|SCENERY:38:0|,FLOOR:31|SCENERY:36:0|,FLOOR:31|,FLOOR:31|,FLOOR:31|,
FLOOR:31|DEPLOY:1|,FLOOR:31|DEPLOY:1|,FLOOR:31|,FLOOR:31|,FLOOR:31|,FLOOR:31|,WALL:25|,WALL:25|,WALL:25|,WALL:25|,WALL:25|,FLOOR:3|,FLOOR:3|SCENERY:55:0|,FLOOR:3|RAISED_FLOOR:45|SCENERY:55:0|,FLOOR:3|RAISED_FLOOR:49|SCENERY:55:0|,FLOOR:3|RAISED_FLOOR:49|,FLOOR:3|RAISED_FLOOR:49|SCENERY:55:0|,FLOOR:3|RAISED_FLOOR:49|SCENERY:55:0|,FLOOR:3|RAISED_FLOOR:49|SCENERY:55:0|,FLOOR:3|RAISED_FLOOR:49|,FLOOR:3|RAISED_FLOOR:49|SCENERY:55:0|,FLOOR:3|RAISED_FLOOR:49|SCENERY:55:0|,FLOOR:3|RAISED_FLOOR:49|,FLOOR:3|RAISED_FLOOR:49|SCENERY:55:0|,FLOOR:3|RAISED_FLOOR:49|,FLOOR:3|RAISED_FLOOR:49|SCENERY:55:0|,FLOOR:3|RAISED_FLOOR:49|SCENERY:55:0|,FLOOR:3|RAISED_FLOOR:44|SCENERY:55:0|,FLOOR:3|,WALL:25|,FLOOR:3|,WALL:25|,WALL:25|,WALL:25|,WALL:25|,WALL:25|,WALL:25|,WALL:25|,WALL:25|,FLOOR:3|,FLOOR:3|DOOR:1|,FLOOR:3|,FLOOR:3|DEPLOY:2|,FLOOR:3|DEPLOY:2|,FLOOR:3|DEPLOY:2|,FLOOR:3|DEPLOY:2|,FLOOR:3|,WALL:25|,FLOOR:3|,WALL:25|,FLOOR:3|SCENERY:24:0|,FLOOR:3|DEPLOY:2|SCENERY:55:0|,FLOOR:3|DOOR:1|,FLOOR:3|RAISED_FLOOR:46|,WALL:54|,WALL:54|,FLOOR:3|,FLOOR:3|SCENERY:55:0|,COMP:3|OWNER:2|SCENERY:55:0|,WALL:54|SCENERY:19:0|,WALL:54|SCENERY:18:0|,FLOOR:3|RAISED_FLOOR:47|,FLOOR:3|SCENERY:55:0|,WALL:25|,FLOOR:3|,FLOOR:3|DEPLOY:2|,FLOOR:3|DEPLOY:2|,FLOOR:3|DEPLOY:2|,FLOOR:3|SCENERY:27:0|,WALL:25|,FLOOR:3|,FLOOR:3|,WALL:25|,FLOOR:31|SCENERY:38:0|,FLOOR:31|SCENERY:38:0|,FLOOR:31|SCENERY:36:0|,FLOOR:31|,FLOOR:31|,FLOOR:31|,
FLOOR:31|,FLOOR:31|,FLOOR:31|,FLOOR:31|,FLOOR:31|,FLOOR:31|,FLOOR:31|,FLOOR:31|,FLOOR:31|,FLOOR:31|,WALL:25|,FLOOR:3|,FLOOR:3|,FLOOR:3|,FLOOR:3|,FLOOR:3|,FLOOR:3|,FLOOR:3|,FLOOR:3|SCENERY:55:0|,FLOOR:3|,FLOOR:3|,FLOOR:3|,FLOOR:3|,FLOOR:3|,FLOOR:3|,FLOOR:3|SCENERY:55:0|,FLOOR:3|SCENERY:55:0|,FLOOR:3|SCENERY:13:0|,FLOOR:3|SCENERY:13:0|,WALL:25|,FLOOR:3|,WALL:25|,FLOOR:3|RAISED_FLOOR:40|,FLOOR:3|RAISED_FLOOR:49|,FLOOR:3|RAISED_FLOOR:49|,FLOOR:3|RAISED_FLOOR:49|,FLOOR:3|RAISED_FLOOR:49|,FLOOR:3|RAISED_FLOOR:41|,WALL:25|,FLOOR:3|,WALL:25|,FLOOR:3|,FLOOR:3|SCENERY:28:0|,FLOOR:3|,FLOOR:3|SCENERY:28:0|,FLOOR:3|,FLOOR:3|SCENERY:28:0|,WALL:25|,FLOOR:3|,WALL:25|,FLOOR:3|,FLOOR:3|,WALL:25|,FLOOR:3|RAISED_FLOOR:45|,FLOOR:3|RAISED_FLOOR:49|,FLOOR:3|RAISED_FLOOR:49|,FLOOR:3|RAISED_FLOOR:49|SCENERY:55:0|,FLOOR:3|RAISED_FLOOR:49|,FLOOR:3|RAISED_FLOOR:49|,FLOOR:3|RAISED_FLOOR:49|,FLOOR:3|RAISED_FLOOR:49|,FLOOR:3|RAISED_FLOOR:44|,FLOOR:3|SCENERY:13:0|,WALL:25|,FLOOR:3|SCENERY:41:0|,FLOOR:3|,FLOOR:3|,FLOOR:3|,FLOOR:3|SCENERY:41:0|,WALL:25|,FLOOR:3|,WALL:25|,WALL:25|,FLOOR:31|,FLOOR:31|,FLOOR:31|,FLOOR:31|,FLOOR:31|,FLOOR:31|,
FLOOR:31|,FLOOR:31|,FLOOR:31|,FLOOR:31|,FLOOR:31|,FLOOR:31|,FLOOR:31|,FLOOR:31|,FLOOR:31|,FLOOR:31|,WALL:25|,FLOOR:3|RAISED_FLOOR:81|,FLOOR:3|RAISED_FLOOR:79|,FLOOR:3|RAISED_FLOOR:79|SCENERY:13:0|,FLOOR:3|RAISED_FLOOR:79|SCENERY:13:0|,FLOOR:3|RAISED_FLOOR:80|,FLOOR:3|RAISED_FLOOR:79|,FLOOR:3|RAISED_FLOOR:79|,FLOOR:3|,FLOOR:3|RAISED_FLOOR:79|,FLOOR:3|RAISED_FLOOR:79|,FLOOR:3|RAISED_FLOOR:80|,FLOOR:3|,FLOOR:3|,WALL:25|,WALL:25|,WALL:25|,WALL:25|,WALL:25|,WALL:25|,FLOOR:3|,WALL:25|,FLOOR:3|RAISED_FLOOR:47|,COMP:3|OWNER:2|,WALL:16|SCENERY:19:0|,WALL:16|SCENERY:18:0|,COMP:3|OWNER:2|,FLOOR:3|RAISED_FLOOR:46|,WALL:25|,FLOOR:3|,WALL:25|,WALL:25|,WALL:25|,WALL:25|,WALL:25|,WALL:25|,WALL:25|,WALL:25|,FLOOR:3|,WALL:25|,WALL:25|,WALL:25|,WALL:25|,WALL:25|,WALL:25|,WALL:25|,WALL:25|,WALL:25|,WALL:25|,WALL:25|,WALL:25|,WALL:25|,WALL:25|,WALL:25|,WALL:25|,WALL:25|,FLOOR:3|DOOR:2|,WALL:25|,WALL:25|,WALL:25|,FLOOR:3|,WALL:25|,FLOOR:31|,FLOOR:31|,FLOOR:31|,FLOOR:31|,FLOOR:31|,FLOOR:31|,FLOOR:31|,
FLOOR:31|,FLOOR:31|,FLOOR:31|,FLOOR:31|,FLOOR:31|,FLOOR:31|,FLOOR:31|,FLOOR:31|SCENERY:37:0|,FLOOR:31|SCENERY:38:0|,FLOOR:31|SCENERY:38:0|,WALL:25|,FLOOR:3|,WALL:25|,WALL:25|,WALL:25|,FLOOR:3|SCENERY:55:0|,WALL:25|,WALL:25|,FLOOR:3|,WALL:25|,WALL:25|,FLOOR:3|,FLOOR:3|,FLOOR:3|,WALL:25|,FLOOR:3|,FLOOR:3|,FLOOR:3|,FLOOR:3|,FLOOR:3|,FLOOR:3|,WALL:25|,FLOOR:3|RAISED_FLOOR:47|,WALL:16|SCENERY:37:0|,WALL:16|SCENERY:38:0|,WALL:16|SCENERY:38:0|,WALL:16|SCENERY:36:0|,FLOOR:3|RAISED_FLOOR:46|,FLOOR:3|DOOR:1|,FLOOR:3|,WALL:25|,FLOOR:3|,FLOOR:3|,FLOOR:3|,FLOOR:3|,FLOOR:3|,FLOOR:3|,FLOOR:3|,FLOOR:3|,FLOOR:3|,FLOOR:3|,FLOOR:3|,FLOOR:3|,FLOOR:3|,FLOOR:3|,FLOOR:3|,FLOOR:3|,FLOOR:3|,FLOOR:3|,FLOOR:3|,FLOOR:3|,FLOOR:3|,FLOOR:3|,FLOOR:3|,FLOOR:3|,FLOOR:3|,FLOOR:3|,FLOOR:3|,FLOOR:3|,FLOOR:3|,FLOOR:3|,WALL:25|,WALL:25|,FLOOR:31|,FLOOR:31|,FLOOR:31|,FLOOR:31|,FLOOR:31|,FLOOR:31|,
FLOOR:31|,FLOOR:31|,FLOOR:31|,FLOOR:31|,FLOOR:31|,FLOOR:31|,FLOOR:31|,FLOOR:31|,FLOOR:31|,FLOOR:31|,WALL:25|,FLOOR:3|SCENERY:55:0|,WALL:25|,FLOOR:3|SCENERY:13:0|,FLOOR:3|SCENERY:13:0|,FLOOR:3|SCENERY:55:0|,FLOOR:3|SCENERY:55:0|,FLOOR:3|SCENERY:55:0|,FLOOR:3|SCENERY:55:0|,FLOOR:3|SCENERY:13:0|,WALL:25|,FLOOR:3|,FLOOR:3|SCENERY:55:0|,FLOOR:3|SCENERY:55:0|,WALL:25|,FLOOR:3|,WALL:25|,WALL:25|,WALL:25|SCENERY:29:0|,WALL:25|SCENERY:29:0|,WALL:25|,WALL:25|,FLOOR:3|RAISED_FLOOR:47|,COMP:3|OWNER:2|,WALL:16|SCENERY:19:0|,WALL:16|SCENERY:18:0|,COMP:3|OWNER:2|,FLOOR:3|RAISED_FLOOR:46|,WALL:25|,FLOOR:3|,WALL:25|,WALL:25|,FLOOR:3|DOOR:2|,WALL:25|,WALL:25|,WALL:25|SCENERY:29:0|,WALL:25|SCENERY:29:0|,WALL:25|,WALL:25|SCENERY:29:0|,WALL:25|,WALL:25|,WALL:25|,FLOOR:3|DOOR:2|,WALL:25|,WALL:25|,WALL:25|,WALL:25|,WALL:25|,WALL:25|,WALL:25|,WALL:25|,FLOOR:3|DOOR:2|,WALL:25|,WALL:25|,WALL:25|,WALL:25|,WALL:25|,WALL:25|,WALL:25|,FLOOR:3|,FLOOR:3|,FLOOR:3|,WALL:25|,FLOOR:31|,FLOOR:31|,FLOOR:31|,FLOOR:31|,FLOOR:31|,FLOOR:31|,
FLOOR:31|,FLOOR:31|,FLOOR:31|,FLOOR:31|,FLOOR:31|,FLOOR:31|,FLOOR:31|,FLOOR:31|,FLOOR:31|,FLOOR:31|,WALL:25|,FLOOR:3|,WALL:25|,FLOOR:3|SCENERY:13:0|,FLOOR:3|SCENERY:55:0|,FLOOR:3|SCENERY:55:0|,FLOOR:3|SCENERY:13:0|,WALL:25|,FLOOR:3|SCENERY:55:0|,FLOOR:3|SCENERY:55:0|,FLOOR:3|SCENERY:55:0|,FLOOR:3|,FLOOR:3|SCENERY:55:0|,FLOOR:3|,WALL:25|,FLOOR:3|,WALL:25|,FLOOR:3|SCENERY:26:0|,FLOOR:3|,FLOOR:3|,FLOOR:3|SCENERY:27:0|,WALL:25|,FLOOR:3|RAISED_FLOOR:38|SCENERY:13:0|,FLOOR:3|RAISED_FLOOR:48|,FLOOR:3|RAISED_FLOOR:48|,FLOOR:3|RAISED_FLOOR:48|,FLOOR:3|RAISED_FLOOR:48|,FLOOR:3|RAISED_FLOOR:39|SCENERY:13:0|,WALL:25|,FLOOR:3|,WALL:25|,FLOOR:3|SCENERY:57:0|,FLOOR:3|,FLOOR:3|SCENERY:57:0|,WALL:25|,FLOOR:3|SCENERY:25:0|,FLOOR:3|DEPLOY:2|SCENERY:25:0|,FLOOR:3|DEPLOY:2|,FLOOR:3|DEPLOY:2|SCENERY:25:0|,FLOOR:3|,WALL:25|,FLOOR:3|SCENERY:28:0|,FLOOR:3|,FLOOR:3|SCENERY:28:0|,WALL:25|,FLOOR:7|,FLOOR:7|,FLOOR:7|,FLOOR:7|,FLOOR:7|,FLOOR:7|,FLOOR:7|,FLOOR:7|,FLOOR:7|,FLOOR:7|,FLOOR:7|,FLOOR:7|,FLOOR:7|,FLOOR:3|DOOR:1|,FLOOR:3|,FLOOR:3|SCENERY:30:0|,FLOOR:3|,WALL:25|,FLOOR:31|,FLOOR:31|,FLOOR:31|,FLOOR:31|,FLOOR:31|,FLOOR:31|,
FLOOR:31|,FLOOR:31|,FLOOR:31|,FLOOR:31|,FLOOR:31|,FLOOR:31|,FLOOR:31|,FLOOR:31|,FLOOR:31|,FLOOR:31|,WALL:25|,FLOOR:3|,WALL:25|,FLOOR:3|SCENERY:13:0|,FLOOR:3|SCENERY:55:0|,FLOOR:3|SCENERY:13:0|,FLOOR:3|SCENERY:13:0|,WALL:25|,FLOOR:3|,FLOOR:3|SCENERY:13:0|,WALL:25|,FLOOR:3|SCENERY:13:0|,FLOOR:3|SCENERY:13:0|,FLOOR:3|,WALL:25|,FLOOR:3|,WALL:25|,FLOOR:3|SCENERY:26:0|,FLOOR:3|DEPLOY:2|,FLOOR:3|DEPLOY:2|,FLOOR:3|SCENERY:27:0|,WALL:25|,WALL:25|,WALL:25|,WALL:25|SCENERY:29:0|,WALL:25|SCENERY:43:0|,WALL:25|,WALL:25|,WALL:25|SCENERY:29:0|,FLOOR:3|,WALL:25|,FLOOR:3|SCENERY:58:0|,FLOOR:3|,FLOOR:3|SCENERY:58:0|,WALL:25|,WALL:25|SCENERY:29:0|,WALL:25|,FLOOR:3|DOOR:2|,WALL:25|SCENERY:29:0|,WALL:25|,WALL:25|,FLOOR:3|,FLOOR:3|,FLOOR:3|,WALL:25|,FLOOR:7|,FLOOR:7|SCENERY:39:0|,FLOOR:7|SCENERY:39:0|,FLOOR:7|,FLOOR:7|,FLOOR:7|,FLOOR:7|,FLOOR:7|,FLOOR:7|,FLOOR:7|,FLOOR:7|SCENERY:39:0|,FLOOR:7|,FLOOR:7|,WALL:25|,FLOOR:3|,FLOOR:3|,FLOOR:3|,WALL:25|,FLOOR:31|,FLOOR:31|,FLOOR:31|,FLOOR:31|,FLOOR:31|,FLOOR:31|,
FLOOR:31|,FLOOR:31|,FLOOR:31|,FLOOR:31|,FLOOR:31|,FLOOR:31|,FLOOR:31|,FLOOR:31|,FLOOR:31|SCENERY:37:0|,FLOOR:31|SCENERY:38:0|,WALL:25|,FLOOR:3|,WALL:25|,WALL:25|,FLOOR:3|,WALL:25|SCENERY:29:0|,WALL:25|,WALL:25|,FLOOR:3|,WALL:25|,WALL:25|,WALL:25|,WALL:25|SCENERY:29:0|,FLOOR:3|SCENERY:55:0|,WALL:25|,FLOOR:3|,FLOOR:3|DOOR:1|,FLOOR:3|,FLOOR:3|DEPLOY:2|,FLOOR:3|DEPLOY:2|,FLOOR:3|SCENERY:41:0|,WALL:25|,FLOOR:3|SCENERY:26:0|,FLOOR:3|,FLOOR:3|SCENERY:25:0|,FLOOR:3|SCENERY:25:0|,WALL:25|,FLOOR:3|SCENERY:26:0|,FLOOR:3|SCENERY:25:0|,FLOOR:3|,WALL:25|,FLOOR:3|,FLOOR:3|,FLOOR:3|SCENERY:27:0|,WALL:25|,FLOOR:3|SCENERY:25:0|,FLOOR:3|,FLOOR:3|,FLOOR:3|SCENERY:25:0|,FLOOR:3|SCENERY:24:0|,WALL:25|,FLOOR:3|SCENERY:28:0|,FLOOR:3|,FLOOR:3|SCENERY:28:0|,WALL:25|,FLOOR:7|,FLOOR:7|SCENERY:39:0|,FLOOR:7|SCENERY:39:0|,FLOOR:7|,FLOOR:7|,FLOOR:7|,FLOOR:7|,FLOOR:7|,FLOOR:7|,FLOOR:7|SCENERY:39:0|,FLOOR:7|SCENERY:39:0|,FLOOR:7|,WALL:25|,WALL:25|,WALL:25|,FLOOR:3|,WALL:25|,WALL:25|,FLOOR:31|,FLOOR:31|,FLOOR:31|,FLOOR:31|,FLOOR:31|,FLOOR:31|,
FLOOR:31|,FLOOR:31|,FLOOR:31|,FLOOR:31|,FLOOR:31|,FLOOR:31|,FLOOR:31|,FLOOR:31|,FLOOR:31|,FLOOR:31|,WALL:25|,FLOOR:3|SCENERY:56:0|,FLOOR:3|,FLOOR:3|SCENERY:56:0|,FLOOR:3|,FLOOR:3|,FLOOR:3|SCENERY:56:0|,FLOOR:3|,FLOOR:3|,FLOOR:3|,FLOOR:3|,FLOOR:3|SCENERY:55:0|,FLOOR:3|SCENERY:55:0|,FLOOR:3|SCENERY:55:0|,WALL:25|,FLOOR:3|,WALL:25|,FLOOR:3|SCENERY:41:0|,FLOOR:3|,FLOOR:3|,FLOOR:3|SCENERY:27:0|,WALL:25|,FLOOR:3|SCENERY:26:0|,FLOOR:3|DEPLOY:2|,FLOOR:3|DEPLOY:2|,FLOOR:3|DEPLOY:2|,FLOOR:3|DOOR:1|,FLOOR:3|,FLOOR:3|DEPLOY:2|,FLOOR:3|,WALL:25|,FLOOR:3|SCENERY:41:0|,FLOOR:3|,FLOOR:3|,FLOOR:3|,FLOOR:3|,FLOOR:3|SCENERY:37:0|,FLOOR:3|SCENERY:38:0|,FLOOR:3|SCENERY:36:0|,FLOOR:3|,FLOOR:3|,FLOOR:3|,FLOOR:3|,FLOOR:3|,WALL:25|,FLOOR:7|,FLOOR:7|,FLOOR:58|,FLOOR:58|,FLOOR:58|,FLOOR:58|,FLOOR:58|,FLOOR:58|,FLOOR:58|,FLOOR:58|,FLOOR:58|,FLOOR:7|,FLOOR:7|DOOR:1|,FLOOR:7|SCENERY:39:0|,WALL:25|,FLOOR:3|,WALL:25|,FLOOR:31|,FLOOR:31|,FLOOR:31|,FLOOR:31|,FLOOR:31|,FLOOR:31|,FLOOR:31|,
FLOOR:31|,FLOOR:31|,FLOOR:31|,FLOOR:31|,FLOOR:31|,FLOOR:31|,FLOOR:31|,FLOOR:31|,FLOOR:31|,FLOOR:31|,WALL:25|,FLOOR:3|,WALL:25|,WALL:25|,FLOOR:3|,WALL:25|,WALL:25|,WALL:25|,FLOOR:3|,WALL:25|,WALL:25|,FLOOR:3|SCENERY:55:0|,WALL:25|,FLOOR:3|,WALL:25|,FLOOR:3|DOOR:2|,WALL:25|SCENERY:29:0|,WALL:25|SCENERY:29:0|,WALL:25|SCENERY:29:0|,WALL:25|SCENERY:29:0|,WALL:25|,WALL:25|,WALL:25|,WALL:25|,WALL:25|,WALL:25|,WALL:25|,WALL:25|,WALL:25|,WALL:25|,WALL:25|,WALL:25|,FLOOR:3|DOOR:2|,WALL:25|,WALL:25|,WALL:25|,WALL:25|,WALL:25|,WALL:25|,WALL:25|,WALL:25|,WALL:25|,FLOOR:3|DOOR:2|,WALL:25|,WALL:25|,FLOOR:7|,FLOOR:7|SCENERY:30:0|,FLOOR:58|,FLOOR:58|SCENERY:39:0|,FLOOR:58|,FLOOR:58|SCENERY:39:0|,FLOOR:58|,FLOOR:58|SCENERY:39:0|,FLOOR:58|,FLOOR:58|SCENERY:39:0|,FLOOR:58|,FLOOR:7|,WALL:25|,WALL:25|,WALL:25|,FLOOR:3|,WALL:25|,WALL:25|,FLOOR:31|,FLOOR:31|,FLOOR:31|,FLOOR:31|,FLOOR:31|,FLOOR:31|,
FLOOR:31|,FLOOR:31|,FLOOR:31|,FLOOR:31|,FLOOR:31|,FLOOR:31|,FLOOR:31|,WALL:25|,WALL:25|,WALL:25|,WALL:25|,FLOOR:3|,WALL:25|,FLOOR:3|RAISED_FLOOR:81|SCENERY:13:0|,FLOOR:3|SCENERY:55:0|,FLOOR:3|RAISED_FLOOR:80|SCENERY:13:0|,WALL:25|,FLOOR:3|RAISED_FLOOR:81|SCENERY:13:0|,FLOOR:3|SCENERY:55:0|,FLOOR:3|RAISED_FLOOR:80|SCENERY:13:0|,WALL:25|,FLOOR:3|,FLOOR:3|SCENERY:55:0|,FLOOR:3|,WALL:25|,FLOOR:3|,FLOOR:3|,FLOOR:3|,FLOOR:3|,FLOOR:3|,FLOOR:3|,FLOOR:3|DOOR:1|,FLOOR:3|,FLOOR:3|,FLOOR:3|,FLOOR:3|,FLOOR:3|,FLOOR:3|DOOR:1|,FLOOR:3|,FLOOR:3|,FLOOR:3|,FLOOR:3|,FLOOR:3|,FLOOR:3|,FLOOR:3|,FLOOR:3|,FLOOR:3|,FLOOR:3|,FLOOR:3|SCENERY:56:0|,FLOOR:3|,FLOOR:3|,FLOOR:3|,FLOOR:3|,FLOOR:3|,WALL:25|,FLOOR:7|,FLOOR:7|,FLOOR:58|,FLOOR:58|,FLOOR:58|,FLOOR:58|,FLOOR:58|,FLOOR:58|,FLOOR:58|,FLOOR:58|,FLOOR:58|,FLOOR:7|,FLOOR:7|,WALL:25|,FLOOR:3|,FLOOR:3|,FLOOR:3|,WALL:25|,FLOOR:31|,FLOOR:31|,FLOOR:31|,FLOOR:31|,FLOOR:31|,FLOOR:31|,
FLOOR:31|,FLOOR:31|,FLOOR:31|,FLOOR:31|,FLOOR:31|,FLOOR:31|,FLOOR:31|,WALL:25|,FLOOR:3|SCENERY:13:0|,FLOOR:3|SCENERY:13:0|,FLOOR:3|SCENERY:55:0|,FLOOR:3|,WALL:25|,FLOOR:3|RAISED_FLOOR:81|SCENERY:13:0|,FLOOR:3|SCENERY:55:0|,FLOOR:3|RAISED_FLOOR:80|SCENERY:55:0|,WALL:25|,FLOOR:3|RAISED_FLOOR:81|SCENERY:13:0|,FLOOR:3|SCENERY:55:0|,FLOOR:3|RAISED_FLOOR:80|SCENERY:13:0|,WALL:25|,WALL:25|,WALL:25|,FLOOR:3|,WALL:25|,FLOOR:3|,FLOOR:3|SCENERY:27:0|,FLOOR:3|,FLOOR:3|SCENERY:27:0|,FLOOR:3|,FLOOR:3|SCENERY:27:0|,WALL:25|,WALL:25|SCENERY:43:0|,WALL:25|SCENERY:29:0|,FLOOR:3|DOOR:2|,WALL:25|SCENERY:29:0|,WALL:25|SCENERY:29:0|,WALL:25|,FLOOR:3|,FLOOR:3|RAISED_FLOOR:40|SCENERY:55:0|,FLOOR:3|RAISED_FLOOR:49|,FLOOR:3|RAISED_FLOOR:49|SCENERY:55:0|,FLOOR:3|RAISED_FLOOR:49|SCENERY:55:0|,FLOOR:3|RAISED_FLOOR:49|,FLOOR:3|RAISED_FLOOR:49|SCENERY:55:0|,FLOOR:3|RAISED_FLOOR:49|,FLOOR:3|RAISED_FLOOR:49|,FLOOR:3|RAISED_FLOOR:49|SCENERY:56:0|,FLOOR:3|RAISED_FLOOR:49|SCENERY:55:0|,FLOOR:3|RAISED_FLOOR:49|SCENERY:55:0|,FLOOR:3|RAISED_FLOOR:49|,FLOOR:3|RAISED_FLOOR:41|,FLOOR:3|SCENERY:55:0|,FLOOR:3|SCENERY:55:0|,FLOOR:3|DOOR:1|,FLOOR:7|,FLOOR:7|SCENERY:30:0|,FLOOR:58|,FLOOR:58|SCENERY:39:0|,FLOOR:58|,FLOOR:58|SCENERY:39:0|,FLOOR:58|,FLOOR:58|SCENERY:39:0|,FLOOR:58|,FLOOR:58|SCENERY:39:0|,FLOOR:58|,FLOOR:7|,FLOOR:7|,FLOOR:3|DOOR:1|,FLOOR:3|,FLOOR:3|SCENERY:30:0|,FLOOR:3|,WALL:25|,FLOOR:31|,FLOOR:31|,FLOOR:31|,FLOOR:31|,FLOOR:31|,FLOOR:31|,
FLOOR:31|,FLOOR:31|,FLOOR:31|,FLOOR:31|,FLOOR:31|SCENERY:37:0|,FLOOR:31|SCENERY:38:0|,FLOOR:31|SCENERY:38:0|,WALL:25|,FLOOR:3|SCENERY:13:0|,FLOOR:3|SCENERY:55:0|,FLOOR:3|SCENERY:55:0|,FLOOR:3|SCENERY:55:0|,WALL:25|,FLOOR:3|RAISED_FLOOR:81|SCENERY:13:0|,FLOOR:3|SCENERY:55:0|,FLOOR:3|RAISED_FLOOR:80|SCENERY:55:0|,WALL:25|,FLOOR:3|RAISED_FLOOR:81|SCENERY:13:0|,FLOOR:3|SCENERY:55:0|,FLOOR:3|RAISED_FLOOR:80|SCENERY:13:0|,WALL:25|,FLOOR:3|,WALL:25|RAISED_FLOOR:4|,FLOOR:3|,WALL:25|,FLOOR:3|,FLOOR:3|SCENERY:27:0|,FLOOR:3|,FLOOR:3|SCENERY:27:0|,FLOOR:3|,FLOOR:3|SCENERY:27:0|,WALL:25|,FLOOR:3|SCENERY:25:0|,FLOOR:3|SCENERY:24:0|,FLOOR:3|SCENERY:56:0|,FLOOR:3|SCENERY:25:0|,FLOOR:3|SCENERY:25:0|,WALL:25|,FLOOR:3|,FLOOR:3|RAISED_FLOOR:47|SCENERY:55:0|,WALL:54|SCENERY:37:0|,WALL:54|SCENERY:38:0|,WALL:54|SCENERY:36:0|,FLOOR:3|SCENERY:55:0|,WALL:54|SCENERY:37:0|,WALL:54|SCENERY:38:0|,WALL:54|SCENERY:36:0|,FLOOR:3|,WALL:54|SCENERY:37:0|,WALL:54|SCENERY:38:0|,WALL:54|SCENERY:36:0|,FLOOR:3|RAISED_FLOOR:46|SCENERY:55:0|,FLOOR:3|,FLOOR:3|,WALL:25|,FLOOR:7|,FLOOR:7|,FLOOR:58|,FLOOR:58|,FLOOR:58|,FLOOR:58|,FLOOR:58|,FLOOR:58|,FLOOR:58|,FLOOR:58|,FLOOR:58|,FLOOR:7|,FLOOR:7|,WALL:25|,FLOOR:3|,FLOOR:3|,FLOOR:3|,WALL:25|,FLOOR:31|,FLOOR:31|,FLOOR:31|,FLOOR:31|,FLOOR:31|,FLOOR:31|,
FLOOR:31|,FLOOR:31|,FLOOR:31|,FLOOR:31|,FLOOR:31|,FLOOR:31|,FLOOR:31|,WALL:25|,WALL:25|,WALL:25|,FLOOR:3|,FLOOR:3|SCENERY:55:0|,WALL:25|,FLOOR:3|RAISED_FLOOR:81|,FLOOR:3|SCENERY:55:0|,FLOOR:3|RAISED_FLOOR:80|SCENERY:55:0|,WALL:25|SCENERY:29:0|,FLOOR:3|RAISED_FLOOR:81|SCENERY:55:0|,FLOOR:3|SCENERY:55:0|,FLOOR:3|RAISED_FLOOR:80|SCENERY:55:0|,WALL:25|,FLOOR:3|,WALL:25|,FLOOR:3|,WALL:25|,FLOOR:3|,FLOOR:3|SCENERY:27:0|,FLOOR:3|,FLOOR:3|SCENERY:27:0|,FLOOR:3|,FLOOR:3|SCENERY:27:0|,WALL:25|,FLOOR:3|DEPLOY:2|,FLOOR:3|DEPLOY:2|,FLOOR:3|DEPLOY:2|,FLOOR:3|DEPLOY:2|,FLOOR:3|DEPLOY:2|,WALL:25|,FLOOR:3|SCENERY:56:0|,FLOOR:3|RAISED_FLOOR:47|SCENERY:55:0|,WALL:54|SCENERY:37:0|,WALL:54|,WALL:54|SCENERY:36:0|,FLOOR:3|SCENERY:55:0|,WALL:54|SCENERY:37:0|,WALL:54|SCENERY:38:0|,WALL:54|SCENERY:36:0|,FLOOR:3|SCENERY:55:0|,WALL:54|SCENERY:37:0|,WALL:54|SCENERY:38:0|,WALL:54|SCENERY:36:0|,FLOOR:3|RAISED_FLOOR:46|SCENERY:55:0|,FLOOR:3|SCENERY:56:0|,FLOOR:3|,WALL:25|,FLOOR:7|,FLOOR:7|SCENERY:30:0|,FLOOR:58|,FLOOR:58|SCENERY:39:0|,FLOOR:58|,FLOOR:58|DEPLOY:2|SCENERY:39:0|,FLOOR:58|DEPLOY:2|,FLOOR:58|DEPLOY:2|SCENERY:39:0|,FLOOR:58|,FLOOR:58|SCENERY:39:0|,FLOOR:58|,FLOOR:7|,WALL:25|,WALL:25|,WALL:25|,FLOOR:3|,WALL:25|,WALL:25|,FLOOR:31|,FLOOR:31|,FLOOR:31|,FLOOR:31|,FLOOR:31|,FLOOR:31|,
FLOOR:31|,FLOOR:31|,FLOOR:31|,FLOOR:31|,FLOOR:31|,FLOOR:31|,FLOOR:31|,FLOOR:31|,FLOOR:31|,WALL:25|,FLOOR:3|,FLOOR:3|,FLOOR:3|,FLOOR:3|RAISED_FLOOR:79|,FLOOR:3|,FLOOR:3|RAISED_FLOOR:79|SCENERY:56:0|,FLOOR:3|,FLOOR:3|RAISED_FLOOR:79|SCENERY:56:0|,FLOOR:3|SCENERY:56:0|,FLOOR:3|RAISED_FLOOR:79|SCENERY:56:0|,FLOOR:3|,FLOOR:3|,FLOOR:3|,FLOOR:3|,WALL:25|,FLOOR:3|,FLOOR:3|SCENERY:27:0|,FLOOR:3|,FLOOR:3|SCENERY:27:0|,FLOOR:3|,FLOOR:3|SCENERY:27:0|,WALL:25|,FLOOR:3|SCENERY:37:0|,FLOOR:3|SCENERY:38:0|,FLOOR:3|SCENERY:38:0|,FLOOR:3|SCENERY:36:0|,FLOOR:3|,WALL:25|,FLOOR:3|,FLOOR:3|RAISED_FLOOR:47|,WALL:54|,WALL:54|,WALL:54|,FLOOR:3|SCENERY:55:0|,WALL:54|,WALL:54|,WALL:54|,FLOOR:3|SCENERY:55:0|,WALL:54|,WALL:54|,WALL:54|,FLOOR:3|RAISED_FLOOR:46|SCENERY:55:0|,FLOOR:3|SCENERY:56:0|,FLOOR:3|,WALL:25|,FLOOR:7|,FLOOR:7|,FLOOR:58|,FLOOR:58|,FLOOR:58|,FLOOR:58|DEPLOY:2|,FLOOR:58|DEPLOY:2|,FLOOR:58|DEPLOY:2|,FLOOR:58|,FLOOR:58|,FLOOR:58|,FLOOR:7|,FLOOR:7|DOOR:1|,FLOOR:7|SCENERY:39:0|,WALL:25|,FLOOR:3|,WALL:25|,FLOOR:31|,FLOOR:31|,FLOOR:31|,FLOOR:31|,FLOOR:31|,FLOOR:31|,FLOOR:31|,
FLOOR:31|,FLOOR:31|,FLOOR:31|,FLOOR:31|,FLOOR:31|,FLOOR:31|,FLOOR:31|,FLOOR:31|,FLOOR:31|,WALL:25|,FLOOR:3|,FLOOR:3|SCENERY:53:0|,FLOOR:3|,FLOOR:3|,FLOOR:3|SCENERY:56:0|,FLOOR:3|,FLOOR:3|,FLOOR:3|,FLOOR:3|SCENERY:56:0|,FLOOR:3|,FLOOR:3|,FLOOR:3|,FLOOR:3|,FLOOR:3|,WALL:25|,WALL:25|,WALL:25|,WALL:25|,WALL:25|,WALL:25|,WALL:25|,WALL:25|,WALL:25|,WALL:25|,WALL:25|,WALL:25|,WALL:25|,WALL:25|,FLOOR:3|,FLOOR:3|RAISED_FLOOR:38|SCENERY:55:0|,FLOOR:3|RAISED_FLOOR:48|,FLOOR:3|RAISED_FLOOR:48|,FLOOR:3|RAISED_FLOOR:48|,FLOOR:3|RAISED_FLOOR:48|SCENERY:56:0|,FLOOR:3|RAISED_FLOOR:48|SCENERY:55:0|,FLOOR:3|RAISED_FLOOR:48|SCENERY:55:0|,FLOOR:3|RAISED_FLOOR:48|SCENERY:55:0|,FLOOR:3|RAISED_FLOOR:48|SCENERY:56:0|,FLOOR:3|RAISED_FLOOR:48|SCENERY:55:0|,FLOOR:3|RAISED_FLOOR:48|SCENERY:55:0|,FLOOR:3|RAISED_FLOOR:48|,FLOOR:3|RAISED_FLOOR:39|,FLOOR:3|,FLOOR:3|,WALL:25|,FLOOR:7|,FLOOR:7|SCENERY:39:0|,FLOOR:7|SCENERY:39:0|,FLOOR:7|,FLOOR:7|,FLOOR:7|,FLOOR:7|,FLOOR:7|,FLOOR:7|,FLOOR:7|SCENERY:39:0|,FLOOR:7|SCENERY:39:0|,FLOOR:7|,WALL:25|,WALL:25|,WALL:25|,FLOOR:3|,WALL:25|,WALL:25|,FLOOR:31|,FLOOR:31|,FLOOR:31|,FLOOR:31|,FLOOR:31|,FLOOR:31|,
FLOOR:31|DEPLOY:1|,FLOOR:31|DEPLOY:1|,FLOOR:31|,WALL:25|,WALL:25|SCENERY:29:0|,WALL:25|,WALL:25|,WALL:25|,WALL:25|,WALL:25|SCENERY:29:0|,FLOOR:3|,FLOOR:3|,FLOOR:3|,FLOOR:3|,FLOOR:3|SCENERY:53:0|,FLOOR:3|,FLOOR:3|,FLOOR:3|,FLOOR:3|SCENERY:55:0|,FLOOR:3|,FLOOR:3|,FLOOR:3|SCENERY:55:0|,FLOOR:3|,FLOOR:3|SCENERY:56:0|,FLOOR:3|RAISED_FLOOR:80|,FLOOR:3|,FLOOR:3|,FLOOR:3|,FLOOR:3|,FLOOR:3|SCENERY:55:0|,FLOOR:3|,FLOOR:3|,FLOOR:3|,FLOOR:3|,FLOOR:3|,FLOOR:3|SCENERY:55:0|,FLOOR:3|,FLOOR:3|,FLOOR:3|,FLOOR:3|,FLOOR:3|,FLOOR:3|,FLOOR:3|SCENERY:55:0|,FLOOR:3|,FLOOR:3|,FLOOR:3|SCENERY:55:0|,FLOOR:3|,FLOOR:3|,FLOOR:3|,FLOOR:3|SCENERY:55:0|,FLOOR:3|,FLOOR:3|,FLOOR:3|,FLOOR:3|,WALL:25|,FLOOR:7|,FLOOR:7|SCENERY:39:0|,FLOOR:7|SCENERY:39:0|,FLOOR:7|,FLOOR:7|,FLOOR:7|,FLOOR:7|,FLOOR:7|,FLOOR:7|,FLOOR:7|,FLOOR:7|SCENERY:39:0|,FLOOR:7|,FLOOR:7|,WALL:25|,FLOOR:3|,FLOOR:3|,FLOOR:3|,WALL:25|,FLOOR:31|,FLOOR:31|,FLOOR:31|,FLOOR:31|,FLOOR:31|,FLOOR:31|,
FLOOR:31|DEPLOY:1|,FLOOR:31|DEPLOY:1|,FLOOR:31|,WALL:25|,FLOOR:3|RAISED_FLOOR:3|SCENERY:55:0|,FLOOR:3|RAISED_FLOOR:3|,FLOOR:3|RAISED_FLOOR:3|,FLOOR:3|RAISED_FLOOR:3|,WALL:25|,FLOOR:3|,FLOOR:3|,FLOOR:3|,FLOOR:3|,FLOOR:3|SCENERY:55:0|,FLOOR:3|,FLOOR:3|,FLOOR:3|,FLOOR:3|,FLOOR:3|,FLOOR:3|SCENERY:55:0|,FLOOR:3|,FLOOR:3|,FLOOR:3|,FLOOR:3|,FLOOR:3|RAISED_FLOOR:80|,FLOOR:3|,FLOOR:3|,FLOOR:3|,FLOOR:3|,FLOOR:3|,FLOOR:3|,FLOOR:3|,FLOOR:3|,FLOOR:3|,FLOOR:3|,FLOOR:3|,FLOOR:3|RAISED_FLOOR:40|,FLOOR:3|RAISED_FLOOR:49|SCENERY:56:0|,FLOOR:3|RAISED_FLOOR:49|,FLOOR:3|RAISED_FLOOR:41|,FLOOR:3|RAISED_FLOOR:40|,FLOOR:3|RAISED_FLOOR:49|,FLOOR:3|RAISED_FLOOR:49|,FLOOR:3|RAISED_FLOOR:41|,FLOOR:3|RAISED_FLOOR:40|,FLOOR:3|RAISED_FLOOR:49|SCENERY:56:0|,FLOOR:3|RAISED_FLOOR:49|,FLOOR:3|RAISED_FLOOR:41|,FLOOR:3|,FLOOR:3|SCENERY:55:0|,FLOOR:3|SCENERY:55:0|,FLOOR:3|,FLOOR:3|,FLOOR:3|,WALL:25|,FLOOR:7|,FLOOR:7|,FLOOR:7|,FLOOR:7|,FLOOR:7|,FLOOR:7|,FLOOR:7|,FLOOR:7|,FLOOR:7|,FLOOR:7|,FLOOR:7|,FLOOR:7|,FLOOR:7|,FLOOR:3|DOOR:1|,FLOOR:3|,FLOOR:3|SCENERY:30:0|,FLOOR:3|,WALL:25|,FLOOR:31|,FLOOR:31|,FLOOR:31|,FLOOR:31|,FLOOR:31|,FLOOR:31|,
FLOOR:31|DEPLOY:1|,FLOOR:31|DEPLOY:1|,FLOOR:31|,FLOOR:3|DOOR:1|,FLOOR:3|RAISED_FLOOR:3|SCENERY:55:0|,FLOOR:3|RAISED_FLOOR:3|SCENERY:55:0|,FLOOR:3|RAISED_FLOOR:3|SCENERY:55:0|,FLOOR:3|RAISED_FLOOR:3|SCENERY:53:0|,FLOOR:3|DOOR:1|,FLOOR:3|,FLOOR:3|,FLOOR:3|SCENERY:55:0|,FLOOR:3|,FLOOR:3|RAISED_FLOOR:43|,FLOOR:3|RAISED_FLOOR:48|,FLOOR:3|RAISED_FLOOR:48|,FLOOR:3|RAISED_FLOOR:48|,FLOOR:3|RAISED_FLOOR:48|,FLOOR:3|RAISED_FLOOR:42|,FLOOR:3|,FLOOR:3|,FLOOR:3|,FLOOR:3|,FLOOR:3|,WALL:25|,WALL:25|,FLOOR:3|RAISED_FLOOR:79|SCENERY:55:0|,WALL:25|,WALL:25|,WALL:25|,FLOOR:3|RAISED_FLOOR:79|,FLOOR:3|RAISED_FLOOR:79|,FLOOR:3|RAISED_FLOOR:79|,WALL:25|,WALL:25|,FLOOR:3|,FLOOR:3|RAISED_FLOOR:47|SCENERY:56:0|,WALL:54|SCENERY:19:0|,WALL:54|SCENERY:18:0|,FLOOR:3|RAISED_FLOOR:46|,FLOOR:3|RAISED_FLOOR:47|,WALL:54|SCENERY:19:0|,WALL:54|SCENERY:18:0|,FLOOR:3|RAISED_FLOOR:46|,FLOOR:3|RAISED_FLOOR:47|,WALL:54|SCENERY:19:0|,WALL:54|SCENERY:18:0|,FLOOR:3|RAISED_FLOOR:46|,FLOOR:3|SCENERY:55:0|,FLOOR:3|SCENERY:55:0|,FLOOR:3|SCENERY:55:0|,FLOOR:3|SCENERY:55:0|,FLOOR:3|SCENERY:55:0|,FLOOR:3|,WALL:25|,WALL:25|,WALL:25|,WALL:25|,WALL:25|,WALL:25|,FLOOR:7|DOOR:2|,WALL:25|,WALL:25|SCENERY:29:0|,WALL:25|SCENERY:29:0|,WALL:25|,FLOOR:7|DOOR:2|,WALL:25|,WALL:25|,WALL:25|,FLOOR:3|,FLOOR:3|,FLOOR:3|,WALL:25|,FLOOR:31|,FLOOR:31|,FLOOR:31|,FLOOR:31|,FLOOR:31|,FLOOR:31|,
FLOOR:31|DEPLOY:1|,FLOOR:31|DEPLOY:1|,FLOOR:31|,FLOOR:3|DOOR:1|,FLOOR:3|RAISED_FLOOR:3|SCENERY:55:0|,FLOOR:3|RAISED_FLOOR:3|SCENERY:55:0|,FLOOR:3|RAISED_FLOOR:3|SCENERY:53:0|,FLOOR:3|RAISED_FLOOR:3|SCENERY:55:0|,FLOOR:3|DOOR:1|,FLOOR:3|SCENERY:55:0|,FLOOR:3|,FLOOR:3|,FLOOR:3|,FLOOR:3|RAISED_FLOOR:46|,WALL:54|SCENERY:37:0|,WALL:54|SCENERY:38:0|,WALL:54|SCENERY:38:0|,WALL:54|SCENERY:36:0|,FLOOR:3|RAISED_FLOOR:47|,FLOOR:3|,FLOOR:3|,FLOOR:3|SCENERY:53:0|,FLOOR:3|,FLOOR:3|,WALL:25|,FLOOR:3|SCENERY:13:0|,FLOOR:3|,FLOOR:3|,WALL:25|,FLOOR:3|,FLOOR:3|SCENERY:55:0|,FLOOR:3|,FLOOR:3|,FLOOR:3|SCENERY:13:0|,WALL:25|,FLOOR:3|,FLOOR:3|RAISED_FLOOR:38|,FLOOR:3|RAISED_FLOOR:48|,FLOOR:3|RAISED_FLOOR:48|,FLOOR:3|RAISED_FLOOR:39|,FLOOR:3|RAISED_FLOOR:38|SCENERY:55:0|,FLOOR:3|RAISED_FLOOR:48|,FLOOR:3|RAISED_FLOOR:48|SCENERY:56:0|,FLOOR:3|RAISED_FLOOR:39|SCENERY:56:0|,FLOOR:3|RAISED_FLOOR:38|,FLOOR:3|RAISED_FLOOR:48|SCENERY:56:0|,FLOOR:3|RAISED_FLOOR:48|,FLOOR:3|RAISED_FLOOR:39|SCENERY:55:0|,FLOOR:3|,FLOOR:3|SCENERY:55:0|,FLOOR:3|SCENERY:55:0|,FLOOR:3|SCENERY:55:0|,FLOOR:3|SCENERY:55:0|,FLOOR:3|SCENERY:55:0|,FLOOR:3|,FLOOR:3|,FLOOR:3|,WALL:25|,FLOOR:3|,FLOOR:3|,FLOOR:3|,FLOOR:3|,FLOOR:3|,FLOOR:3|,FLOOR:3|,FLOOR:3|,FLOOR:3|,FLOOR:3|,WALL:25|,WALL:25|,FLOOR:3|,WALL:25|,WALL:25|,FLOOR:31|,FLOOR:31|,FLOOR:31|,FLOOR:31|,FLOOR:31|,FLOOR:31|,
FLOOR:31|DEPLOY:1|,FLOOR:31|DEPLOY:1|,FLOOR:31|,FLOOR:3|RAISED_FLOOR:3|DOOR:1|,FLOOR:3|RAISED_FLOOR:3|SCENERY:55:0|,FLOOR:3|RAISED_FLOOR:3|SCENERY:55:0|,FLOOR:3|RAISED_FLOOR:3|,FLOOR:3|RAISED_FLOOR:3|SCENERY:55:0|,FLOOR:3|DOOR:1|,FLOOR:3|,FLOOR:3|,FLOOR:3|,FLOOR:3|,FLOOR:3|RAISED_FLOOR:46|,WALL:54|SCENERY:37:0|,WALL:54|SCENERY:38:0|,WALL:54|SCENERY:38:0|,WALL:54|SCENERY:36:0|,FLOOR:3|RAISED_FLOOR:47|,FLOOR:3|,FLOOR:3|,FLOOR:3|,FLOOR:3|,FLOOR:3|,WALL:25|,FLOOR:3|SCENERY:13:0|,FLOOR:3|SCENERY:13:0|,FLOOR:3|,FLOOR:3|,FLOOR:3|,FLOOR:3|SCENERY:56:0|,FLOOR:3|,FLOOR:3|SCENERY:13:0|,FLOOR:3|SCENERY:13:0|,WALL:25|,WALL:25|,WALL:25|,WALL:25|,FLOOR:3|,FLOOR:3|,FLOOR:3|,FLOOR:3|,FLOOR:3|,FLOOR:3|,FLOOR:3|,FLOOR:3|,FLOOR:3|,WALL:25|,WALL:25|,WALL:25|SCENERY:29:0|,FLOOR:3|DOOR:2|,WALL:25|,WALL:25|,WALL:25|,FLOOR:3|,FLOOR:3|,FLOOR:3|,FLOOR:3|DOOR:1|,FLOOR:3|,FLOOR:3|,FLOOR:3|,FLOOR:3|,FLOOR:3|,FLOOR:3|,FLOOR:3|,FLOOR:3|,FLOOR:3|,FLOOR:3|,FLOOR:3|,WALL:25|,FLOOR:3|,WALL:25|,FLOOR:31|,FLOOR:31|,FLOOR:31|,FLOOR:31|,FLOOR:31|,FLOOR:31|,FLOOR:31|,
FLOOR:31|DEPLOY:1|,FLOOR:31|DEPLOY:1|,FLOOR:31|,WALL:25|,FLOOR:3|RAISED_FLOOR:3|SCENERY:53:0|,FLOOR:3|RAISED_FLOOR:3|,FLOOR:3|RAISED_FLOOR:3|,FLOOR:3|RAISED_FLOOR:3|SCENERY:53:0|,WALL:25|,FLOOR:3|,FLOOR:3|,FLOOR:3|SCENERY:53:0|,FLOOR:3|,FLOOR:3|RAISED_FLOOR:46|,WALL:54|RAISED_FLOOR:45|,WALL:54|,WALL:54|,WALL:54|,FLOOR:3|RAISED_FLOOR:47|,FLOOR:3|,FLOOR:3|,FLOOR:3|SCENERY:55:0|,FLOOR:3|,FLOOR:3|,WALL:25|,FLOOR:3|SCENERY:13:0|,FLOOR:3|SCENERY:13:0|,FLOOR:3|SCENERY:13:0|,WALL:25|,FLOOR:3|,FLOOR:3|SCENERY:13:0|,FLOOR:3|SCENERY:13:0|,FLOOR:3|SCENERY:13:0|,FLOOR:3|SCENERY:13:0|,WALL:25|,FLOOR:3|,FLOOR:3|,FLOOR:3|SCENERY:55:0|,FLOOR:3|,FLOOR:3|,FLOOR:3|,FLOOR:3|,FLOOR:3|SCENERY:55:0|,FLOOR:3|,FLOOR:3|,FLOOR:3|,FLOOR:3|,WALL:25|,FLOOR:3|,FLOOR:3|,FLOOR:3|,FLOOR:3|SCENERY:55:0|,FLOOR:3|,WALL:25|,WALL:25|SCENERY:43:0|,WALL:25|,FLOOR:3|,WALL:25|,FLOOR:3|,FLOOR:3|,WALL:25|,FLOOR:3|SCENERY:27:0|,FLOOR:3|,WALL:25|,FLOOR:3|,FLOOR:3|SCENERY:26:0|,WALL:25|,FLOOR:3|,WALL:25|,WALL:25|,FLOOR:3|,WALL:25|,WALL:25|,FLOOR:31|,FLOOR:31|,FLOOR:31|,FLOOR:31|,FLOOR:31|,FLOOR:31|,
FLOOR:31|DEPLOY:1|,FLOOR:31|DEPLOY:1|,FLOOR:31|,WALL:25|,WALL:25|,WALL:25|,WALL:25|,WALL:25|,WALL:25|,WALL:25|,FLOOR:3|,FLOOR:3|,FLOOR:3|,FLOOR:3|RAISED_FLOOR:45|,FLOOR:3|RAISED_FLOOR:49|,FLOOR:3|RAISED_FLOOR:49|,FLOOR:3|RAISED_FLOOR:49|,FLOOR:3|RAISED_FLOOR:49|SCENERY:53:0|,FLOOR:3|RAISED_FLOOR:44|,FLOOR:3|,FLOOR:3|,FLOOR:3|,FLOOR:3|,FLOOR:3|,WALL:25|,FLOOR:3|SCENERY:13:0|,FLOOR:3|SCENERY:13:0|,FLOOR:3|SCENERY:13:0|,WALL:25|,FLOOR:3|SCENERY:13:0|,FLOOR:3|SCENERY:13:0|,FLOOR:3|SCENERY:13:0|,FLOOR:3|SCENERY:13:0|,FLOOR:3|SCENERY:13:0|,WALL:25|,FLOOR:3|SCENERY:55:0|,FLOOR:3|,WALL:25|,FLOOR:3|SCENERY:13:0|,FLOOR:3|SCENERY:56:0|,FLOOR:3|,FLOOR:3|SCENERY:55:0|,FLOOR:3|,FLOOR:3|,FLOOR:3|SCENERY:55:0|,FLOOR:3|,FLOOR:3|,WALL:25|,FLOOR:3|,FLOOR:3|SCENERY:55:0|,FLOOR:3|SCENERY:55:0|,FLOOR:3|,FLOOR:3|,WALL:25|,FLOOR:3|SCENERY:25:0|,WALL:25|,FLOOR:3|,WALL:25|,FLOOR:3|,FLOOR:3|SCENERY:26:0|,WALL:25|,FLOOR:3|SCENERY:27:0|,FLOOR:3|SCENERY:26:0|,WALL:25|,FLOOR:3|SCENERY:27:0|,FLOOR:3|SCENERY:26:0|,WALL:25|,FLOOR:3|SCENERY:27:0|,WALL:25|,FLOOR:3|,FLOOR:3|,FLOOR:3|,WALL:25|,FLOOR:31|,FLOOR:31|,FLOOR:31|,FLOOR:31|,FLOOR:31|,FLOOR:31|,
FLOOR:31|,FLOOR:31|,FLOOR:31|,FLOOR:31|,FLOOR:31|,FLOOR:31|,FLOOR:31|,FLOOR:31|,WALL:25|,FLOOR:3|SCENERY:13:0|,FLOOR:3|SCENERY:13:0|,FLOOR:3|SCENERY:13:0|,FLOOR:3|,FLOOR:3|,FLOOR:3|,FLOOR:3|,FLOOR:3|,FLOOR:3|,FLOOR:3|SCENERY:55:0|,FLOOR:3|,FLOOR:3|,FLOOR:3|SCENERY:53:0|,FLOOR:3|,FLOOR:3|SCENERY:13:0|,WALL:25|,WALL:25|,WALL:25|,WALL:25|,WALL:25|,WALL:25|,WALL:25|SCENERY:29:0|,WALL:25|,WALL:25|SCENERY:29:0|,WALL:25|SCENERY:29:0|,WALL:25|,WALL:25|,FLOOR:3|,WALL:25|,FLOOR:3|SCENERY:13:0|,FLOOR:3|SCENERY:56:0|,FLOOR:3|RAISED_FLOOR:40|SCENERY:56:0|,FLOOR:3|RAISED_FLOOR:49|,FLOOR:3|RAISED_FLOOR:49|SCENERY:55:0|,FLOOR:3|RAISED_FLOOR:41|,FLOOR:3|,FLOOR:3|,FLOOR:3|SCENERY:55:0|,WALL:25|,FLOOR:3|SCENERY:55:0|,FLOOR:3|SCENERY:55:0|,FLOOR:3|SCENERY:55:0|,FLOOR:3|SCENERY:55:0|,FLOOR:3|,WALL:25|,FLOOR:3|,FLOOR:3|,FLOOR:3|,WALL:25|,FLOOR:3|,FLOOR:3|SCENERY:26:0|,WALL:25|,FLOOR:3|SCENERY:27:0|,FLOOR:3|SCENERY:26:0|,WALL:25|,FLOOR:3|SCENERY:27:0|,FLOOR:3|SCENERY:26:0|,WALL:25|,FLOOR:3|SCENERY:27:0|,FLOOR:3|DOOR:1|,FLOOR:3|,FLOOR:3|SCENERY:30:0|,FLOOR:3|,WALL:25|,FLOOR:31|,FLOOR:31|,FLOOR:31|,FLOOR:31|,FLOOR:31|,FLOOR:31|,
FLOOR:31|,FLOOR:31|,FLOOR:31|,FLOOR:31|,FLOOR:31|,FLOOR:31|,FLOOR:31|,FLOOR:31|,WALL:25|,WALL:25|,WALL:25|,WALL:25|,FLOOR:3|,FLOOR:3|,FLOOR:3|,FLOOR:3|SCENERY:55:0|,FLOOR:3|,FLOOR:3|SCENERY:13:0|,FLOOR:3|SCENERY:13:0|,FLOOR:3|SCENERY:13:0|,WALL:25|,FLOOR:3|,FLOOR:3|SCENERY:13:0|,FLOOR:3|SCENERY:13:0|,WALL:25|,FLOOR:3|,FLOOR:3|,FLOOR:3|,FLOOR:3|,FLOOR:3|,FLOOR:3|,FLOOR:3|,FLOOR:3|,FLOOR:3|,FLOOR:3|,WALL:25|,WALL:25|,WALL:25|,WALL:25|,WALL:25|,FLOOR:3|RAISED_FLOOR:47|SCENERY:55:0|,WALL:54|SCENERY:37:0|,WALL:54|SCENERY:36:0|,FLOOR:3|RAISED_FLOOR:46|SCENERY:55:0|,WALL:25|,WALL:25|,WALL:25|,WALL:25|,WALL:25|,WALL:25|,FLOOR:3|DOOR:2|,WALL:25|,WALL:25|,WALL:25|,WALL:25|,WALL:25|,FLOOR:3|,WALL:25|,FLOOR:3|,FLOOR:3|SCENERY:26:0|,WALL:25|SCENERY:29:0|,FLOOR:3|,FLOOR:3|,WALL:25|SCENERY:29:0|,FLOOR:3|SCENERY:27:0|,FLOOR:3|,WALL:25|SCENERY:29:0|,FLOOR:3|,WALL:25|,FLOOR:3|,FLOOR:3|,FLOOR:3|,WALL:25|,FLOOR:31|,FLOOR:31|,FLOOR:31|,FLOOR:31|,FLOOR:31|,FLOOR:31|,
FLOOR:31|,FLOOR:31|,FLOOR:31|,FLOOR:31|,FLOOR:31|,FLOOR:31|,WALL:25|,WALL:25|,WALL:25|,FLOOR:3|,FLOOR:3|,WALL:25|,WALL:25|,FLOOR:3|RAISED_FLOOR:79|,WALL:25|,WALL:25|,FLOOR:3|RAISED_FLOOR:79|,WALL:25|,WALL:25|,WALL:25|,WALL:25|,WALL:25|,WALL:25|,WALL:25|,WALL:25|,FLOOR:3|,WALL:25|,WALL:25|SCENERY:29:0|,WALL:25|SCENERY:29:0|,WALL:25|,WALL:25|,FLOOR:3|,FLOOR:3|,FLOOR:3|,FLOOR:3|,WALL:25|,FLOOR:3|SCENERY:26:0|,FLOOR:3|,FLOOR:3|SCENERY:41:0|,WALL:25|,FLOOR:3|RAISED_FLOOR:47|SCENERY:55:0|,WALL:54|SCENERY:37:0|,WALL:54|SCENERY:36:0|,FLOOR:3|RAISED_FLOOR:46|SCENERY:55:0|,WALL:25|,FLOOR:31|,FLOOR:31|,FLOOR:31|,FLOOR:31|,WALL:25|,FLOOR:3|SCENERY:55:0|,WALL:25|,FLOOR:31|,FLOOR:31|,FLOOR:31|,WALL:25|,FLOOR:3|,WALL:25|,FLOOR:3|,FLOOR:3|,FLOOR:3|,FLOOR:3|,FLOOR:3|,FLOOR:3|,FLOOR:3|,FLOOR:3|,FLOOR:3|,FLOOR:3|,WALL:25|SCENERY:29:0|,WALL:25|,FLOOR:3|,WALL:25|,WALL:25|,FLOOR:31|,FLOOR:31|,FLOOR:31|,FLOOR:31|,FLOOR:31|,FLOOR:31|,
FLOOR:31|,FLOOR:31|,FLOOR:31|,FLOOR:31|,FLOOR:31|,FLOOR:31|SCENERY:37:0|,WALL:25|,FLOOR:3|,FLOOR:3|,FLOOR:3|,FLOOR:3|,FLOOR:3|,FLOOR:3|,FLOOR:3|,FLOOR:3|,FLOOR:3|,FLOOR:3|,FLOOR:3|,FLOOR:3|,FLOOR:3|,FLOOR:3|,FLOOR:3|,FLOOR:3|,FLOOR:3|,FLOOR:3|,FLOOR:3|,FLOOR:3|,FLOOR:3|,FLOOR:3|,FLOOR:3|SCENERY:28:0|,WALL:25|,FLOOR:3|,WALL:25|,WALL:25|,FLOOR:3|,WALL:25|,FLOOR:3|,FLOOR:3|,FLOOR:3|SCENERY:55:0|,FLOOR:3|,FLOOR:3|RAISED_FLOOR:47|SCENERY:55:0|,WALL:54|,WALL:54|,FLOOR:3|RAISED_FLOOR:46|,WALL:25|,FLOOR:31|,FLOOR:31|,FLOOR:31|,FLOOR:31|,WALL:25|,FLOOR:3|DOOR:2|,WALL:25|,FLOOR:31|,FLOOR:31|SCENERY:37:0|,FLOOR:31|SCENERY:38:0|,WALL:25|,FLOOR:3|,WALL:25|,FLOOR:3|,FLOOR:3|SCENERY:26:0|,WALL:25|,FLOOR:3|,FLOOR:3|SCENERY:26:0|,WALL:25|,FLOOR:3|SCENERY:27:0|,FLOOR:3|,WALL:25|,FLOOR:3|,FLOOR:3|SCENERY:25:0|,WALL:25|,FLOOR:3|,WALL:25|,FLOOR:31|,FLOOR:31|,FLOOR:31|,FLOOR:31|,FLOOR:31|,FLOOR:31|,FLOOR:31|,
FLOOR:31|,FLOOR:31|,FLOOR:31|,FLOOR:31|,FLOOR:31|,FLOOR:31|,WALL:25|,FLOOR:3|SCENERY:30:0|,FLOOR:3|,WALL:25|,WALL:25|,WALL:25|,WALL:25|,WALL:25|,FLOOR:3|,WALL:25|,WALL:25|,WALL:25|,WALL:25|,WALL:25|,WALL:25|,WALL:25|,WALL:25|,WALL:25|,WALL:25|,FLOOR:3|,WALL:25|,FLOOR:3|,FLOOR:3|,WALL:25|,WALL:25|,FLOOR:3|,FLOOR:3|SCENERY:37:0|,WALL:25|,FLOOR:3|,WALL:25|,FLOOR:3|SCENERY:26:0|,FLOOR:3|,FLOOR:3|SCENERY:27:0|,WALL:25|,FLOOR:3|RAISED_FLOOR:38|,FLOOR:3|RAISED_FLOOR:48|SCENERY:55:0|,FLOOR:3|RAISED_FLOOR:48|SCENERY:55:0|,FLOOR:3|RAISED_FLOOR:39|,WALL:25|,FLOOR:31|,FLOOR:31|,FLOOR:31|,FLOOR:31|,FLOOR:31|,FLOOR:31|,FLOOR:31|,FLOOR:31|,FLOOR:31|,FLOOR:31|,WALL:25|,FLOOR:3|,WALL:25|,FLOOR:3|,FLOOR:3|SCENERY:26:0|,WALL:25|,FLOOR:3|SCENERY:27:0|,FLOOR:3|SCENERY:26:0|,WALL:25|,FLOOR:3|SCENERY:27:0|,FLOOR:3|SCENERY:26:0|,WALL:25|,FLOOR:3|SCENERY:27:0|,WALL:25|,WALL:25|,FLOOR:3|,WALL:25|,WALL:25|,FLOOR:31|,FLOOR:31|,FLOOR:31|,FLOOR:31|,FLOOR:31|,FLOOR:31|,
FLOOR:31|,FLOOR:31|,FLOOR:31|,FLOOR:31|SCENERY:37:0|,FLOOR:31|SCENERY:38:0|,FLOOR:31|SCENERY:38:0|,WALL:25|,WALL:25|,WALL:25|,WALL:25|,FLOOR:31|,FLOOR:31|,FLOOR:31|,WALL:25|,FLOOR:3|SCENERY:55:0|,WALL:25|,FLOOR:31|,FLOOR:31|,FLOOR:31|,FLOOR:31|,FLOOR:31|,FLOOR:31|,FLOOR:31|,FLOOR:31|,WALL:25|,FLOOR:3|,WALL:25|,FLOOR:3|,FLOOR:3|,FLOOR:3|SCENERY:28:0|,WALL:25|,FLOOR:3|,WALL:25|SCENERY:29:0|,WALL:25|,FLOOR:3|,WALL:25|,FLOOR:3|SCENERY:26:0|,FLOOR:3|,FLOOR:3|SCENERY:27:0|,WALL:25|,FLOOR:3|,FLOOR:3|,FLOOR:3|SCENERY:55:0|,FLOOR:3|,WALL:25|,FLOOR:31|,FLOOR:31|,FLOOR:31|,FLOOR:31|,FLOOR:31|DEPLOY:1|,FLOOR:31|DEPLOY:1|,FLOOR:31|DEPLOY:1|,FLOOR:31|,FLOOR:31|,FLOOR:31|,WALL:25|,FLOOR:3|,WALL:25|,FLOOR:3|,FLOOR:3|,WALL:25|SCENERY:29:0|,FLOOR:3|SCENERY:27:0|,FLOOR:3|,WALL:25|SCENERY:29:0|,FLOOR:3|,FLOOR:3|SCENERY:26:0|,WALL:25|SCENERY:29:0|,FLOOR:3|SCENERY:27:0|,WALL:25|,FLOOR:3|,FLOOR:3|,FLOOR:3|,WALL:25|,FLOOR:31|,FLOOR:31|,FLOOR:31|,FLOOR:31|,FLOOR:31|,FLOOR:31|,
FLOOR:31|,FLOOR:31|,FLOOR:31|,FLOOR:31|,FLOOR:31|,FLOOR:31|,FLOOR:31|,FLOOR:31|,FLOOR:31|,FLOOR:31|,FLOOR:31|,FLOOR:31|,FLOOR:31|,WALL:25|,FLOOR:3|SCENERY:55:0|,WALL:25|,FLOOR:31|,FLOOR:31|,FLOOR:31|,FLOOR:31|,FLOOR:31|,FLOOR:31|,FLOOR:31|,FLOOR:31|,WALL:25|,FLOOR:3|,WALL:25|,WALL:25|,FLOOR:3|,WALL:25|SCENERY:29:0|,WALL:25|,FLOOR:3|,FLOOR:3|SCENERY:37:0|,WALL:25|,FLOOR:3|,WALL:25|,WALL:25|,FLOOR:3|,WALL:25|,WALL:25|,FLOOR:3|SCENERY:55:0|,WALL:25|,WALL:25|,WALL:25|,WALL:25|,FLOOR:31|,FLOOR:31|,FLOOR:31|,FLOOR:31|,FLOOR:31|DEPLOY:1|,FLOOR:31|DEPLOY:1|,FLOOR:31|DEPLOY:1|,FLOOR:31|,FLOOR:31|,FLOOR:31|,WALL:25|,FLOOR:3|,WALL:25|,FLOOR:3|,FLOOR:3|,FLOOR:3|,FLOOR:3|,FLOOR:3|,FLOOR:3|,FLOOR:3|,FLOOR:3|,FLOOR:3|,FLOOR:3|,FLOOR:3|DOOR:1|,FLOOR:3|,FLOOR:3|SCENERY:30:0|,FLOOR:3|,WALL:25|,FLOOR:31|,FLOOR:31|,FLOOR:31|,FLOOR:31|,FLOOR:31|,FLOOR:31|,
FLOOR:31|,FLOOR:31|,FLOOR:31|,FLOOR:31|,FLOOR:31|,FLOOR:31|,FLOOR:31|,FLOOR:31|,FLOOR:31|,FLOOR:31|,FLOOR:31|,WALL:25|,WALL:25|,WALL:25|,FLOOR:3|,WALL:25|SCENERY:29:0|,WALL:25|,WALL:25|,FLOOR:31|,FLOOR:31|,FLOOR:31|,FLOOR:31|SCENERY:37:0|,FLOOR:31|SCENERY:38:0|,FLOOR:31|SCENERY:38:0|,WALL:25|,FLOOR:3|,WALL:25|,FLOOR:3|SCENERY:28:0|,FLOOR:3|,FLOOR:3|,WALL:25|,FLOOR:3|,WALL:25|,WALL:25|,FLOOR:3|,WALL:25|,FLOOR:3|SCENERY:41:0|,FLOOR:3|DEPLOY:2|,FLOOR:3|,WALL:25|,FLOOR:3|,WALL:25|,FLOOR:31|,FLOOR:31|,FLOOR:31|,FLOOR:31|,FLOOR:31|,FLOOR:31|,FLOOR:31|,FLOOR:31|DEPLOY:1|,FLOOR:31|DEPLOY:1|,FLOOR:31|DEPLOY:1|,FLOOR:31|,FLOOR:31|,FLOOR:31|,WALL:25|,FLOOR:3|,WALL:25|,FLOOR:3|,FLOOR:3|SCENERY:26:0|,WALL:25|,FLOOR:3|SCENERY:27:0|,FLOOR:3|SCENERY:26:0|,WALL:25|,FLOOR:3|,FLOOR:3|,WALL:25|,FLOOR:3|SCENERY:27:0|,WALL:25|,FLOOR:3|,FLOOR:3|,FLOOR:3|,WALL:25|,FLOOR:31|,FLOOR:31|,FLOOR:31|,FLOOR:31|,FLOOR:31|,FLOOR:31|,
FLOOR:31|,FLOOR:31|,FLOOR:31|DEPLOY:1|,FLOOR:31|DEPLOY:1|,FLOOR:31|DEPLOY:1|,FLOOR:31|DEPLOY:1|,FLOOR:31|,FLOOR:31|,WALL:25|,WALL:25|,WALL:25|SCENERY:29:0|,WALL:25|,FLOOR:3|SCENERY:55:0|,FLOOR:3|,FLOOR:3|SCENERY:55:0|,FLOOR:3|,FLOOR:3|SCENERY:56:0|,WALL:25|,FLOOR:31|,FLOOR:31|,FLOOR:31|,FLOOR:31|,FLOOR:31|,FLOOR:31|,WALL:25|,FLOOR:3|,WALL:25|,WALL:25|,FLOOR:3|DEPLOY:2|,FLOOR:3|DEPLOY:2|,FLOOR:3|,FLOOR:3|,FLOOR:3|DEPLOY:2|,FLOOR:3|DEPLOY:2|,FLOOR:3|,FLOOR:3|,FLOOR:3|DEPLOY:2|,FLOOR:3|DEPLOY:2|,FLOOR:3|SCENERY:57:0|,WALL:25|,FLOOR:3|,WALL:25|,FLOOR:31|SCENERY:38:0|,FLOOR:31|SCENERY:38:0|,FLOOR:31|SCENERY:38:0|,FLOOR:31|SCENERY:36:0|,FLOOR:31|,FLOOR:31|,FLOOR:31|,FLOOR:31|DEPLOY:1|,FLOOR:31|DEPLOY:1|,FLOOR:31|DEPLOY:1|,FLOOR:31|,FLOOR:31|,FLOOR:31|,WALL:25|,FLOOR:3|,FLOOR:3|DOOR:1|,FLOOR:3|,FLOOR:3|SCENERY:26:0|,WALL:25|SCENERY:29:0|,FLOOR:3|,FLOOR:3|SCENERY:26:0|,WALL:25|SCENERY:29:0|,FLOOR:3|SCENERY:27:0|,FLOOR:3|,WALL:25|SCENERY:29:0|,FLOOR:3|SCENERY:27:0|,WALL:25|,WALL:25|,FLOOR:3|,WALL:25|,WALL:25|,FLOOR:31|,FLOOR:31|,FLOOR:31|,FLOOR:31|,FLOOR:31|,FLOOR:31|,
FLOOR:31|,FLOOR:31|,FLOOR:31|DEPLOY:1|,FLOOR:31|DEPLOY:1|,FLOOR:31|DEPLOY:1|,FLOOR:31|DEPLOY:1|,FLOOR:31|,FLOOR:31|,FLOOR:3|DOOR:1|,FLOOR:3|SCENERY:55:0|,FLOOR:3|,FLOOR:3|DOOR:1|,FLOOR:3|SCENERY:55:0|,FLOOR:3|SCENERY:55:0|,FLOOR:3|,FLOOR:3|SCENERY:55:0|,FLOOR:3|SCENERY:13:0|,WALL:25|,FLOOR:31|,FLOOR:31|,FLOOR:31|,FLOOR:31|,FLOOR:31|,FLOOR:31|,WALL:25|,FLOOR:3|,WALL:25|,FLOOR:3|SCENERY:28:0|,FLOOR:3|,FLOOR:3|,WALL:25|,FLOOR:3|,FLOOR:3|,FLOOR:3|,FLOOR:3|,WALL:25|,FLOOR:3|,FLOOR:3|DEPLOY:2|,FLOOR:3|SCENERY:58:0|,WALL:25|,FLOOR:3|SCENERY:55:0|,WALL:25|,FLOOR:31|,FLOOR:31|,FLOOR:31|,FLOOR:31|,FLOOR:31|,FLOOR:31|,FLOOR:31|,FLOOR:31|,FLOOR:31|,FLOOR:31|,FLOOR:31|,FLOOR:31|,FLOOR:31|,WALL:25|,FLOOR:3|,WALL:25|,FLOOR:3|,FLOOR:3|,FLOOR:3|,FLOOR:3|,FLOOR:3|,FLOOR:3|,FLOOR:3|,FLOOR:3|,FLOOR:3|,FLOOR:3|,FLOOR:3|,WALL:25|,FLOOR:3|,WALL:25|,FLOOR:31|,FLOOR:31|,FLOOR:31|,FLOOR:31|,FLOOR:31|,FLOOR:31|,FLOOR:31|,
FLOOR:31|,FLOOR:31|,FLOOR:31|DEPLOY:1|,FLOOR:31|DEPLOY:1|,FLOOR:31|DEPLOY:1|,FLOOR:31|DEPLOY:1|,FLOOR:31|,FLOOR:31|,WALL:25|,WALL:25|,WALL:25|,WALL:25|,FLOOR:3|SCENERY:55:0|,FLOOR:3|,FLOOR:3|SCENERY:56:0|,FLOOR:3|SCENERY:13:0|,FLOOR:3|SCENERY:13:0|,WALL:25|,FLOOR:31|SCENERY:38:0|,FLOOR:31|SCENERY:38:0|,FLOOR:31|SCENERY:38:0|,FLOOR:31|SCENERY:36:0|,WALL:25|,WALL:25|,WALL:25|,FLOOR:3|,WALL:25|,WALL:25|,WALL:25|,WALL:25|,WALL:25|,WALL:25|,WALL:25|,WALL:25|,WALL:25|,WALL:25|,WALL:25|,WALL:25|,WALL:25|,WALL:25|,FLOOR:3|,WALL:25|,WALL:25|,WALL:25|,FLOOR:31|,FLOOR:31|,FLOOR:31|,FLOOR:31|,FLOOR:31|,FLOOR:31|,FLOOR:31|,FLOOR:31|,FLOOR:31|,WALL:25|,WALL:25|,WALL:25|,FLOOR:3|,WALL:25|,WALL:25|,WALL:25|,WALL:25|,WALL:25|,WALL:25|,FLOOR:3|DOOR:2|,WALL:25|,WALL:25|,WALL:25|,WALL:25|,WALL:25|,WALL:25|,FLOOR:3|,WALL:25|,FLOOR:31|SCENERY:38:0|,FLOOR:31|SCENERY:36:0|,FLOOR:31|,FLOOR:31|,FLOOR:31|,FLOOR:31|,FLOOR:31|,
FLOOR:31|,FLOOR:31|,FLOOR:31|,FLOOR:31|,FLOOR:31|,FLOOR:31|,FLOOR:31|,FLOOR:31|,FLOOR:31|,FLOOR:31|,FLOOR:31|,WALL:25|,WALL:25|,WALL:25|,WALL:25|,WALL:25|,WALL:25|,WALL:25|,FLOOR:31|,FLOOR:31|,FLOOR:31|,FLOOR:31|,WALL:25|,FLOOR:3|RAISED_FLOOR:40|,FLOOR:3|RAISED_FLOOR:49|,FLOOR:3|RAISED_FLOOR:41|,FLOOR:3|,FLOOR:3|,FLOOR:3|,FLOOR:3|,FLOOR:3|,FLOOR:3|DEPLOY:2|,FLOOR:3|DEPLOY:2|,FLOOR:3|DEPLOY:2|,FLOOR:3|,FLOOR:3|,FLOOR:3|,FLOOR:3|,FLOOR:3|,FLOOR:3|,FLOOR:3|RAISED_FLOOR:40|,FLOOR:3|RAISED_FLOOR:49|,FLOOR:3|RAISED_FLOOR:41|,WALL:25|,FLOOR:31|,FLOOR:31|,FLOOR:31|,FLOOR:31|,FLOOR:31|,FLOOR:31|,FLOOR:31|,FLOOR:31|,FLOOR:31|,WALL:25|,FLOOR:3|RAISED_FLOOR:40|,FLOOR:3|RAISED_FLOOR:49|,FLOOR:3|RAISED_FLOOR:41|,FLOOR:3|,FLOOR:3|,FLOOR:3|,FLOOR:3|,FLOOR:3|,FLOOR:3|,FLOOR:3|,FLOOR:3|,FLOOR:3|,FLOOR:3|,FLOOR:3|,FLOOR:3|,FLOOR:3|,FLOOR:3|,WALL:25|,FLOOR:31|,FLOOR:31|,FLOOR:31|,FLOOR:31|,FLOOR:31|,FLOOR:31|,FLOOR:31|,
FLOOR:31|,FLOOR:31|,FLOOR:31|,FLOOR:31|,FLOOR:31|,FLOOR:31|,FLOOR:31|,FLOOR:31|,FLOOR:31|,FLOOR:31|,FLOOR:31|,FLOOR:31|,FLOOR:31|,FLOOR:31|,FLOOR:31|,FLOOR:31|,FLOOR:31|,FLOOR:31|,FLOOR:31|,FLOOR:31|,FLOOR:31|,FLOOR:31|,WALL:25|,FLOOR:3|RAISED_FLOOR:47|,COMP:3|OWNER:4|,FLOOR:3|RAISED_FLOOR:46|,WALL:25|,WALL:25|,WALL:25|,FLOOR:3|,WALL:25|,FLOOR:3|,WALL:25|,FLOOR:3|,WALL:25|,FLOOR:3|,WALL:25|,WALL:25|,WALL:25|,WALL:25|,FLOOR:3|RAISED_FLOOR:47|,COMP:3|OWNER:4|,FLOOR:3|RAISED_FLOOR:46|,WALL:25|,FLOOR:31|,FLOOR:31|,FLOOR:31|,FLOOR:31|,FLOOR:31|,FLOOR:31|,FLOOR:31|,FLOOR:31|,FLOOR:31|,WALL:25|,FLOOR:3|RAISED_FLOOR:47|,COMP:3|OWNER:4|,FLOOR:3|RAISED_FLOOR:46|,WALL:25|,WALL:25|,WALL:25|,WALL:25|,WALL:25|,WALL:25|,WALL:25|,WALL:25|,WALL:25|,WALL:25|,WALL:25|,WALL:25|,WALL:25|,WALL:25|,WALL:25|,FLOOR:31|,FLOOR:31|,FLOOR:31|,FLOOR:31|,FLOOR:31|,FLOOR:31|,FLOOR:31|,
FLOOR:31|,FLOOR:31|,FLOOR:31|,FLOOR:31|,FLOOR:31|,FLOOR:31|,FLOOR:31|,FLOOR:31|,FLOOR:31|,FLOOR:31|,FLOOR:31|,FLOOR:31|,FLOOR:31|,FLOOR:31|,FLOOR:31|,FLOOR:31|,FLOOR:31|,FLOOR:31|,FLOOR:31|,FLOOR:31|SCENERY:37:0|,FLOOR:31|SCENERY:38:0|,FLOOR:31|SCENERY:38:0|,WALL:25|,FLOOR:3|RAISED_FLOOR:38|,FLOOR:3|RAISED_FLOOR:48|,FLOOR:3|RAISED_FLOOR:39|,WALL:25|,FLOOR:31|,WALL:25|,WALL:25|,WALL:25|,WALL:25|,WALL:25|,WALL:25|,WALL:25|,WALL:25|,WALL:25|,FLOOR:31|,FLOOR:31|,WALL:25|,FLOOR:3|RAISED_FLOOR:38|,FLOOR:3|RAISED_FLOOR:48|,FLOOR:3|RAISED_FLOOR:39|,WALL:25|,FLOOR:31|,FLOOR:31|,FLOOR:31|,FLOOR:31|,FLOOR:31|,FLOOR:31|,FLOOR:31|,FLOOR:31|,FLOOR:31|,WALL:25|,FLOOR:3|RAISED_FLOOR:38|,FLOOR:3|RAISED_FLOOR:48|,FLOOR:3|RAISED_FLOOR:39|,WALL:25|,FLOOR:31|,FLOOR:31|,FLOOR:31|,FLOOR:31|,FLOOR:31|,FLOOR:31|,FLOOR:31|,FLOOR:31|,FLOOR:31|,FLOOR:31|,FLOOR:31|,FLOOR:31|,FLOOR:31|,FLOOR:31|,FLOOR:31|,FLOOR:31|,FLOOR:31|,FLOOR:31|,FLOOR:31|,FLOOR:31|,FLOOR:31|,
FLOOR:31|,FLOOR:31|,FLOOR:31|,FLOOR:31|,FLOOR:31|,FLOOR:31|,FLOOR:31|,FLOOR:31|,FLOOR:31|,FLOOR:31|,FLOOR:31|,FLOOR:31|,FLOOR:31|,FLOOR:31|,FLOOR:31|,FLOOR:31|,FLOOR:31|,FLOOR:31|,FLOOR:31|,FLOOR:31|,FLOOR:31|,FLOOR:31|,WALL:25|,WALL:25|,WALL:25|,WALL:25|,WALL:25|,FLOOR:31|,FLOOR:31|,FLOOR:31|,FLOOR:31|,FLOOR:31|,FLOOR:31|,FLOOR:31|,FLOOR:31|,FLOOR:31|,FLOOR:31|,FLOOR:31|SCENERY:37:0|,FLOOR:31|SCENERY:38:0|,WALL:25|,WALL:25|,WALL:25|,WALL:25|,WALL:25|,FLOOR:31|,FLOOR:31|,FLOOR:31|,FLOOR:31|,FLOOR:31|,FLOOR:31|,FLOOR:31|,FLOOR:31|,FLOOR:31|,WALL:25|,WALL:25|,WALL:25|,WALL:25|,WALL:25|,FLOOR:31|SCENERY:38:0|,FLOOR:31|SCENERY:38:0|,FLOOR:31|SCENERY:36:0|,FLOOR:31|,FLOOR:31|,FLOOR:31|,FLOOR:31|,FLOOR:31|,FLOOR:31|,FLOOR:31|,FLOOR:31|,FLOOR:31|,FLOOR:31|,FLOOR:31|,FLOOR:31|,FLOOR:31|,FLOOR:31|,FLOOR:31|,FLOOR:31|,FLOOR:31|,FLOOR:31|,
FLOOR:31|,FLOOR:31|,FLOOR:31|,FLOOR:31|,FLOOR:31|,FLOOR:31|,FLOOR:31|,FLOOR:31|,FLOOR:31|,FLOOR:31|,FLOOR:31|,FLOOR:31|,FLOOR:31|,FLOOR:31|,FLOOR:31|,FLOOR:31|,FLOOR:31|,FLOOR:31|,FLOOR:31|,FLOOR:31|,FLOOR:31|,FLOOR:31|,FLOOR:31|,FLOOR:31|,FLOOR:31|,FLOOR:31|,FLOOR:31|,FLOOR:31|,FLOOR:31|,FLOOR:31|,FLOOR:31|,FLOOR:31|,FLOOR:31|,FLOOR:31|,FLOOR:31|,FLOOR:31|,FLOOR:31|,FLOOR:31|,FLOOR:31|,FLOOR:31|,FLOOR:31|,FLOOR:31|,FLOOR:31|,FLOOR:31|,FLOOR:31|,FLOOR:31|,FLOOR:31|,FLOOR:31|,FLOOR:31|,FLOOR:31|,FLOOR:31|,FLOOR:31|,FLOOR:31|,FLOOR:31|,FLOOR:31|,FLOOR:31|,FLOOR:31|,FLOOR:31|,FLOOR:31|,FLOOR:31|,FLOOR:31|,FLOOR:31|,FLOOR:31|,FLOOR:31|,FLOOR:31|,FLOOR:31|,FLOOR:31|,FLOOR:31|,FLOOR:31|,FLOOR:31|,FLOOR:31|,FLOOR:31|,FLOOR:31|,FLOOR:31|,FLOOR:31|,FLOOR:31|,FLOOR:31|,FLOOR:31|,FLOOR:31|,
FLOOR:31|,FLOOR:31|,FLOOR:31|,FLOOR:31|,FLOOR:31|,FLOOR:31|,FLOOR:31|,FLOOR:31|,FLOOR:31|,FLOOR:31|,FLOOR:31|,FLOOR:31|,FLOOR:31|,FLOOR:31|,FLOOR:31|,FLOOR:31|,FLOOR:31|,FLOOR:31|,FLOOR:31|,FLOOR:31|,FLOOR:31|,FLOOR:31|,FLOOR:31|,FLOOR:31|,FLOOR:31|,FLOOR:31|,FLOOR:31|,FLOOR:31|,FLOOR:31|,FLOOR:31|,FLOOR:31|,FLOOR:31|,FLOOR:31|,FLOOR:31|,FLOOR:31|,FLOOR:31|,FLOOR:31|,FLOOR:31|,FLOOR:31|,FLOOR:31|,FLOOR:31|,FLOOR:31|,FLOOR:31|,FLOOR:31|,FLOOR:31|,FLOOR:31|,FLOOR:31|,FLOOR:31|,FLOOR:31|,FLOOR:31|,FLOOR:31|,FLOOR:31|,FLOOR:31|,FLOOR:31|,FLOOR:31|,FLOOR:31|,FLOOR:31|,FLOOR:31|,FLOOR:31|,FLOOR:31|,FLOOR:31|,FLOOR:31|,FLOOR:31|,FLOOR:31|,FLOOR:31|,FLOOR:31|,FLOOR:31|,FLOOR:31|,FLOOR:31|,FLOOR:31|,FLOOR:31|,FLOOR:31|,FLOOR:31|,FLOOR:31|,FLOOR:31|,FLOOR:31|,FLOOR:31|,FLOOR:31|,FLOOR:31|,
FLOOR:31|,FLOOR:31|,FLOOR:31|,FLOOR:31|,FLOOR:31|,FLOOR:31|,FLOOR:31|,FLOOR:31|,FLOOR:31|,FLOOR:31|,FLOOR:31|,FLOOR:31|,FLOOR:31|,FLOOR:31|,FLOOR:31|,FLOOR:31|,FLOOR:31|,FLOOR:31|,FLOOR:31|,FLOOR:31|,FLOOR:31|,FLOOR:31|,FLOOR:31|,FLOOR:31|,FLOOR:31|,FLOOR:31|,FLOOR:31|,FLOOR:31|,FLOOR:31|,FLOOR:31|,FLOOR:31|,FLOOR:31|,FLOOR:31|,FLOOR:31|,FLOOR:31|,FLOOR:31|,FLOOR:31|,FLOOR:31|,FLOOR:31|,FLOOR:31|,FLOOR:31|,FLOOR:31|,FLOOR:31|,FLOOR:31|,FLOOR:31|,FLOOR:31|,FLOOR:31|,FLOOR:31|,FLOOR:31|,FLOOR:31|,FLOOR:31|,FLOOR:31|,FLOOR:31|,FLOOR:31|,FLOOR:31|,FLOOR:31|,FLOOR:31|,FLOOR:31|,FLOOR:31|,FLOOR:31|,FLOOR:31|,FLOOR:31|,FLOOR:31|,FLOOR:31|,FLOOR:31|,FLOOR:31|,FLOOR:31|,FLOOR:31|,FLOOR:31|,FLOOR:31|,FLOOR:31|,FLOOR:31|,FLOOR:31|,FLOOR:31|,FLOOR:31|,FLOOR:31|,FLOOR:31|,FLOOR:31|,FLOOR:31|,
FLOOR:31|,FLOOR:31|,FLOOR:31|,FLOOR:31|,FLOOR:31|,FLOOR:31|,FLOOR:31|,FLOOR:31|,FLOOR:31|,FLOOR:31|,FLOOR:31|,FLOOR:31|,FLOOR:31|,FLOOR:31|,FLOOR:31|,FLOOR:31|,FLOOR:31|,FLOOR:31|,FLOOR:31|,FLOOR:31|,FLOOR:31|,FLOOR:31|,FLOOR:31|,FLOOR:31|,FLOOR:31|,FLOOR:31|,FLOOR:31|,FLOOR:31|,FLOOR:31|,FLOOR:31|,FLOOR:31|,FLOOR:31|,FLOOR:31|,FLOOR:31|,FLOOR:31|,FLOOR:31|,FLOOR:31|,FLOOR:31|,FLOOR:31|,FLOOR:31|,FLOOR:31|,FLOOR:31|,FLOOR:31|,FLOOR:31|,FLOOR:31|,FLOOR:31|,FLOOR:31|,FLOOR:31|,FLOOR:31|,FLOOR:31|,FLOOR:31|,FLOOR:31|,FLOOR:31|,FLOOR:31|,FLOOR:31|,FLOOR:31|,FLOOR:31|,FLOOR:31|,FLOOR:31|,FLOOR:31|,FLOOR:31|,FLOOR:31|,FLOOR:31|,FLOOR:31|,FLOOR:31|,FLOOR:31|,FLOOR:31|,FLOOR:31|,FLOOR:31|,FLOOR:31|,FLOOR:31|,FLOOR:31|,FLOOR:31|,FLOOR:31|,FLOOR:31|,FLOOR:31|,FLOOR:31|,FLOOR:31|,FLOOR:31|,
FLOOR:31|,FLOOR:31|,FLOOR:31|,FLOOR:31|,FLOOR:31|,FLOOR:31|,FLOOR:31|,FLOOR:31|,FLOOR:31|,FLOOR:31|,FLOOR:31|,FLOOR:31|,FLOOR:31|,FLOOR:31|,FLOOR:31|,FLOOR:31|,FLOOR:31|,FLOOR:31|,FLOOR:31|,FLOOR:31|,FLOOR:31|,FLOOR:31|,FLOOR:31|,FLOOR:31|,FLOOR:31|,FLOOR:31|,FLOOR:31|,FLOOR:31|,FLOOR:31|,FLOOR:31|,FLOOR:31|,FLOOR:31|,FLOOR:31|,FLOOR:31|,FLOOR:31|,FLOOR:31|,FLOOR:31|,FLOOR:31|,FLOOR:31|,FLOOR:31|,FLOOR:31|,FLOOR:31|,FLOOR:31|,FLOOR:31|,FLOOR:31|,FLOOR:31|,FLOOR:31|,FLOOR:31|,FLOOR:31|,FLOOR:31|,FLOOR:31|,FLOOR:31|,FLOOR:31|,FLOOR:31|,FLOOR:31|,FLOOR:31|,FLOOR:31|,FLOOR:31|,FLOOR:31|,FLOOR:31|,FLOOR:31|,FLOOR:31|,FLOOR:31|,FLOOR:31|,FLOOR:31|,FLOOR:31|,FLOOR:31|,FLOOR:31|,FLOOR:31|,FLOOR:31|,FLOOR:31|,FLOOR:31|,FLOOR:31|,FLOOR:31|,FLOOR:31|,FLOOR:31|,FLOOR:31|,FLOOR:31|,FLOOR:31|,
FLOOR:31|,FLOOR:31|,FLOOR:31|,FLOOR:31|,FLOOR:31|,FLOOR:31|,FLOOR:31|,FLOOR:31|,FLOOR:31|,FLOOR:31|,FLOOR:31|,FLOOR:31|,FLOOR:31|,FLOOR:31|,FLOOR:31|,FLOOR:31|,FLOOR:31|,FLOOR:31|,FLOOR:31|,FLOOR:31|,FLOOR:31|,FLOOR:31|,FLOOR:31|,FLOOR:31|,FLOOR:31|,FLOOR:31|,FLOOR:31|,FLOOR:31|,FLOOR:31|,FLOOR:31|,FLOOR:31|,FLOOR:31|,FLOOR:31|,FLOOR:31|,FLOOR:31|,FLOOR:31|,FLOOR:31|,FLOOR:31|,FLOOR:31|,FLOOR:31|,FLOOR:31|,FLOOR:31|,FLOOR:31|,FLOOR:31|,FLOOR:31|,FLOOR:31|,FLOOR:31|,FLOOR:31|,FLOOR:31|,FLOOR:31|,FLOOR:31|,FLOOR:31|,FLOOR:31|,FLOOR:31|,FLOOR:31|,FLOOR:31|,FLOOR:31|,FLOOR:31|,FLOOR:31|,FLOOR:31|,FLOOR:31|,FLOOR:31|,FLOOR:31|,FLOOR:31|,FLOOR:31|,FLOOR:31|,FLOOR:31|,FLOOR:31|,FLOOR:31|,FLOOR:31|,FLOOR:31|,FLOOR:31|,FLOOR:31|,FLOOR:31|,FLOOR:31|,FLOOR:31|,FLOOR:31|,FLOOR:31|,FLOOR:31|,
FLOOR:31|,FLOOR:31|,FLOOR:31|,FLOOR:31|,FLOOR:31|,FLOOR:31|,FLOOR:31|,FLOOR:31|,FLOOR:31|,FLOOR:31|,FLOOR:31|,FLOOR:31|,FLOOR:31|,FLOOR:31|,FLOOR:31|,FLOOR:31|,FLOOR:31|,FLOOR:31|,FLOOR:31|,FLOOR:31|,FLOOR:31|,FLOOR:31|,FLOOR:31|,FLOOR:31|,FLOOR:31|,FLOOR:31|,FLOOR:31|,FLOOR:31|,FLOOR:31|,FLOOR:31|,FLOOR:31|,FLOOR:31|,FLOOR:31|,FLOOR:31|,FLOOR:31|,FLOOR:31|,FLOOR:31|,FLOOR:31|,FLOOR:31|,FLOOR:31|,FLOOR:31|,FLOOR:31|,FLOOR:31|,FLOOR:31|,FLOOR:31|,FLOOR:31|,FLOOR:31|,FLOOR:31|,FLOOR:31|,FLOOR:31|,FLOOR:31|,FLOOR:31|,FLOOR:31|,FLOOR:31|,FLOOR:31|,FLOOR:31|,FLOOR:31|,FLOOR:31|,FLOOR:31|,FLOOR:31|,FLOOR:31|,FLOOR:31|,FLOOR:31|,FLOOR:31|,FLOOR:31|,FLOOR:31|,FLOOR:31|,FLOOR:31|,FLOOR:31|,FLOOR:31|,FLOOR:31|,FLOOR:31|,FLOOR:31|,FLOOR:31|,FLOOR:31|,FLOOR:31|,FLOOR:31|,FLOOR:31|,FLOOR:31|,
FLOOR:31|,FLOOR:31|,FLOOR:31|,FLOOR:31|,FLOOR:31|,FLOOR:31|,FLOOR:31|,FLOOR:31|,FLOOR:31|,FLOOR:31|,FLOOR:31|,FLOOR:31|,FLOOR:31|,FLOOR:31|,FLOOR:31|,FLOOR:31|,FLOOR:31|,FLOOR:31|,FLOOR:31|,FLOOR:31|,FLOOR:31|,FLOOR:31|,FLOOR:31|,FLOOR:31|,FLOOR:31|,FLOOR:31|,FLOOR:31|,FLOOR:31|,FLOOR:31|,FLOOR:31|,FLOOR:31|,FLOOR:31|,FLOOR:31|,FLOOR:31|,FLOOR:31|,FLOOR:31|,FLOOR:31|,FLOOR:31|,FLOOR:31|,FLOOR:31|,FLOOR:31|,FLOOR:31|,FLOOR:31|,FLOOR:31|,FLOOR:31|,FLOOR:31|,FLOOR:31|,FLOOR:31|,FLOOR:31|,FLOOR:31|,FLOOR:31|,FLOOR:31|,FLOOR:31|,FLOOR:31|,FLOOR:31|,FLOOR:31|,FLOOR:31|,FLOOR:31|,FLOOR:31|,FLOOR:31|,FLOOR:31|,FLOOR:31|,FLOOR:31|,FLOOR:31|,FLOOR:31|,FLOOR:31|,FLOOR:31|,FLOOR:31|,FLOOR:31|,FLOOR:31|,FLOOR:31|,FLOOR:31|,FLOOR:31|,FLOOR:31|,FLOOR:31|,FLOOR:31|,FLOOR:31|,FLOOR:31|,FLOOR:31|,
FLOOR:31|,FLOOR:31|,FLOOR:31|,FLOOR:31|,FLOOR:31|,FLOOR:31|,FLOOR:31|,FLOOR:31|,FLOOR:31|,FLOOR:31|,FLOOR:31|,FLOOR:31|,FLOOR:31|,FLOOR:31|,FLOOR:31|,FLOOR:31|,FLOOR:31|,FLOOR:31|,FLOOR:31|,FLOOR:31|,FLOOR:31|,FLOOR:31|,FLOOR:31|,FLOOR:31|,FLOOR:31|,FLOOR:31|,FLOOR:31|,FLOOR:31|,FLOOR:31|,FLOOR:31|,FLOOR:31|,FLOOR:31|,FLOOR:31|,FLOOR:31|,FLOOR:31|,FLOOR:31|,FLOOR:31|,FLOOR:31|,FLOOR:31|,FLOOR:31|,FLOOR:31|,FLOOR:31|,FLOOR:31|,FLOOR:31|,FLOOR:31|,FLOOR:31|,FLOOR:31|,FLOOR:31|,FLOOR:31|,FLOOR:31|,FLOOR:31|,FLOOR:31|,FLOOR:31|,FLOOR:31|,FLOOR:31|,FLOOR:31|,FLOOR:31|,FLOOR:31|,FLOOR:31|,FLOOR:31|,FLOOR:31|,FLOOR:31|,FLOOR:31|,FLOOR:31|,FLOOR:31|,FLOOR:31|,FLOOR:31|,FLOOR:31|,FLOOR:31|,FLOOR:31|,FLOOR:31|,FLOOR:31|,FLOOR:31|,FLOOR:31|,FLOOR:31|,FLOOR:31|,FLOOR:31|,FLOOR:31|,FLOOR:31|,
FLOOR:31|,FLOOR:31|,FLOOR:31|,FLOOR:31|,FLOOR:31|,FLOOR:31|,FLOOR:31|,FLOOR:31|,FLOOR:31|,FLOOR:31|,FLOOR:31|,FLOOR:31|,FLOOR:31|,FLOOR:31|,FLOOR:31|,FLOOR:31|,FLOOR:31|,FLOOR:31|,FLOOR:31|,FLOOR:31|,FLOOR:31|,FLOOR:31|,FLOOR:31|,FLOOR:31|,FLOOR:31|,FLOOR:31|,FLOOR:31|,FLOOR:31|,FLOOR:31|,FLOOR:31|,FLOOR:31|,FLOOR:31|,FLOOR:31|,FLOOR:31|,FLOOR:31|,FLOOR:31|,FLOOR:31|,FLOOR:31|,FLOOR:31|,FLOOR:31|,FLOOR:31|,FLOOR:31|,FLOOR:31|,FLOOR:31|,FLOOR:31|,FLOOR:31|,FLOOR:31|,FLOOR:31|,FLOOR:31|,FLOOR:31|,FLOOR:31|,FLOOR:31|,FLOOR:31|,FLOOR:31|,FLOOR:31|,FLOOR:31|,FLOOR:31|,FLOOR:31|,FLOOR:31|,FLOOR:31|,FLOOR:31|,FLOOR:31|,FLOOR:31|,FLOOR:31|,FLOOR:31|,FLOOR:31|,FLOOR:31|,FLOOR:31|,FLOOR:31|,FLOOR:31|,FLOOR:31|,FLOOR:31|,FLOOR:31|,FLOOR:31|,FLOOR:31|,FLOOR:31|,FLOOR:31|,FLOOR:31|,FLOOR:31|,
FLOOR:31|,FLOOR:31|,FLOOR:31|,FLOOR:31|,FLOOR:31|,FLOOR:31|,FLOOR:31|,FLOOR:31|,FLOOR:31|,FLOOR:31|,FLOOR:31|,FLOOR:31|,FLOOR:31|,FLOOR:31|,FLOOR:31|,FLOOR:31|,FLOOR:31|,FLOOR:31|,FLOOR:31|,FLOOR:31|,FLOOR:31|,FLOOR:31|,FLOOR:31|,FLOOR:31|,FLOOR:31|,FLOOR:31|,FLOOR:31|,FLOOR:31|,FLOOR:31|,FLOOR:31|,FLOOR:31|,FLOOR:31|,FLOOR:31|,FLOOR:31|,FLOOR:31|,FLOOR:31|,FLOOR:31|,FLOOR:31|,FLOOR:31|,FLOOR:31|,FLOOR:31|,FLOOR:31|,FLOOR:31|,FLOOR:31|,FLOOR:31|,FLOOR:31|,FLOOR:31|,FLOOR:31|,FLOOR:31|,FLOOR:31|,FLOOR:31|,FLOOR:31|,FLOOR:31|,FLOOR:31|,FLOOR:31|,FLOOR:31|,FLOOR:31|,FLOOR:31|,FLOOR:31|,FLOOR:31|,FLOOR:31|,FLOOR:31|,FLOOR:31|,FLOOR:31|,FLOOR:31|,FLOOR:31|,FLOOR:31|,FLOOR:31|,FLOOR:31|,FLOOR:31|,FLOOR:31|,FLOOR:31|,FLOOR:31|,FLOOR:31|,FLOOR:31|,FLOOR:31|,FLOOR:31|,FLOOR:31|,FLOOR:31|,
FLOOR:31|,FLOOR:31|,FLOOR:31|,FLOOR:31|,FLOOR:31|,FLOOR:31|,FLOOR:31|,FLOOR:31|,FLOOR:31|,FLOOR:31|,FLOOR:31|,FLOOR:31|,FLOOR:31|,FLOOR:31|,FLOOR:31|,FLOOR:31|,FLOOR:31|,FLOOR:31|,FLOOR:31|,FLOOR:31|,FLOOR:31|,FLOOR:31|,FLOOR:31|,FLOOR:31|,FLOOR:31|,FLOOR:31|,FLOOR:31|,FLOOR:31|,FLOOR:31|,FLOOR:31|,FLOOR:31|,FLOOR:31|,FLOOR:31|,FLOOR:31|,FLOOR:31|,FLOOR:31|,FLOOR:31|,FLOOR:31|,FLOOR:31|,FLOOR:31|,FLOOR:31|,FLOOR:31|,FLOOR:31|,FLOOR:31|,FLOOR:31|,FLOOR:31|,FLOOR:31|,FLOOR:31|,FLOOR:31|,FLOOR:31|,FLOOR:31|,FLOOR:31|,FLOOR:31|,FLOOR:31|,FLOOR:31|,FLOOR:31|,FLOOR:31|,FLOOR:31|,FLOOR:31|,FLOOR:31|,FLOOR:31|,FLOOR:31|,FLOOR:31|,FLOOR:31|,FLOOR:31|,FLOOR:31|,FLOOR:31|,FLOOR:31|,FLOOR:31|,FLOOR:31|,FLOOR:31|,FLOOR:31|,FLOOR:31|,FLOOR:31|,FLOOR:31|,FLOOR:31|,FLOOR:31|,FLOOR:31|,FLOOR:31|,
FLOOR:31|,FLOOR:31|,FLOOR:31|,FLOOR:31|,FLOOR:31|,FLOOR:31|,FLOOR:31|,FLOOR:31|,FLOOR:31|,FLOOR:31|,FLOOR:31|,FLOOR:31|,FLOOR:31|,FLOOR:31|,FLOOR:31|,FLOOR:31|,FLOOR:31|,FLOOR:31|,FLOOR:31|,FLOOR:31|,FLOOR:31|,FLOOR:31|,FLOOR:31|,FLOOR:31|,FLOOR:31|,FLOOR:31|,FLOOR:31|,FLOOR:31|,FLOOR:31|,FLOOR:31|,FLOOR:31|,FLOOR:31|,FLOOR:31|,FLOOR:31|,FLOOR:31|,FLOOR:31|,FLOOR:31|,FLOOR:31|,FLOOR:31|,FLOOR:31|,FLOOR:31|,FLOOR:31|,FLOOR:31|,FLOOR:31|,FLOOR:31|,FLOOR:31|,FLOOR:31|,FLOOR:31|,FLOOR:31|,FLOOR:31|,FLOOR:31|,FLOOR:31|,FLOOR:31|,FLOOR:31|,FLOOR:31|,FLOOR:31|,FLOOR:31|,FLOOR:31|,FLOOR:31|,FLOOR:31|,FLOOR:31|,FLOOR:31|,FLOOR:31|,FLOOR:31|,FLOOR:31|,FLOOR:31|,FLOOR:31|,FLOOR:31|,FLOOR:31|,FLOOR:31|,FLOOR:31|,FLOOR:31|,FLOOR:31|,FLOOR:31|,FLOOR:31|,FLOOR:31|,FLOOR:31|,FLOOR:31|,FLOOR:31|,
FLOOR:31|,FLOOR:31|,FLOOR:31|,FLOOR:31|,FLOOR:31|,FLOOR:31|,FLOOR:31|,FLOOR:31|,FLOOR:31|,FLOOR:31|,FLOOR:31|,FLOOR:31|,FLOOR:31|,FLOOR:31|,FLOOR:31|,FLOOR:31|,FLOOR:31|,FLOOR:31|,FLOOR:31|,FLOOR:31|,FLOOR:31|,FLOOR:31|,FLOOR:31|,FLOOR:31|,FLOOR:31|,FLOOR:31|,FLOOR:31|,FLOOR:31|,FLOOR:31|,FLOOR:31|,FLOOR:31|,FLOOR:31|,FLOOR:31|,FLOOR:31|,FLOOR:31|,FLOOR:31|,FLOOR:31|,FLOOR:31|,FLOOR:31|,FLOOR:31|,FLOOR:31|,FLOOR:31|,FLOOR:31|,FLOOR:31|,FLOOR:31|,FLOOR:31|,FLOOR:31|,FLOOR:31|,FLOOR:31|,FLOOR:31|,FLOOR:31|,FLOOR:31|,FLOOR:31|,FLOOR:31|,FLOOR:31|,FLOOR:31|,FLOOR:31|,FLOOR:31|,FLOOR:31|,FLOOR:31|,FLOOR:31|,FLOOR:31|,FLOOR:31|,FLOOR:31|,FLOOR:31|,FLOOR:31|,FLOOR:31|,FLOOR:31|,FLOOR:31|,FLOOR:31|,FLOOR:31|,FLOOR:31|,FLOOR:31|,FLOOR:31|,FLOOR:31|,FLOOR:31|,FLOOR:31|,FLOOR:31|,FLOOR:31|,
FLOOR:31|,FLOOR:31|,FLOOR:31|,FLOOR:31|,FLOOR:31|,FLOOR:31|,FLOOR:31|,FLOOR:31|,FLOOR:31|,FLOOR:31|,FLOOR:31|,FLOOR:31|,FLOOR:31|,FLOOR:31|,FLOOR:31|,FLOOR:31|,FLOOR:31|,FLOOR:31|,FLOOR:31|,FLOOR:31|,FLOOR:31|,FLOOR:31|,FLOOR:31|,FLOOR:31|,FLOOR:31|,FLOOR:31|,FLOOR:31|,FLOOR:31|,FLOOR:31|,FLOOR:31|,FLOOR:31|,FLOOR:31|,FLOOR:31|,FLOOR:31|,FLOOR:31|,FLOOR:31|,FLOOR:31|,FLOOR:31|,FLOOR:31|,FLOOR:31|,FLOOR:31|,FLOOR:31|,FLOOR:31|,FLOOR:31|,FLOOR:31|,FLOOR:31|,FLOOR:31|,FLOOR:31|,FLOOR:31|,FLOOR:31|,FLOOR:31|,FLOOR:31|,FLOOR:31|,FLOOR:31|,FLOOR:31|,FLOOR:31|,FLOOR:31|,FLOOR:31|,FLOOR:31|,FLOOR:31|,FLOOR:31|,FLOOR:31|,FLOOR:31|,FLOOR:31|,FLOOR:31|,FLOOR:31|,FLOOR:31|,FLOOR:31|,FLOOR:31|,FLOOR:31|,FLOOR:31|,FLOOR:31|,FLOOR:31|,FLOOR:31|,FLOOR:31|,FLOOR:31|,FLOOR:31|,FLOOR:31|,FLOOR:31|,
FLOOR:31|,FLOOR:31|,FLOOR:31|,FLOOR:31|,FLOOR:31|,FLOOR:31|,FLOOR:31|,FLOOR:31|,FLOOR:31|,FLOOR:31|,FLOOR:31|,FLOOR:31|,FLOOR:31|,FLOOR:31|,FLOOR:31|,FLOOR:31|,FLOOR:31|,FLOOR:31|,FLOOR:31|,FLOOR:31|,FLOOR:31|,FLOOR:31|,FLOOR:31|,FLOOR:31|,FLOOR:31|,FLOOR:31|,FLOOR:31|,FLOOR:31|,FLOOR:31|,FLOOR:31|,FLOOR:31|,FLOOR:31|,FLOOR:31|,FLOOR:31|,FLOOR:31|,FLOOR:31|,FLOOR:31|,FLOOR:31|,FLOOR:31|,FLOOR:31|,FLOOR:31|,FLOOR:31|,FLOOR:31|,FLOOR:31|,FLOOR:31|,FLOOR:31|,FLOOR:31|,FLOOR:31|,FLOOR:31|,FLOOR:31|,FLOOR:31|,FLOOR:31|,FLOOR:31|,FLOOR:31|,FLOOR:31|,FLOOR:31|,FLOOR:31|,FLOOR:31|,FLOOR:31|,FLOOR:31|,FLOOR:31|,FLOOR:31|,FLOOR:31|,FLOOR:31|,FLOOR:31|,FLOOR:31|,FLOOR:31|,FLOOR:31|,FLOOR:31|,FLOOR:31|,FLOOR:31|,FLOOR:31|,FLOOR:31|,FLOOR:31|,FLOOR:31|,FLOOR:31|,FLOOR:31|,FLOOR:31|,FLOOR:31|,
FLOOR:31|,FLOOR:31|,FLOOR:31|,FLOOR:31|,FLOOR:31|,FLOOR:31|,FLOOR:31|,FLOOR:31|,FLOOR:31|,FLOOR:31|,FLOOR:31|,FLOOR:31|,FLOOR:31|,FLOOR:31|,FLOOR:31|,FLOOR:31|,FLOOR:31|,FLOOR:31|,FLOOR:31|,FLOOR:31|,FLOOR:31|,FLOOR:31|,FLOOR:31|,FLOOR:31|,FLOOR:31|,FLOOR:31|,FLOOR:31|,FLOOR:31|,FLOOR:31|,FLOOR:31|,FLOOR:31|,FLOOR:31|,FLOOR:31|,FLOOR:31|,FLOOR:31|,FLOOR:31|,FLOOR:31|,FLOOR:31|,FLOOR:31|,FLOOR:31|,FLOOR:31|,FLOOR:31|,FLOOR:31|,FLOOR:31|,FLOOR:31|,FLOOR:31|,FLOOR:31|,FLOOR:31|,FLOOR:31|,FLOOR:31|,FLOOR:31|,FLOOR:31|,FLOOR:31|,FLOOR:31|,FLOOR:31|,FLOOR:31|,FLOOR:31|,FLOOR:31|,FLOOR:31|,FLOOR:31|,FLOOR:31|,FLOOR:31|,FLOOR:31|,FLOOR:31|,FLOOR:31|,FLOOR:31|,FLOOR:31|,FLOOR:31|,FLOOR:31|,FLOOR:31|,FLOOR:31|,FLOOR:31|,FLOOR:31|,FLOOR:31|,FLOOR:31|,FLOOR:31|,FLOOR:31|,FLOOR:31|,FLOOR:31|,
FLOOR:31|,FLOOR:31|,FLOOR:31|,FLOOR:31|,FLOOR:31|,FLOOR:31|,FLOOR:31|,FLOOR:31|,FLOOR:31|,FLOOR:31|,FLOOR:31|,FLOOR:31|,FLOOR:31|,FLOOR:31|,FLOOR:31|,FLOOR:31|,FLOOR:31|,FLOOR:31|,FLOOR:31|,FLOOR:31|,FLOOR:31|,FLOOR:31|,FLOOR:31|,FLOOR:31|,FLOOR:31|,FLOOR:31|,FLOOR:31|,FLOOR:31|,FLOOR:31|,FLOOR:31|,FLOOR:31|,FLOOR:31|,FLOOR:31|,FLOOR:31|,FLOOR:31|,FLOOR:31|,FLOOR:31|,FLOOR:31|,FLOOR:31|,FLOOR:31|,FLOOR:31|,FLOOR:31|,FLOOR:31|,FLOOR:31|,FLOOR:31|,FLOOR:31|,FLOOR:31|,FLOOR:31|,FLOOR:31|,FLOOR:31|,FLOOR:31|,FLOOR:31|,FLOOR:31|,FLOOR:31|,FLOOR:31|,FLOOR:31|,FLOOR:31|,FLOOR:31|,FLOOR:31|,FLOOR:31|,FLOOR:31|,FLOOR:31|,FLOOR:31|,FLOOR:31|,FLOOR:31|,FLOOR:31|,FLOOR:31|,FLOOR:31|,FLOOR:31|,FLOOR:31|,FLOOR:31|,FLOOR:31|,FLOOR:31|,FLOOR:31|,FLOOR:31|,FLOOR:31|,FLOOR:31|,FLOOR:31|,FLOOR:31|,
FLOOR:31|,FLOOR:31|,FLOOR:31|,FLOOR:31|,FLOOR:31|,FLOOR:31|,FLOOR:31|,FLOOR:31|,FLOOR:31|,FLOOR:31|,FLOOR:31|,FLOOR:31|,FLOOR:31|,FLOOR:31|,FLOOR:31|,FLOOR:31|,FLOOR:31|,FLOOR:31|,FLOOR:31|,FLOOR:31|,FLOOR:31|,FLOOR:31|,FLOOR:31|,FLOOR:31|,FLOOR:31|,FLOOR:31|,FLOOR:31|,FLOOR:31|,FLOOR:31|,FLOOR:31|,FLOOR:31|,FLOOR:31|,FLOOR:31|,FLOOR:31|,FLOOR:31|,FLOOR:31|,FLOOR:31|,FLOOR:31|,FLOOR:31|,FLOOR:31|,FLOOR:31|,FLOOR:31|,FLOOR:31|,FLOOR:31|,FLOOR:31|,FLOOR:31|,FLOOR:31|,FLOOR:31|,FLOOR:31|,FLOOR:31|,FLOOR:31|,FLOOR:31|,FLOOR:31|,FLOOR:31|,FLOOR:31|,FLOOR:31|,FLOOR:31|,FLOOR:31|,FLOOR:31|,FLOOR:31|,FLOOR:31|,FLOOR:31|,FLOOR:31|,FLOOR:31|,FLOOR:31|,FLOOR:31|,FLOOR:31|,FLOOR:31|,FLOOR:31|,FLOOR:31|,FLOOR:31|,FLOOR:31|,FLOOR:31|,FLOOR:31|,FLOOR:31|,FLOOR:31|,FLOOR:31|,FLOOR:31|,FLOOR:31|,
FLOOR:31|,FLOOR:31|,FLOOR:31|,FLOOR:31|,FLOOR:31|,FLOOR:31|,FLOOR:31|,FLOOR:31|,FLOOR:31|,FLOOR:31|,FLOOR:31|,FLOOR:31|,FLOOR:31|,FLOOR:31|,FLOOR:31|,FLOOR:31|,FLOOR:31|,FLOOR:31|,FLOOR:31|,FLOOR:31|,FLOOR:31|,FLOOR:31|,FLOOR:31|,FLOOR:31|,FLOOR:31|,FLOOR:31|,FLOOR:31|,FLOOR:31|,FLOOR:31|,FLOOR:31|,FLOOR:31|,FLOOR:31|,FLOOR:31|,FLOOR:31|,FLOOR:31|,FLOOR:31|,FLOOR:31|,FLOOR:31|,FLOOR:31|,FLOOR:31|,FLOOR:31|,FLOOR:31|,FLOOR:31|,FLOOR:31|,FLOOR:31|,FLOOR:31|,FLOOR:31|,FLOOR:31|,FLOOR:31|,FLOOR:31|,FLOOR:31|,FLOOR:31|,FLOOR:31|,FLOOR:31|,FLOOR:31|,FLOOR:31|,FLOOR:31|,FLOOR:31|,FLOOR:31|,FLOOR:31|,FLOOR:31|,FLOOR:31|,FLOOR:31|,FLOOR:31|,FLOOR:31|,FLOOR:31|,FLOOR:31|,FLOOR:31|,FLOOR:31|,FLOOR:31|,FLOOR:31|,FLOOR:31|,FLOOR:31|,FLOOR:31|,FLOOR:31|,FLOOR:31|,FLOOR:31|,FLOOR:31|,FLOOR:31|,
FLOOR:31|,FLOOR:31|,FLOOR:31|,FLOOR:31|,FLOOR:31|,FLOOR:31|,FLOOR:31|,FLOOR:31|,FLOOR:31|,FLOOR:31|,FLOOR:31|,FLOOR:31|,FLOOR:31|,FLOOR:31|,FLOOR:31|,FLOOR:31|,FLOOR:31|,FLOOR:31|,FLOOR:31|,FLOOR:31|,FLOOR:31|,FLOOR:31|,FLOOR:31|,FLOOR:31|,FLOOR:31|,FLOOR:31|,FLOOR:31|,FLOOR:31|,FLOOR:31|,FLOOR:31|,FLOOR:31|,FLOOR:31|,FLOOR:31|,FLOOR:31|,FLOOR:31|,FLOOR:31|,FLOOR:31|,FLOOR:31|,FLOOR:31|,FLOOR:31|,FLOOR:31|,FLOOR:31|,FLOOR:31|,FLOOR:31|,FLOOR:31|,FLOOR:31|,FLOOR:31|,FLOOR:31|,FLOOR:31|,FLOOR:31|,FLOOR:31|,FLOOR:31|,FLOOR:31|,FLOOR:31|,FLOOR:31|,FLOOR:31|,FLOOR:31|,FLOOR:31|,FLOOR:31|,FLOOR:31|,FLOOR:31|,FLOOR:31|,FLOOR:31|,FLOOR:31|,FLOOR:31|,FLOOR:31|,FLOOR:31|,FLOOR:31|,FLOOR:31|,FLOOR:31|,FLOOR:31|,FLOOR:31|,FLOOR:31|,FLOOR:31|,FLOOR:31|,FLOOR:31|,FLOOR:31|,FLOOR:31|,FLOOR:31|,
FLOOR:31|,FLOOR:31|,FLOOR:31|,FLOOR:31|,FLOOR:31|,FLOOR:31|,FLOOR:31|,FLOOR:31|,FLOOR:31|,FLOOR:31|,FLOOR:31|,FLOOR:31|,FLOOR:31|,FLOOR:31|,FLOOR:31|,FLOOR:31|,FLOOR:31|,FLOOR:31|,FLOOR:31|,FLOOR:31|,FLOOR:31|,FLOOR:31|,FLOOR:31|,FLOOR:31|,FLOOR:31|,FLOOR:31|,FLOOR:31|,FLOOR:31|,FLOOR:31|,FLOOR:31|,FLOOR:31|,FLOOR:31|,FLOOR:31|,FLOOR:31|,FLOOR:31|,FLOOR:31|,FLOOR:31|,FLOOR:31|,FLOOR:31|,FLOOR:31|,FLOOR:31|,FLOOR:31|,FLOOR:31|,FLOOR:31|,FLOOR:31|,FLOOR:31|,FLOOR:31|,FLOOR:31|,FLOOR:31|,FLOOR:31|,FLOOR:31|,FLOOR:31|,FLOOR:31|,FLOOR:31|,FLOOR:31|,FLOOR:31|,FLOOR:31|,FLOOR:31|,FLOOR:31|,FLOOR:31|,FLOOR:31|,FLOOR:31|,FLOOR:31|,FLOOR:31|,FLOOR:31|,FLOOR:31|,FLOOR:31|,FLOOR:31|,FLOOR:31|,FLOOR:31|,FLOOR:31|,FLOOR:31|,FLOOR:31|,FLOOR:31|,FLOOR:31|,FLOOR:31|,FLOOR:31|,FLOOR:31|,FLOOR:31|,

