48,1.87
FLOOR:7|,FLOOR:7|,FLOOR:7|,FLOOR:9|,FLOOR:7|,FLOOR:7|,FLOOR:7|,FLOOR:7|,FLOOR:9|,FLOOR:7|,FLOOR:7|,FLOOR:7|,FLOOR:9|,FLOOR:7|,FLOOR:7|,FLOOR:9|,FLOOR:7|,FLOOR:7|,FLOOR:9|,FLOOR:9|,FLOOR:7|,FLOOR:7|,FLOOR:7|,FLOOR:7|,FLOOR:7|,FLOOR:7|,FLOOR:7|,FLOOR:9|,FLOOR:9|,FLOOR:9|,FLOOR:7|,FLOOR:7|,FLOOR:7|,FLOOR:7|,FLOOR:7|,FLOOR:58|,FLOOR:58|,FLOOR:7|,FLOOR:9|,FLOOR:58|,FLOOR:7|,FLOOR:58|,FLOOR:7|,FLOOR:58|,FLOOR:58|,FLOOR:58|,FLOOR:58|,FLOOR:58|,
FLOOR:7|,FLOOR:7|,FLOOR:7|,FLOOR:9|,FLOOR:7|,FLOOR:7|,FLOOR:9|,FLOOR:9|,FLOOR:9|,FLOOR:7|,FLOOR:7|,FLOOR:9|,FLOOR:7|,FLOOR:9|,FLOOR:9|,FLOOR:9|,FLOOR:7|,FLOOR:7|,FLOOR:7|,FLOOR:9|,WALL:5|,WALL:5|,WALL:5|,FLOOR:7|,FLOOR:7|,FLOOR:7|,FLOOR:9|,FLOOR:9|,FLOOR:9|,FLOOR:7|,FLOOR:7|,FLOOR:7|,FLOOR:7|,FLOOR:58|,FLOOR:58|,WALL:26|,FLOOR:9|,FLOOR:9|,FLOOR:58|,FLOOR:58|,FLOOR:7|,FLOOR:58|,FLOOR:58|,WALL:26|,FLOOR:58|,FLOOR:58|,FLOOR:58|,FLOOR:58|,
FLOOR:7|,FLOOR:7|,FLOOR:9|,FLOOR:9|,FLOOR:9|,FLOOR:9|,FLOOR:9|,FLOOR:9|,FLOOR:9|,FLOOR:7|,FLOOR:9|,FLOOR:7|,FLOOR:7|,FLOOR:7|,FLOOR:7|,FLOOR:7|,FLOOR:7|,FLOOR:9|,FLOOR:7|,FLOOR:7|,WALL:5|,FLOOR:8|,WALL:5|,FLOOR:7|DEPLOY:2|,FLOOR:7|DEPLOY:2|,FLOOR:9|DEPLOY:2|,FLOOR:9|,FLOOR:9|,FLOOR:9|,FLOOR:9|,FLOOR:9|,FLOOR:7|,FLOOR:9|,WALL:26|,FLOOR:7|,FLOOR:7|,FLOOR:9|,FLOOR:58|,WALL:26|,FLOOR:7|,FLOOR:58|,WALL:26|,FLOOR:58|,FLOOR:58|,FLOOR:7|,FLOOR:58|,FLOOR:58|,FLOOR:7|,
FLOOR:9|,FLOOR:9|,FLOOR:9|,FLOOR:7|,FLOOR:7|,FLOOR:7|,FLOOR:9|,FLOOR:9|,WALL:5|,WALL:5|,WALL:5|,WALL:5|,FLOOR:7|,FLOOR:7|,WALL:5|,WALL:5|,WALL:5|,WALL:5|,FLOOR:8|,FLOOR:8|DEPLOY:2|,WALL:5|,FLOOR:8|,WALL:5|,WALL:5|,WALL:5|,WALL:5|,WALL:5|,FLOOR:9|,FLOOR:7|,FLOOR:7|,FLOOR:9|,FLOOR:9|,FLOOR:9|,FLOOR:9|,FLOOR:7|,FLOOR:9|,FLOOR:9|,FLOOR:58|,FLOOR:7|,FLOOR:58|,FLOOR:7|,FLOOR:58|,FLOOR:58|,WALL:26|,FLOOR:7|,FLOOR:58|,FLOOR:58|,FLOOR:58|,
FLOOR:7|,FLOOR:7|,FLOOR:7|,FLOOR:7|,FLOOR:7|,FLOOR:9|,FLOOR:9|,FLOOR:9|,WALL:5|,FLOOR:10|,FLOOR:10|,FLOOR:9|DOOR:1|,FLOOR:8|,FLOOR:8|DEPLOY:2|,WALL:5|,FLOOR:8|,FLOOR:8|,WALL:5|,FLOOR:8|,FLOOR:8|DEPLOY:2|,WALL:5|,FLOOR:8|,FLOOR:8|,WALL:5|,FLOOR:8|,FLOOR:8|,WALL:5|,FLOOR:7|,FLOOR:7|,FLOOR:7|,FLOOR:7|,FLOOR:7|,FLOOR:7|,FLOOR:9|,FLOOR:9|,FLOOR:9|,WALL:26|,FLOOR:58|,FLOOR:7|,WALL:26|,FLOOR:58|,FLOOR:58|,FLOOR:58|,FLOOR:58|,FLOOR:58|,FLOOR:7|,FLOOR:58|,FLOOR:7|,
FLOOR:7|,FLOOR:7|,FLOOR:7|,FLOOR:7|,FLOOR:7|,FLOOR:9|,FLOOR:7|,FLOOR:7|,WALL:5|,FLOOR:10|,FLOOR:10|,WALL:5|,FLOOR:8|DEPLOY:2|,FLOOR:8|DEPLOY:2|,WALL:5|,FLOOR:8|,FLOOR:8|,WALL:5|,FLOOR:8|,FLOOR:8|DEPLOY:2|,WALL:5|,FLOOR:8|,FLOOR:8|,FLOOR:8|,FLOOR:8|,FLOOR:8|,WALL:5|,FLOOR:9|,FLOOR:7|,FLOOR:7|,FLOOR:7|,FLOOR:7|,FLOOR:7|,FLOOR:7|,FLOOR:58|,FLOOR:58|,FLOOR:58|,FLOOR:7|,FLOOR:58|,FLOOR:7|,FLOOR:7|,WALL:26|,FLOOR:7|,FLOOR:7|,FLOOR:7|,FLOOR:58|,FLOOR:7|,FLOOR:7|,
FLOOR:7|,FLOOR:7|,FLOOR:7|,FLOOR:7|,FLOOR:9|,FLOOR:9|,FLOOR:7|,FLOOR:7|,WALL:5|,FLOOR:9|DOOR:2|,WALL:5|,WALL:5|,WALL:5|,WALL:5|,WALL:5|,FLOOR:8|,FLOOR:8|,WALL:5|,WALL:5|,WALL:5|,WALL:5|,FLOOR:7|,FLOOR:9|,WALL:5|,WALL:5|,WALL:5|,WALL:5|,WALL:25|,WALL:25|,WALL:25|,WALL:25|,FLOOR:9|,FLOOR:9|,FLOOR:9|,FLOOR:5|,FLOOR:58|,FLOOR:7|,FLOOR:7|,FLOOR:7|,FLOOR:58|,FLOOR:58|,FLOOR:58|,FLOOR:7|,FLOOR:58|,FLOOR:58|,FLOOR:7|,FLOOR:7|,FLOOR:7|,
FLOOR:8|,FLOOR:8|,FLOOR:8|,FLOOR:8|,FLOOR:8|,FLOOR:8|,FLOOR:8|,FLOOR:8|,FLOOR:8|,FLOOR:8|,FLOOR:8|,FLOOR:9|,FLOOR:8|,FLOOR:8|,FLOOR:8|,FLOOR:8|,FLOOR:8|,FLOOR:8|,FLOOR:8|,FLOOR:8|,FLOOR:8|,FLOOR:8|,FLOOR:9|,FLOOR:8|,FLOOR:8|,FLOOR:8|,FLOOR:8|,WALL:25|,FLOOR:31|,FLOOR:31|,WALL:25|,FLOOR:9|,FLOOR:5|,FLOOR:5|,FLOOR:9|,FLOOR:58|,FLOOR:58|,FLOOR:7|,FLOOR:58|,FLOOR:7|,FLOOR:7|,FLOOR:58|,FLOOR:7|,FLOOR:58|,FLOOR:7|,FLOOR:7|,FLOOR:7|,FLOOR:7|,
FLOOR:8|,FLOOR:8|,FLOOR:8|,FLOOR:8|,FLOOR:8|,FLOOR:8|,FLOOR:8|,FLOOR:8|,FLOOR:8|,FLOOR:8|,FLOOR:8|,FLOOR:8|,FLOOR:8|,FLOOR:8|,FLOOR:8|,FLOOR:8|,FLOOR:8|,FLOOR:8|,FLOOR:8|,FLOOR:8|,FLOOR:8|,FLOOR:8|,FLOOR:8|,FLOOR:8|,FLOOR:8|,FLOOR:8|,FLOOR:8|,WALL:25|,FLOOR:31|,FLOOR:31|,WALL:25|,FLOOR:9|,FLOOR:5|,FLOOR:5|,FLOOR:9|,FLOOR:7|,FLOOR:7|,FLOOR:7|,FLOOR:7|,FLOOR:7|,FLOOR:58|,FLOOR:7|,FLOOR:58|,FLOOR:7|,FLOOR:7|,FLOOR:7|,FLOOR:7|,FLOOR:7|,
FLOOR:8|,FLOOR:8|,FLOOR:8|,FLOOR:8|,FLOOR:8|,FLOOR:8|,FLOOR:8|,FLOOR:8|,FLOOR:8|,FLOOR:8|,FLOOR:8|,FLOOR:8|,FLOOR:8|,FLOOR:8|,FLOOR:8|,FLOOR:8|,FLOOR:8|,FLOOR:8|,FLOOR:8|,FLOOR:8|,FLOOR:8|,FLOOR:8|,FLOOR:8|,FLOOR:8|,FLOOR:8|,FLOOR:8|,FLOOR:8|,WALL:25|,WALL:25|,FLOOR:31|DOOR:2|,WALL:25|,FLOOR:9|,FLOOR:9|,FLOOR:9|,FLOOR:9|,FLOOR:7|,FLOOR:7|,FLOOR:7|,FLOOR:7|,FLOOR:7|,FLOOR:7|,FLOOR:7|,FLOOR:58|SCENERY:2:0|,FLOOR:7|,FLOOR:58|,FLOOR:7|,FLOOR:7|,FLOOR:7|SCENERY:1:0|,
FLOOR:7|,FLOOR:7|,FLOOR:7|,WALL:10|,WALL:10|,WALL:10|,WALL:10|,WALL:10|,FLOOR:8|,FLOOR:8|,WALL:4|,WALL:4|,WALL:4|,WALL:4|,FLOOR:31|DOOR:2|,WALL:4|,FLOOR:8|,FLOOR:8|,WALL:55|,WALL:55|,FLOOR:31|DOOR:2|,WALL:55|,WALL:55|,WALL:55|,FLOOR:8|,FLOOR:8|,FLOOR:8|,FLOOR:8|,FLOOR:8|,FLOOR:8|,FLOOR:8|,FLOOR:8|,FLOOR:8|,FLOOR:8|,FLOOR:8|,FLOOR:8|,FLOOR:8|,FLOOR:8|,FLOOR:8|,FLOOR:9|,FLOOR:7|,FLOOR:58|,FLOOR:7|,FLOOR:58|,FLOOR:7|,FLOOR:7|,FLOOR:7|,FLOOR:7|,
FLOOR:7|,FLOOR:7|,FLOOR:7|,WALL:10|,FLOOR:31|,FLOOR:31|,FLOOR:17|,WALL:10|,FLOOR:8|,FLOOR:8|,WALL:4|,FLOOR:53|,FLOOR:53|,FLOOR:53|,FLOOR:31|,WALL:4|,FLOOR:8|,FLOOR:8|,WALL:55|,FLOOR:31|,FLOOR:31|,FLOOR:31|,FLOOR:31|,WALL:55|,FLOOR:8|,FLOOR:8|,FLOOR:8|,FLOOR:8|,FLOOR:8|,FLOOR:8|,FLOOR:8|,FLOOR:8|,FLOOR:8|,FLOOR:8|,FLOOR:8|,FLOOR:9|DEPLOY:2|,FLOOR:8|DEPLOY:2|,FLOOR:8|,FLOOR:8|,FLOOR:9|,FLOOR:9|,FLOOR:9|,FLOOR:9|,FLOOR:7|,FLOOR:7|,FLOOR:7|,FLOOR:7|,FLOOR:7|,
FLOOR:7|,FLOOR:7|,FLOOR:7|,WALL:10|,FLOOR:31|,FLOOR:31|,FLOOR:31|,FLOOR:31|DOOR:1|,FLOOR:8|,FLOOR:8|,WALL:4|,FLOOR:31|,FLOOR:31|,FLOOR:53|,FLOOR:31|,WALL:4|,FLOOR:8|,FLOOR:8|,WALL:55|,FLOOR:31|,FLOOR:31|,FLOOR:31|,FLOOR:31|,WALL:55|,FLOOR:8|,FLOOR:8|,FLOOR:8|,WALL:60|,FLOOR:31|DOOR:2|,WALL:60|,WALL:60|,WALL:5|,WALL:5|,FLOOR:8|,WALL:5|,WALL:5|,WALL:5|,WALL:5|,FLOOR:8|,FLOOR:8|,FLOOR:7|,FLOOR:9|,FLOOR:7|,FLOOR:7|SCENERY:1:0|,FLOOR:7|,FLOOR:7|,FLOOR:7|SCENERY:1:0|,FLOOR:7|,
FLOOR:7|,FLOOR:7|,FLOOR:7|,WALL:10|,FLOOR:31|DOOR:2|,WALL:10|,WALL:10|,WALL:10|,FLOOR:8|,FLOOR:8|,WALL:4|,FLOOR:31|DOOR:2|,WALL:4|,WALL:4|,WALL:4|,WALL:4|,FLOOR:8|,FLOOR:8|,WALL:55|,WALL:55|,WALL:55|,WALL:55|,FLOOR:31|DOOR:2|,WALL:55|,FLOOR:8|,FLOOR:8|,FLOOR:8|,WALL:60|,FLOOR:31|,FLOOR:31|,FLOOR:2|,FLOOR:31|,WALL:5|,FLOOR:8|,FLOOR:9|,FLOOR:9|,FLOOR:9|,WALL:5|,FLOOR:8|,FLOOR:8|,FLOOR:7|SCENERY:2:0|,FLOOR:9|,FLOOR:7|,FLOOR:7|,FLOOR:7|,FLOOR:7|,FLOOR:7|,FLOOR:7|,
FLOOR:7|,FLOOR:7|SCENERY:1:0|,FLOOR:7|,WALL:10|,FLOOR:31|,FLOOR:17|,FLOOR:31|,WALL:10|,FLOOR:8|,FLOOR:8|,WALL:4|,FLOOR:31|,FLOOR:31|,FLOOR:53|,FLOOR:31|,WALL:4|,FLOOR:8|,FLOOR:8|,WALL:55|,FLOOR:31|,FLOOR:31|,FLOOR:31|,FLOOR:31|,FLOOR:31|DOOR:1|,FLOOR:8|,FLOOR:8|,FLOOR:8|,WALL:60|,FLOOR:31|,FLOOR:31|,FLOOR:31|,FLOOR:31|,WALL:60|,FLOOR:9|,FLOOR:9|,FLOOR:9|,FLOOR:9|,FLOOR:9|,FLOOR:8|,FLOOR:8|,FLOOR:7|,FLOOR:9|,FLOOR:7|,FLOOR:7|,FLOOR:7|,FLOOR:7|,FLOOR:7|,FLOOR:7|,
FLOOR:7|,FLOOR:7|,FLOOR:7|,WALL:10|,FLOOR:31|,FLOOR:31|,FLOOR:31|,WALL:10|,FLOOR:8|,FLOOR:8|,FLOOR:31|DOOR:1|,FLOOR:31|,FLOOR:31|,FLOOR:53|,FLOOR:31|,WALL:4|,FLOOR:8|,FLOOR:8|,WALL:55|,FLOOR:31|,FLOOR:31|,FLOOR:2|,FLOOR:31|,WALL:55|,FLOOR:8|,FLOOR:8|,FLOOR:8|,WALL:60|,FLOOR:17|,FLOOR:31|,FLOOR:31|,FLOOR:31|,WALL:60|,FLOOR:8|,FLOOR:9|,FLOOR:9|,FLOOR:9|,FLOOR:9|,FLOOR:8|,FLOOR:8|,FLOOR:7|,FLOOR:9|,FLOOR:7|,FLOOR:7|,FLOOR:7|,FLOOR:7|SCENERY:1:0|,FLOOR:7|,FLOOR:7|,
FLOOR:7|SCENERY:2:0|,FLOOR:7|,FLOOR:7|,WALL:10|,WALL:10|,FLOOR:31|DOOR:2|,WALL:10|,WALL:10|,FLOOR:8|,FLOOR:8|,WALL:4|,WALL:4|,WALL:4|,WALL:4|,WALL:4|,WALL:4|,FLOOR:8|,FLOOR:8|,WALL:55|,FLOOR:31|DOOR:2|,WALL:55|,WALL:55|,WALL:55|,WALL:55|,FLOOR:8|,FLOOR:8|,FLOOR:8|,WALL:60|,WALL:60|,WALL:60|,WALL:60|,FLOOR:31|DOOR:2|,WALL:60|,FLOOR:8|,WALL:5|,FLOOR:9|,FLOOR:9|,WALL:5|,FLOOR:8|,FLOOR:8|,FLOOR:7|,FLOOR:7|,FLOOR:7|,FLOOR:7|,FLOOR:7|SCENERY:2:0|,FLOOR:7|,FLOOR:7|,FLOOR:7|,
FLOOR:7|,FLOOR:7|,FLOOR:7|,FLOOR:7|,FLOOR:7|,FLOOR:7|,FLOOR:7|,FLOOR:7|,FLOOR:8|,FLOOR:8|,FLOOR:8|,FLOOR:8|,FLOOR:8|,FLOOR:8|,FLOOR:8|,FLOOR:8|,FLOOR:8|,FLOOR:8|,FLOOR:8|,FLOOR:8|,FLOOR:8|,FLOOR:8|,FLOOR:8|,FLOOR:8|,FLOOR:8|,FLOOR:8|,FLOOR:8|,FLOOR:8|,FLOOR:8|,FLOOR:8|,FLOOR:8|,FLOOR:8|,FLOOR:8|,FLOOR:8|,FLOOR:8|,FLOOR:8|,FLOOR:9|,FLOOR:8|,FLOOR:8|,FLOOR:8|,FLOOR:8|,FLOOR:8|,FLOOR:8|,FLOOR:8|,FLOOR:8|,FLOOR:8|,FLOOR:8|,FLOOR:8|,
FLOOR:7|,FLOOR:7|,FLOOR:7|,FLOOR:7|,FLOOR:7|,FLOOR:7|,FLOOR:7|,FLOOR:7|,FLOOR:8|,FLOOR:8|,FLOOR:8|,FLOOR:8|,FLOOR:8|,FLOOR:8|,FLOOR:8|,FLOOR:8|,FLOOR:8|,FLOOR:8|,FLOOR:8|,FLOOR:8|,FLOOR:8|,FLOOR:8|,FLOOR:8|,FLOOR:8|,FLOOR:8|,FLOOR:8|,FLOOR:8|,FLOOR:8|,FLOOR:8|,FLOOR:8|,FLOOR:8|,FLOOR:8|,FLOOR:8|,FLOOR:8|,FLOOR:8|,FLOOR:8|,FLOOR:8|,FLOOR:8|,FLOOR:8|,FLOOR:8|,FLOOR:8|,FLOOR:8|,FLOOR:8|,FLOOR:8|,FLOOR:8|,FLOOR:8|,FLOOR:8|,FLOOR:8|,
FLOOR:7|,FLOOR:7|,FLOOR:7|,FLOOR:7|,WALL:16|,WALL:16|,WALL:16|,WALL:16|,FLOOR:8|,FLOOR:8|,FLOOR:8|,FLOOR:8|,FLOOR:8|,FLOOR:8|,FLOOR:8|,FLOOR:8|,FLOOR:8|,FLOOR:9|,FLOOR:8|,FLOOR:8|,FLOOR:8|,FLOOR:8|,FLOOR:8|,FLOOR:8|,FLOOR:8|,FLOOR:8|,FLOOR:8|,FLOOR:8|,FLOOR:8|,FLOOR:8|,FLOOR:8|,FLOOR:8|,FLOOR:8|,FLOOR:8|,FLOOR:8|,FLOOR:8|,FLOOR:8|,FLOOR:8|,FLOOR:8|,FLOOR:8|,FLOOR:8|,FLOOR:8|,FLOOR:8|,FLOOR:8|,FLOOR:8|,FLOOR:8|,FLOOR:8|,FLOOR:8|,
FLOOR:7|,FLOOR:7|SCENERY:2:0|,FLOOR:7|,FLOOR:7|,WALL:16|,FLOOR:31|,FLOOR:31|,WALL:16|,FLOOR:8|,FLOOR:8|,FLOOR:8|,WALL:25|,WALL:25|,WALL:25|,WALL:25|,FLOOR:8|,WALL:25|,WALL:25|,FLOOR:5|,FLOOR:2|,FLOOR:9|,WALL:29|,WALL:29|,WALL:29|,WALL:29|,WALL:29|,WALL:29|,WALL:29|,WALL:29|,FLOOR:8|,FLOOR:8|,WALL:25|,WALL:25|,WALL:25|,WALL:25|,FLOOR:5|,WALL:25|,FLOOR:8|,FLOOR:8|,FLOOR:8|,WALL:29|,WALL:29|,WALL:29|DOOR:2|,WALL:29|,FLOOR:7|,FLOOR:7|,FLOOR:7|,FLOOR:7|,
FLOOR:7|,FLOOR:7|,FLOOR:7|,FLOOR:7|,FLOOR:31|DOOR:1|,FLOOR:31|,FLOOR:31|,WALL:16|,FLOOR:8|,FLOOR:8|,FLOOR:8|,WALL:25|,FLOOR:5|,FLOOR:5|,WALL:25|,FLOOR:8|,WALL:25|,FLOOR:24|,FLOOR:2|,WALL:25|,FLOOR:8|,WALL:29|,FLOOR:31|,FLOOR:31|,FLOOR:31|,FLOOR:31|,FLOOR:31|,FLOOR:31|,FLOOR:3|DOOR:1|,FLOOR:8|,FLOOR:8|,WALL:25|,FLOOR:31|,FLOOR:31|,FLOOR:31|,FLOOR:31|,WALL:25|,FLOOR:8|,FLOOR:8|,FLOOR:8|,WALL:29|,FLOOR:31|,FLOOR:31|,WALL:29|,FLOOR:7|,FLOOR:7|,FLOOR:7|,FLOOR:7|,
FLOOR:7|,FLOOR:7|,FLOOR:7|,FLOOR:7|,WALL:16|,WALL:16|,WALL:16|,WALL:16|,FLOOR:8|,FLOOR:8|,FLOOR:8|,WALL:25|,FLOOR:5|,FLOOR:5|,FLOOR:5|,FLOOR:9|,FLOOR:5|,FLOOR:2|,FLOOR:5|,WALL:25|,FLOOR:8|,WALL:29|,FLOOR:3|DOOR:2|,WALL:29|,WALL:29|,WALL:29|,WALL:29|,WALL:29|,WALL:29|,FLOOR:8|,FLOOR:8|,WALL:25|DOOR:1|,FLOOR:31|,FLOOR:31|,FLOOR:31|,FLOOR:31|,WALL:25|,FLOOR:8|,FLOOR:8|,FLOOR:8|,WALL:29|,FLOOR:31|,FLOOR:31|,WALL:29|,FLOOR:7|,FLOOR:7|,FLOOR:7|,FLOOR:7|,
FLOOR:8|,FLOOR:8|,FLOOR:8|,FLOOR:8|,FLOOR:8|,FLOOR:8|,FLOOR:8|,FLOOR:8|,FLOOR:8|,FLOOR:8|,FLOOR:8|,WALL:25|,WALL:25|,WALL:25|,WALL:25|,FLOOR:8|,FLOOR:2|,WALL:25|,FLOOR:24|,WALL:25|,FLOOR:8|,WALL:29|,FLOOR:10|DEPLOY:2|,FLOOR:10|,FLOOR:10|,FLOOR:10|,FLOOR:10|,FLOOR:10|DEPLOY:2|,WALL:29|,FLOOR:8|,FLOOR:8|,WALL:25|,WALL:25|,WALL:25|,WALL:25|,WALL:25|,WALL:25|,FLOOR:8|,FLOOR:8|,FLOOR:8|,WALL:29|DOOR:1|,FLOOR:31|,FLOOR:31|,WALL:29|,FLOOR:7|,FLOOR:7|,FLOOR:7|,FLOOR:7|,
FLOOR:8|,FLOOR:8|,FLOOR:8|,FLOOR:8|,FLOOR:8|,FLOOR:8|,FLOOR:8|,FLOOR:8|,FLOOR:8|,FLOOR:8|,FLOOR:8|,FLOOR:8|,FLOOR:8|,FLOOR:8|,FLOOR:8|,FLOOR:8|,FLOOR:8|,FLOOR:8|,FLOOR:5|,FLOOR:8|,FLOOR:8|,WALL:29|,FLOOR:10|,FLOOR:10|,FLOOR:10|,FLOOR:10|,FLOOR:10|,FLOOR:10|,WALL:29|,FLOOR:8|,FLOOR:8|,FLOOR:8|,FLOOR:8|,FLOOR:8|,FLOOR:8|,FLOOR:8|,FLOOR:8|,FLOOR:8|,FLOOR:8|,FLOOR:8|,WALL:29|,WALL:29|,WALL:29|,WALL:29|,FLOOR:7|,FLOOR:7|,FLOOR:7|,FLOOR:7|,
FLOOR:7|,WALL:50|,WALL:50|,WALL:50|,WALL:50|,WALL:50|,WALL:50|,WALL:50|,FLOOR:8|,FLOOR:8|,FLOOR:8|,WALL:29|,WALL:29|,WALL:29|,WALL:29|,WALL:29|,WALL:31|,WALL:17|,WALL:31|,WALL:31|,FLOOR:8|,WALL:29|,FLOOR:10|,FLOOR:10|,FLOOR:10|,FLOOR:10|,FLOOR:10|,FLOOR:10|,WALL:29|,FLOOR:8|,FLOOR:8|,WALL:26|,WALL:26|,FLOOR:4|DOOR:2|,WALL:26|,WALL:26|,WALL:26|,FLOOR:8|,FLOOR:8|,FLOOR:8|,FLOOR:7|,FLOOR:7|,FLOOR:7|,FLOOR:7|,FLOOR:7|,FLOOR:7|,FLOOR:7|,FLOOR:7|,
FLOOR:7|,WALL:50|,FLOOR:51|,WALL:50|,FLOOR:51|,FLOOR:51|,FLOOR:51|,WALL:50|,FLOOR:8|,FLOOR:8|,FLOOR:8|,WALL:29|,FLOOR:31|DEPLOY:2|,FLOOR:31|,FLOOR:31|,WALL:29|,FLOOR:31|,FLOOR:31|,FLOOR:31|DEPLOY:2|,WALL:17|,FLOOR:8|,WALL:29|,FLOOR:10|,FLOOR:10|,FLOOR:10|,FLOOR:10|,FLOOR:10|,FLOOR:10|,WALL:29|,FLOOR:8|,FLOOR:8|,WALL:26|,FLOOR:2|,FLOOR:31|,FLOOR:31|,FLOOR:31|,WALL:26|,FLOOR:8|,FLOOR:8|,FLOOR:8|,FLOOR:7|SCENERY:2:0|,FLOOR:7|,FLOOR:7|,FLOOR:7|,FLOOR:7|,FLOOR:7|,FLOOR:7|SCENERY:1:0|,FLOOR:7|,
FLOOR:7|,WALL:50|,FLOOR:51|,WALL:50|,FLOOR:51|,WALL:50|,FLOOR:51|,WALL:50|,FLOOR:8|,FLOOR:8|,FLOOR:8|,WALL:29|,FLOOR:31|,FLOOR:31|,FLOOR:31|,WALL:10|,FLOOR:31|,FLOOR:31|,FLOOR:31|,WALL:31|,FLOOR:8|,WALL:29|,FLOOR:10|,FLOOR:10|,FLOOR:10|,FLOOR:10|,FLOOR:10|,FLOOR:10|,WALL:29|,FLOOR:8|,FLOOR:8|,WALL:26|,FLOOR:31|,FLOOR:31|,FLOOR:31|,FLOOR:31|,WALL:26|,FLOOR:8|,FLOOR:8|,FLOOR:8|,FLOOR:7|,FLOOR:7|,FLOOR:7|,FLOOR:7|,FLOOR:7|,FLOOR:7|,FLOOR:7|,FLOOR:7|,
FLOOR:7|,WALL:50|,FLOOR:51|,WALL:50|,FLOOR:51|,WALL:50|,FLOOR:51|,WALL:50|,FLOOR:8|,FLOOR:8|,FLOOR:8|,WALL:29|,WALL:29|,FLOOR:68|DOOR:2|,WALL:29|,WALL:29|,WALL:31|,FLOOR:68|DOOR:2|,WALL:31|,WALL:31|,FLOOR:8|,WALL:29|,WALL:29|,FLOOR:3|DOOR:2|,WALL:29|,WALL:29|,FLOOR:3|DOOR:2|,WALL:29|,WALL:29|,FLOOR:8|,FLOOR:8|,WALL:26|,WALL:26|,WALL:26|,WALL:26|,WALL:26|,WALL:26|,FLOOR:8|,FLOOR:8|,FLOOR:8|,FLOOR:7|SCENERY:1:0|,FLOOR:7|,FLOOR:7|,FLOOR:7|SCENERY:1:0|,FLOOR:7|,FLOOR:7|,FLOOR:7|,FLOOR:7|,
FLOOR:7|,WALL:50|,FLOOR:51|,WALL:50|,FLOOR:51|,FLOOR:51|,FLOOR:51|,WALL:50|,WALL:62|,FLOOR:8|,FLOOR:8|,FLOOR:8|,FLOOR:8|,FLOOR:8|,FLOOR:8|,FLOOR:8|,FLOOR:8|,FLOOR:8|,FLOOR:8|,FLOOR:8|,FLOOR:8|,FLOOR:8|,FLOOR:8|,FLOOR:8|,FLOOR:8|,FLOOR:8|,FLOOR:8|,FLOOR:8|,FLOOR:8|,FLOOR:8|,FLOOR:8|,FLOOR:8|,FLOOR:8|,FLOOR:8|,FLOOR:8|,FLOOR:8|,FLOOR:8|,FLOOR:8|,FLOOR:8|,FLOOR:8|,FLOOR:7|,FLOOR:7|,FLOOR:7|,FLOOR:7|,FLOOR:7|,FLOOR:7|,FLOOR:7|,FLOOR:7|,
FLOOR:7|,WALL:50|,WALL:50|,WALL:50|,WALL:50|,WALL:50|,WALL:50|,WALL:50|,WALL:62|,FLOOR:8|,FLOOR:8|,FLOOR:8|,FLOOR:8|,FLOOR:8|,FLOOR:8|,FLOOR:8|,FLOOR:8|,FLOOR:8|,FLOOR:8|,FLOOR:8|,FLOOR:8|,FLOOR:8|,FLOOR:8|,FLOOR:8|,FLOOR:8|,FLOOR:8|,FLOOR:8|,FLOOR:8|,FLOOR:8|,FLOOR:8|,FLOOR:8|,FLOOR:8|,FLOOR:8|,FLOOR:8|,FLOOR:8|,FLOOR:8|,FLOOR:8|,FLOOR:8|,FLOOR:8|,FLOOR:8|,FLOOR:7|,FLOOR:7|,FLOOR:7|,FLOOR:7|,FLOOR:7|,FLOOR:7|,FLOOR:7|,FLOOR:7|,
FLOOR:7|,WALL:50|,FLOOR:51|,WALL:50|,FLOOR:51|,FLOOR:51|,FLOOR:51|,WALL:50|,FLOOR:21|,FLOOR:8|,FLOOR:8|,FLOOR:8|,FLOOR:8|,FLOOR:8|,FLOOR:8|,FLOOR:8|,FLOOR:8|,FLOOR:8|,FLOOR:8|,FLOOR:8|,FLOOR:8|,FLOOR:8|,FLOOR:9|,FLOOR:8|,FLOOR:8|,FLOOR:8|,FLOOR:8|,FLOOR:8|,FLOOR:8|,FLOOR:8|,FLOOR:8|,FLOOR:8|,FLOOR:8|,FLOOR:9|,FLOOR:8|,FLOOR:8|,FLOOR:8|,FLOOR:8|,FLOOR:8|,FLOOR:8|,WALL:9|,WALL:9|,FLOOR:31|,WALL:9|,FLOOR:7|,FLOOR:7|,FLOOR:7|,FLOOR:7|SCENERY:1:0|,
FLOOR:7|,WALL:50|,FLOOR:51|,WALL:50|,FLOOR:51|,WALL:50|,FLOOR:51|,WALL:50|,FLOOR:9|,FLOOR:7|,WALL:9|,WALL:9|,WALL:9|,WALL:9|DOOR:2|,WALL:9|,FLOOR:7|,FLOOR:7|,FLOOR:7|,FLOOR:7|,FLOOR:7|,FLOOR:7|,WALL:13|,FLOOR:2|,FLOOR:2|,FLOOR:9|,FLOOR:8|,FLOOR:8|,FLOOR:2|,FLOOR:2|,FLOOR:9|,FLOOR:7|,FLOOR:7|,FLOOR:7|,FLOOR:9|,FLOOR:7|,FLOOR:7|,FLOOR:7|,FLOOR:7|,FLOOR:7|,FLOOR:7|,WALL:9|,FLOOR:31|,FLOOR:31|,WALL:9|,FLOOR:7|,FLOOR:7|SCENERY:2:0|,FLOOR:7|,FLOOR:7|,
FLOOR:7|,WALL:50|,FLOOR:51|,WALL:50|,FLOOR:51|,WALL:50|,FLOOR:51|,WALL:50|,FLOOR:9|,FLOOR:7|,WALL:9|,FLOOR:31|,FLOOR:31|,FLOOR:31|,WALL:9|,FLOOR:7|,FLOOR:7|,FLOOR:7|,FLOOR:7|,FLOOR:7|,FLOOR:7|,FLOOR:5|,FLOOR:2|,FLOOR:2|,FLOOR:8|,FLOOR:8|,FLOOR:8|,FLOOR:2|,FLOOR:2|,FLOOR:2|,FLOOR:7|,FLOOR:7|,FLOOR:7|,FLOOR:9|,FLOOR:7|,FLOOR:7|,FLOOR:7|,FLOOR:7|,FLOOR:7|,FLOOR:7|,FLOOR:31|DOOR:1|,FLOOR:31|,FLOOR:31|,WALL:9|,FLOOR:7|,FLOOR:7|,FLOOR:7|,FLOOR:7|,
FLOOR:7|,WALL:50|,FLOOR:51|,WALL:50|,FLOOR:51|,FLOOR:51|,FLOOR:51|,WALL:50|,FLOOR:9|,FLOOR:7|,FLOOR:31|DOOR:1|,FLOOR:31|,FLOOR:31|,FLOOR:31|,WALL:9|,FLOOR:7|SCENERY:2:0|,FLOOR:7|,FLOOR:7|,FLOOR:7|,FLOOR:7|,FLOOR:7|,FLOOR:2|,FLOOR:2|,FLOOR:5|,FLOOR:8|,FLOOR:8|,FLOOR:8|,FLOOR:2|,FLOOR:2|,FLOOR:2|,FLOOR:7|,FLOOR:7|,FLOOR:7|,FLOOR:9|,FLOOR:9|,FLOOR:7|,FLOOR:7|,FLOOR:7|,FLOOR:7|,FLOOR:7|,WALL:9|,WALL:9|,WALL:9|,WALL:9|,FLOOR:9|,FLOOR:7|,FLOOR:7|,FLOOR:7|,
FLOOR:7|,WALL:50|,WALL:50|,WALL:50|,WALL:50|,WALL:50|,WALL:50|,WALL:50|,FLOOR:9|,FLOOR:7|,WALL:9|,WALL:9|,WALL:9|,WALL:9|,WALL:9|,FLOOR:7|,FLOOR:7|,FLOOR:7|,FLOOR:7|,FLOOR:7|,FLOOR:9|,WALL:13|,WALL:13|,WALL:13|,FLOOR:5|,FLOOR:8|,FLOOR:8|,FLOOR:9|,FLOOR:2|,FLOOR:2|,FLOOR:7|,FLOOR:7|,FLOOR:7|,FLOOR:7|,FLOOR:7|,FLOOR:7|,FLOOR:7|,FLOOR:7|SCENERY:2:0|,FLOOR:7|,FLOOR:7|,FLOOR:7|,FLOOR:7|,FLOOR:7|,FLOOR:7|,FLOOR:9|,FLOOR:9|,FLOOR:7|,FLOOR:7|,
FLOOR:7|,FLOOR:7|,FLOOR:7|,FLOOR:7|,FLOOR:7|,FLOOR:7|,FLOOR:7|,FLOOR:7|,FLOOR:9|,FLOOR:7|,FLOOR:7|,FLOOR:7|,FLOOR:7|,FLOOR:7|,FLOOR:7|,FLOOR:7|,FLOOR:7|,FLOOR:7|,FLOOR:7|,FLOOR:7|,FLOOR:7|,FLOOR:2|,FLOOR:2|,FLOOR:2|,FLOOR:8|,FLOOR:8|,FLOOR:8|,FLOOR:2|,FLOOR:2|,FLOOR:2|,FLOOR:7|,FLOOR:7|,FLOOR:7|,FLOOR:7|,FLOOR:7|,FLOOR:7|,FLOOR:7|,FLOOR:7|,FLOOR:7|,FLOOR:7|,FLOOR:7|,FLOOR:7|,FLOOR:7|,FLOOR:7|,FLOOR:7|,FLOOR:9|,FLOOR:7|,FLOOR:7|,
FLOOR:7|,FLOOR:7|,FLOOR:7|,FLOOR:7|,FLOOR:7|,FLOOR:7|,FLOOR:7|,FLOOR:7|,FLOOR:9|,FLOOR:7|,FLOOR:7|,FLOOR:7|,FLOOR:7|,FLOOR:7|,FLOOR:7|,FLOOR:7|,FLOOR:7|,FLOOR:7|SCENERY:2:0|,FLOOR:7|,FLOOR:7|,FLOOR:7|,FLOOR:7|,FLOOR:7|,FLOOR:9|,FLOOR:8|,FLOOR:8|,FLOOR:8|,FLOOR:7|,FLOOR:7|,FLOOR:9|,FLOOR:7|,FLOOR:7|,FLOOR:7|SCENERY:1:0|,FLOOR:7|,FLOOR:7|,FLOOR:7|,FLOOR:7|,FLOOR:7|,FLOOR:7|,FLOOR:7|SCENERY:1:0|,FLOOR:7|,FLOOR:7|,FLOOR:7|,FLOOR:7|,FLOOR:7|,FLOOR:9|,FLOOR:7|,FLOOR:7|,
FLOOR:7|,FLOOR:7|,FLOOR:7|,FLOOR:58|,FLOOR:7|,FLOOR:7|,FLOOR:7|,FLOOR:7|SCENERY:1:0|,FLOOR:9|,FLOOR:7|,FLOOR:7|,FLOOR:7|,FLOOR:7|,FLOOR:7|,FLOOR:7|SCENERY:2:0|,FLOOR:7|,FLOOR:7|,FLOOR:7|,FLOOR:7|,FLOOR:7|,FLOOR:7|,FLOOR:7|,FLOOR:7|,FLOOR:7|,FLOOR:8|,FLOOR:8|,FLOOR:8|,FLOOR:7|,FLOOR:7|,FLOOR:7|,FLOOR:7|,FLOOR:7|,FLOOR:7|,FLOOR:7|,FLOOR:7|,FLOOR:7|,FLOOR:7|SCENERY:2:0|,FLOOR:7|,FLOOR:7|,FLOOR:7|,FLOOR:7|,FLOOR:7|,FLOOR:7|,FLOOR:7|SCENERY:1:0|,FLOOR:7|,FLOOR:9|,FLOOR:7|,FLOOR:7|,
FLOOR:7|SCENERY:2:0|,FLOOR:7|,FLOOR:58|,FLOOR:58|,FLOOR:7|,FLOOR:7|,FLOOR:7|,FLOOR:7|,FLOOR:9|,FLOOR:7|,FLOOR:7|,FLOOR:7|,FLOOR:7|,FLOOR:7|,FLOOR:7|,FLOOR:7|,FLOOR:7|,FLOOR:58|,FLOOR:7|,FLOOR:7|,FLOOR:7|,FLOOR:7|,FLOOR:7|SCENERY:1:0|,FLOOR:7|,FLOOR:8|,FLOOR:8|,FLOOR:8|,FLOOR:7|,FLOOR:58|,FLOOR:7|,FLOOR:7|,FLOOR:7|,FLOOR:7|,FLOOR:7|,FLOOR:7|,FLOOR:58|,FLOOR:7|,FLOOR:7|,FLOOR:7|,FLOOR:7|,FLOOR:7|,FLOOR:7|,FLOOR:7|,FLOOR:7|,FLOOR:7|,FLOOR:9|,FLOOR:7|,FLOOR:7|,
FLOOR:7|,FLOOR:7|,FLOOR:7|,FLOOR:7|,FLOOR:58|,FLOOR:7|,FLOOR:7|SCENERY:1:0|,FLOOR:7|,FLOOR:9|,FLOOR:7|,WALL:15|,FLOOR:7|,FLOOR:7|,FLOOR:7|,FLOOR:58|,WALL:15|,FLOOR:7|,FLOOR:58|,FLOOR:7|,FLOOR:7|,FLOOR:7|,FLOOR:7|,FLOOR:7|,FLOOR:7|,FLOOR:8|,FLOOR:8|,FLOOR:8|,FLOOR:7|,FLOOR:58|,FLOOR:7|,FLOOR:7|,FLOOR:7|RAISED_FLOOR:58|,FLOOR:7|,FLOOR:58|,FLOOR:58|,FLOOR:7|,FLOOR:7|,FLOOR:7|,FLOOR:7|,FLOOR:7|SCENERY:2:0|,FLOOR:7|,FLOOR:7|,FLOOR:7|,FLOOR:7|,FLOOR:7|,FLOOR:9|,FLOOR:7|,FLOOR:7|,
FLOOR:58|,WALL:15|,FLOOR:58|,FLOOR:7|,FLOOR:58|,FLOOR:7|,FLOOR:7|,FLOOR:7|,FLOOR:9|,FLOOR:7|,FLOOR:9|,FLOOR:58|,FLOOR:7|,FLOOR:7|,FLOOR:58|,FLOOR:58|,FLOOR:58|,FLOOR:7|,FLOOR:58|,FLOOR:9|,FLOOR:58|,FLOOR:7|,FLOOR:7|,FLOOR:7|,FLOOR:8|,FLOOR:8|,FLOOR:8|,FLOOR:7|,FLOOR:7|,FLOOR:7|,FLOOR:7|RAISED_FLOOR:58|,FLOOR:7|,FLOOR:7|,FLOOR:7|,FLOOR:7|,FLOOR:7|,FLOOR:7|,FLOOR:7|,FLOOR:7|,FLOOR:7|,FLOOR:7|,FLOOR:9|,FLOOR:7|,FLOOR:7|,FLOOR:7|,FLOOR:9|,FLOOR:7|,FLOOR:7|,
FLOOR:58|,FLOOR:7|,FLOOR:58|,FLOOR:58|,FLOOR:58|,FLOOR:7|,WALL:15|,FLOOR:7|,FLOOR:9|,FLOOR:58|,FLOOR:9|,FLOOR:9|,FLOOR:58|,FLOOR:7|SCENERY:1:0|,FLOOR:58|,FLOOR:7|,FLOOR:7|,FLOOR:7|,FLOOR:58|,FLOOR:9|,FLOOR:9|,FLOOR:9|,FLOOR:7|,FLOOR:7|,FLOOR:8|,FLOOR:8|,FLOOR:8|,FLOOR:7|,FLOOR:9|,FLOOR:7|,FLOOR:7|,FLOOR:7|,FLOOR:7|SCENERY:1:0|,FLOOR:7|,FLOOR:7|,FLOOR:7|,FLOOR:9|,WALL:5|,WALL:5|,FLOOR:9|,WALL:5|,FLOOR:7|,FLOOR:7|,FLOOR:7|,FLOOR:7|,FLOOR:9|,FLOOR:7|,FLOOR:7|,
FLOOR:58|,FLOOR:58|,FLOOR:7|,FLOOR:58|,FLOOR:7|SCENERY:2:0|,FLOOR:7|,FLOOR:58|,FLOOR:58|,FLOOR:9|,FLOOR:58|,FLOOR:7|,FLOOR:7|,FLOOR:58|,FLOOR:58|,FLOOR:58|,FLOOR:9|,FLOOR:9|,FLOOR:9|,FLOOR:58|,WALL:15|,FLOOR:58|,FLOOR:9|,FLOOR:9|,FLOOR:7|,FLOOR:8|DEPLOY:1|,FLOOR:8|DEPLOY:1|,FLOOR:8|DEPLOY:1|,FLOOR:58|,FLOOR:9|,FLOOR:58|,FLOOR:7|,FLOOR:7|,FLOOR:7|,FLOOR:7|,FLOOR:7|,FLOOR:7|,FLOOR:7|,WALL:5|,FLOOR:2|,FLOOR:2|,FLOOR:2|,FLOOR:7|,FLOOR:7|,FLOOR:7|,FLOOR:9|,FLOOR:9|,FLOOR:7|,FLOOR:7|,
FLOOR:7|,FLOOR:58|,FLOOR:58|,FLOOR:58|,FLOOR:7|,FLOOR:58|,FLOOR:7|,FLOOR:58|,FLOOR:9|,FLOOR:9|,FLOOR:9|,FLOOR:7|SCENERY:1:0|,FLOOR:58|,FLOOR:7|,FLOOR:58|,FLOOR:9|,FLOOR:58|,FLOOR:58|,FLOOR:58|,FLOOR:58|,FLOOR:58|,FLOOR:58|,FLOOR:58|,FLOOR:7|,FLOOR:8|DEPLOY:1|,FLOOR:8|DEPLOY:1|,FLOOR:8|DEPLOY:1|,FLOOR:58|,FLOOR:9|,FLOOR:9|,FLOOR:9|,FLOOR:9|,FLOOR:9|,FLOOR:9|,FLOOR:9|,FLOOR:9|,FLOOR:9|,FLOOR:2|,FLOOR:2|,FLOOR:2|,FLOOR:2|,FLOOR:9|,FLOOR:9|,FLOOR:9|,FLOOR:9|,FLOOR:7|,FLOOR:7|,FLOOR:7|,
FLOOR:58|,FLOOR:7|,FLOOR:7|,FLOOR:58|,FLOOR:58|,FLOOR:7|,FLOOR:7|,FLOOR:58|,WALL:15|,FLOOR:58|,FLOOR:9|,FLOOR:7|,FLOOR:58|,WALL:15|,FLOOR:7|,FLOOR:58|,FLOOR:58|,FLOOR:7|,FLOOR:7|,FLOOR:7|SCENERY:1:0|,FLOOR:9|,FLOOR:58|,WALL:15|,FLOOR:58|,FLOOR:8|DEPLOY:1|,FLOOR:8|DEPLOY:1|,FLOOR:8|DEPLOY:1|,FLOOR:9|,FLOOR:9|,FLOOR:58|,FLOOR:58|,FLOOR:7|,FLOOR:7|,FLOOR:7|,FLOOR:7|,FLOOR:7|,FLOOR:9|,FLOOR:2|,FLOOR:2|,FLOOR:2|,WALL:5|,FLOOR:7|,FLOOR:9|,FLOOR:7|,FLOOR:7|,FLOOR:7|,FLOOR:7|,FLOOR:7|,
FLOOR:58|,FLOOR:58|,FLOOR:58|,WALL:15|,FLOOR:58|,FLOOR:58|,FLOOR:58|,FLOOR:58|,FLOOR:58|,FLOOR:58|,FLOOR:9|,FLOOR:58|,FLOOR:7|,FLOOR:58|,FLOOR:58|,FLOOR:58|,FLOOR:7|,FLOOR:7|,FLOOR:7|,FLOOR:7|,FLOOR:9|,FLOOR:9|,FLOOR:58|,FLOOR:58|,FLOOR:8|DEPLOY:1|,FLOOR:8|DEPLOY:1|,FLOOR:8|DEPLOY:1|,FLOOR:9|,FLOOR:58|,WALL:15|,FLOOR:7|,FLOOR:7|,FLOOR:7|,FLOOR:7|,FLOOR:7|SCENERY:1:0|,FLOOR:7|,FLOOR:7|,FLOOR:7|,FLOOR:9|,FLOOR:7|,FLOOR:7|,FLOOR:7|,FLOOR:9|,FLOOR:7|,FLOOR:7|,FLOOR:7|,FLOOR:7|,FLOOR:7|,
FLOOR:7|,FLOOR:7|,FLOOR:58|,FLOOR:58|,FLOOR:58|,FLOOR:58|,FLOOR:58|,FLOOR:7|,FLOOR:7|,FLOOR:7|,FLOOR:9|,FLOOR:58|,FLOOR:58|,FLOOR:7|,FLOOR:7|,FLOOR:7|,FLOOR:7|,FLOOR:7|,FLOOR:58|,FLOOR:7|,FLOOR:7|,FLOOR:9|,FLOOR:9|,FLOOR:58|,FLOOR:8|DEPLOY:1|,FLOOR:8|DEPLOY:1|,FLOOR:8|DEPLOY:1|,FLOOR:9|,FLOOR:7|,FLOOR:58|,FLOOR:58|,FLOOR:58|,FLOOR:7|,FLOOR:7|,FLOOR:7|,FLOOR:7|,FLOOR:7|,FLOOR:7|,FLOOR:7|,FLOOR:7|,FLOOR:7|,FLOOR:7|,FLOOR:9|,FLOOR:7|,FLOOR:7|,FLOOR:7|,FLOOR:7|,FLOOR:7|,

